﻿// EVENT 1352
Name "Talk: Polar Bear Girl"

If(1,20,0,1,0)
 JumpToLabel("情報")
 0()
EndIf()
If(1,20,0,2,0)
 JumpToLabel("質問")
 0()
EndIf()
If(1,20,0,3,0)
 JumpToLabel("要求")
 0()
EndIf()
If(1,20,0,4,0)
 JumpToLabel("贈与")
 0()
EndIf()
DefineLabel("情報")
ChangeVariable(13,13,0,2,1,100)
If(1,13,0,10,2)
 ShowMessageFace("shirokuma_fc1",0,0,2,1)
 ShowMessage("\\n<Polar Bear Girl>Cold...")
 EndEventProcessing()
 0()
EndIf()
If(1,13,0,20,2)
 ShowMessageFace("shirokuma_fc1",0,0,2,2)
 ShowMessage("\\n<Polar Bear Girl>I'm hungry...")
 EndEventProcessing()
 0()
EndIf()
If(1,13,0,30,2)
 ShowMessageFace("shirokuma_fc1",0,0,2,3)
 ShowMessage("\\n<Polar Bear Girl>Polar bear, cold...")
 EndEventProcessing()
 0()
EndIf()
If(1,13,0,40,2)
 ShowMessageFace("shirokuma_fc1",0,0,2,4)
 ShowMessage("\\n<Polar Bear Girl>Polar bear, moves south on the ice floe...")
 EndEventProcessing()
 0()
EndIf()
If(1,13,0,50,2)
 ShowMessageFace("shirokuma_fc1",0,0,2,5)
 ShowMessage("\\n<Polar Bear Girl>Ice breath, I can breathe...")
 EndEventProcessing()
 0()
EndIf()
If(1,13,0,60,2)
 ShowMessageFace("shirokuma_fc1",0,0,2,6)
 ShowMessage("\\n<Polar Bear Girl>Polar bear, timid... Don't bully me.")
 EndEventProcessing()
 0()
EndIf()
If(1,13,0,70,2)
 ShowMessageFace("shirokuma_fc1",0,0,2,7)
 ShowMessage("\\n<Polar Bear Girl>I want to be warm...")
 EndEventProcessing()
 0()
EndIf()
If(1,13,0,80,2)
 ShowMessageFace("shirokuma_fc1",0,0,2,8)
 ShowMessage("\\n<Polar Bear Girl>Polar bear, eat fish...")
 EndEventProcessing()
 0()
EndIf()
If(1,13,0,90,2)
 ShowMessageFace("shirokuma_fc1",0,0,2,9)
 ShowMessage("\\n<Polar Bear Girl>Northern area, ice has melted...\nI wonder what it is...")
 EndEventProcessing()
 0()
EndIf()
If(1,13,0,100,2)
 ShowMessageFace("shirokuma_fc1",0,0,2,10)
 ShowMessage("\\n<Polar Bear Girl>Polar bear, lonely...")
 EndEventProcessing()
 0()
EndIf()
DefineLabel("質問")
ChangeVariable(13,13,0,2,1,50)
If(1,13,0,10,2)
 ShowMessageFace("shirokuma_fc1",0,0,2,11)
 ShowMessage("\\n<Polar Bear Girl>Warmth, like...?")
 ShowChoices(strings("Like","Dislike","It's rather burning"),0)
 IfPlayerPicksChoice(0,"好き")
  ShowMessageFace("shirokuma_fc1",1,0,2,12)
  ShowMessage("\\n<Polar Bear Girl>Then, warm up...")
  355("change_friend(10)")
  0()
 IfPlayerPicksChoice(1,"嫌い")
  ShowMessageFace("shirokuma_fc1",0,0,2,13)
  ShowMessage("\\n<Polar Bear Girl>Cold...")
  355("change_friend(-5)")
  0()
 IfPlayerPicksChoice(2,"むしろ燃えている")
  ShowMessageFace("shirokuma_fc1",0,0,2,14)
  ShowMessage("\\n<Polar Bear Girl>Fluffy, burning...")
  0()
 404()
 EndEventProcessing()
 0()
EndIf()
If(1,13,0,20,2)
 ShowMessageFace("shirokuma_fc1",0,0,2,15)
 ShowMessage("\\n<Polar Bear Girl>Snuggle, try...?")
 ShowChoices(strings("Snuggle","Don't snuggle","Pet her"),0)
 IfPlayerPicksChoice(0,"ぬくぬくする")
  ShowMessageFace("shirokuma_fc1",1,0,2,16)
  ShowMessage("\\n<Polar Bear Girl>Warm...♪")
  355("change_friend(10)")
  0()
 IfPlayerPicksChoice(1,"ぬくぬくしない")
  ShowMessageFace("shirokuma_fc1",0,0,2,17)
  ShowMessage("\\n<Polar Bear Girl>Cold...")
  355("change_friend(-5)")
  0()
 IfPlayerPicksChoice(2,"ヌキヌキする")
  ShowMessageFace("shirokuma_fc1",2,0,2,18)
  ShowMessage("\\n<Polar Bear Girl>...???")
  0()
 404()
 EndEventProcessing()
 0()
EndIf()
If(1,13,0,30,2)
 ShowMessageFace("shirokuma_fc1",0,0,2,19)
 ShowMessage("\\n<Polar Bear Girl>These clothes, you know how I got them...?")
 ShowChoices(strings("Made them yourself","Bartered","Stolen from a traveler"),0)
 IfPlayerPicksChoice(0,"自分で作った")
  ShowMessageFace("shirokuma_fc1",0,0,2,20)
  ShowMessage("\\n<Polar Bear Girl>Impossible...")
  0()
 IfPlayerPicksChoice(1,"物々交換")
  ShowMessageFace("shirokuma_fc1",0,0,2,21)
  ShowMessage("\\n<Polar Bear Girl>Right... Gave fish and fruit to the Ice Witch.\nThen gave me clothes.")
  355("change_friend(10)")
  0()
 IfPlayerPicksChoice(2,"旅人のを奪った")
  ShowMessageFace("shirokuma_fc1",0,0,2,22)
  ShowMessage("\\n<Polar Bear Girl>I wouldn't do that...")
  355("change_friend(-5)")
  0()
 404()
 EndEventProcessing()
 0()
EndIf()
If(1,13,0,40,2)
 ShowMessageFace("shirokuma_fc1",0,0,2,23)
 ShowMessage("\\n<Polar Bear Girl>What bear do you like?")
 ShowChoices(strings("Ordinary bear","Polar bear","Black bear"),0)
 IfPlayerPicksChoice(0,"普通のクマ")
  ShowMessageFace("shirokuma_fc1",0,0,2,24)
  ShowMessage("\\n<Polar Bear Girl>White bears...?")
  0()
 IfPlayerPicksChoice(1,"シロクマ")
  ShowMessageFace("shirokuma_fc1",1,0,2,25)
  ShowMessage("\\n<Polar Bear Girl>......♪")
  355("change_friend(10)")
  0()
 IfPlayerPicksChoice(2,"クロクマ")
  ShowMessageFace("shirokuma_fc1",0,0,2,26)
  ShowMessage("\\n<Polar Bear Girl>Black bears?! Maybe bad...")
  0()
 404()
 EndEventProcessing()
 0()
EndIf()
If(1,13,0,50,2)
 ShowMessageFace("shirokuma_fc1",0,0,2,27)
 ShowMessage("\\n<Polar Bear Girl>Polar bear, bully?")
 ShowChoices(strings("Don't bully","Bully","Get bullied"),0)
 IfPlayerPicksChoice(0,"いじめない")
  ShowMessageFace("shirokuma_fc1",1,0,2,28)
  ShowMessage("\\n<Polar Bear Girl>Snuggle, try...?")
  355("change_friend(10)")
  0()
 IfPlayerPicksChoice(1,"いじめる")
  ShowMessageFace("shirokuma_fc1",0,0,2,29)
  ShowMessage("\\n<Polar Bear Girl>Hate...")
  355("change_friend(-5)")
  0()
 IfPlayerPicksChoice(2,"いじめられる")
  ShowMessageFace("shirokuma_fc1",0,0,2,30)
  ShowMessage("\\n<Polar Bear Girl>Polar bear, does not bully.")
  0()
 404()
 EndEventProcessing()
 0()
EndIf()
DefineLabel("要求")
ChangeVariable(13,13,0,2,1,30)
If(1,13,0,10,2)
 If(8,329)
  ShowMessageFace("shirokuma_fc1",0,0,2,31)
  ShowMessage("\\n<Polar Bear Girl>Meat...want to eat...")
  ChangeVariable(24,24,0,3,0,329,0)
  ShowMessageFace("",0,0,2,32)
  ShowMessage("Do you want to give some \\ii[329]? (Have:\\V[24])")
  ShowChoices(strings("Yes","No"),2)
  IfPlayerPicksChoice(0,"Yes")
   ShowMessageFace("shirokuma_fc1",0,0,2,33)
   ShowMessage("\\n<Polar Bear Girl>*munching*...")
   ChangeInventory_Item(329,1,0,1)
   355("change_friend(20)")
   EndEventProcessing()
   0()
  IfPlayerPicksChoice(1,"No")
   ShowMessageFace("shirokuma_fc1",0,0,2,34)
   ShowMessage("\\n<Polar Bear Girl>Gah!")
   EndEventProcessing()
   0()
  404()
  0()
 Else()
  ChangeVariable(13,13,0,0,20)
  0()
 EndIf()
 0()
EndIf()
If(1,13,0,20,2)
 If(8,2)
  ShowMessageFace("shirokuma_fc1",0,0,2,35)
  ShowMessage("\\n<Polar Bear Girl>Herb, want to eat...")
  ChangeVariable(24,24,0,3,0,2,0)
  ShowMessageFace("",0,0,2,36)
  ShowMessage("Do you want to give a \\ii[2]? (Have:\\V[24])")
  ShowChoices(strings("Yes","No"),2)
  IfPlayerPicksChoice(0,"Yes")
   ShowMessageFace("shirokuma_fc1",0,0,2,37)
   ShowMessage("\\n<Polar Bear Girl>*munching*...")
   ChangeInventory_Item(2,1,0,1)
   355("change_friend(30)")
   EndEventProcessing()
   0()
  IfPlayerPicksChoice(1,"No")
   ShowMessageFace("shirokuma_fc1",0,0,2,38)
   ShowMessage("\\n<Polar Bear Girl>Gah!")
   EndEventProcessing()
   0()
  404()
  0()
 Else()
  ChangeVariable(13,13,0,0,30)
  0()
 EndIf()
 0()
EndIf()
If(1,13,0,30,2)
 ShowMessageFace("shirokuma_fc1",0,0,2,39)
 ShowMessage("\\n<Polar Bear Girl>Money, tasty?")
 If(7,1197,0)
  ChangeVariable(24,24,0,3,7,2,0)
  ShowMessageFace("",0,0,2,40)
  ShowMessage("Do you want to give 1197G? (Remaining:\\V[24])")
  ShowChoices(strings("Yes","No"),2)
  IfPlayerPicksChoice(0,"Yes")
   ShowMessageFace("shirokuma_fc1",0,0,2,41)
   ShowMessage("\\n<Polar Bear Girl>*munching*... Not tasty.")
   125(1,0,1197)
   355("change_friend(25)")
   EndEventProcessing()
   0()
  IfPlayerPicksChoice(1,"No")
   ShowMessageFace("shirokuma_fc1",0,0,2,42)
   ShowMessage("\\n<Polar Bear Girl>Gah!")
   EndEventProcessing()
   0()
  404()
  0()
 Else()
  ShowMessageFace("shirokuma_fc1",0,0,2,43)
  ShowMessage("\\n<Polar Bear Girl>You don't have it? Did you eat it...?")
  EndEventProcessing()
  0()
 EndIf()
 0()
EndIf()
DefineLabel("贈与")
ChangeVariable(13,13,0,2,1,30)
If(1,25,0,1,0)
 ChangeVariable(13,13,0,0,30)
 ChangeVariable(25,25,0,0,0)
 0()
EndIf()
If(1,25,0,2,0)
 ChangeVariable(13,13,0,2,1,20)
 ChangeVariable(25,25,0,0,0)
 0()
EndIf()
If(1,13,0,10,2)
 ShowMessageFace("shirokuma_fc1",0,0,2,44)
 ShowMessage("\\n<Polar Bear Girl>Medicine, give...")
 250(bytes(0x04,0x08,0x6f,0x3a,0x0c,0x52,0x50,0x47,0x3a,0x3a,0x53,0x45,0x08,0x3a,0x0a,0x40,0x6e,0x61,0x6d,0x65,0x49,0x22,0x0a,0x49,0x74,0x65,0x6d,0x31,0x06,0x3a,0x06,0x45,0x54,0x3a,0x0b,0x40,0x70,0x69,0x74,0x63,0x68,0x69,0x69,0x3a,0x0c,0x40,0x76,0x6f,0x6c,0x75,0x6d,0x65,0x69,0x55))
 ChangeInventory_Item(22,0,0,1)
 ShowMessageFace("",0,0,2,45)
 ShowMessage("The Polar Bear Girl gave you a \\ii[22]!")
 EndEventProcessing()
 0()
EndIf()
If(1,13,0,20,2)
 ShowMessageFace("shirokuma_fc1",0,0,2,46)
 ShowMessage("\\n<Polar Bear Girl>Pudding, give...")
 250(bytes(0x04,0x08,0x6f,0x3a,0x0c,0x52,0x50,0x47,0x3a,0x3a,0x53,0x45,0x08,0x3a,0x0a,0x40,0x6e,0x61,0x6d,0x65,0x49,0x22,0x0a,0x49,0x74,0x65,0x6d,0x31,0x06,0x3a,0x06,0x45,0x54,0x3a,0x0b,0x40,0x70,0x69,0x74,0x63,0x68,0x69,0x69,0x3a,0x0c,0x40,0x76,0x6f,0x6c,0x75,0x6d,0x65,0x69,0x55))
 ChangeInventory_Item(423,0,0,1)
 ShowMessageFace("",0,0,2,47)
 ShowMessage("The Polar Bear Girl gave you some \\ii[423]!")
 EndEventProcessing()
 0()
EndIf()
If(1,13,0,30,2)
 ShowMessageFace("shirokuma_fc1",0,0,2,48)
 ShowMessage("\\n<Polar Bear Girl>Money, not tasty... Give...")
 250(bytes(0x04,0x08,0x6f,0x3a,0x0c,0x52,0x50,0x47,0x3a,0x3a,0x53,0x45,0x08,0x3a,0x0a,0x40,0x6e,0x61,0x6d,0x65,0x49,0x22,0x0a,0x49,0x74,0x65,0x6d,0x31,0x06,0x3a,0x06,0x45,0x54,0x3a,0x0b,0x40,0x70,0x69,0x74,0x63,0x68,0x69,0x69,0x3a,0x0c,0x40,0x76,0x6f,0x6c,0x75,0x6d,0x65,0x69,0x55))
 125(0,0,1995)
 ShowMessageFace("",0,0,2,49)
 ShowMessage("The Polar Bear Girl gave you 1995G!")
 EndEventProcessing()
 0()
EndIf()
0()
