﻿// EVENT 3481
Name "Nemea"

PictureDisplay(5,"80_nemea_st01",0,0,0,0,100,100,0,0)
PictureMove(5,null,0,0,0,0,100,100,255,0,30,true)
241(bytes(0x04,0x08,0x6f,0x3a,0x0d,0x52,0x50,0x47,0x3a,0x3a,0x42,0x47,0x4d,0x08,0x3a,0x0a,0x40,0x6e,0x61,0x6d,0x65,0x49,0x22,0x09,0x65,0x72,0x6f,0x31,0x06,0x3a,0x06,0x45,0x54,0x3a,0x0c,0x40,0x76,0x6f,0x6c,0x75,0x6d,0x65,0x69,0x69,0x3a,0x0b,0x40,0x70,0x69,0x74,0x63,0x68,0x69,0x69))
ShowMessageFace("",0,0,2,1)
ShowMessage("\\n<Luka>")
ShowMessage("Auuu...")
ShowMessageFace("nemea_fc1",5,0,2,2)
ShowMessage("\\n<Nemea>")
ShowMessage("Already done, are you?")
ShowMessage("Well then, time to eat...♥")
ShowMessageFace("",0,0,2,3)
ShowMessage("Nemea forcibly pushes me down.")
ShowMessage("Then proceeds to get on top of me――")
245(bytes(0x04,0x08,0x6f,0x3a,0x0d,0x52,0x50,0x47,0x3a,0x3a,0x42,0x47,0x53,0x08,0x3a,0x0a,0x40,0x6e,0x61,0x6d,0x65,0x49,0x22,0x1e,0x6d,0x6f,0x6e,0x5f,0x68,0x73,0x65,0x61,0x6e,0x30,0x35,0x5f,0x69,0x6e,0x6e,0x65,0x72,0x77,0x6f,0x72,0x6b,0x73,0x5f,0x61,0x35,0x06,0x3a,0x06,0x45,0x54,0x3a,0x0c,0x40,0x76,0x6f,0x6c,0x75,0x6d,0x65,0x69,0x55,0x3a,0x0b,0x40,0x70,0x69,0x74,0x63,0x68,0x69,0x69))
RunCommonEvent(104)
PictureDisplay(5,"ev_nemea_h01",0,0,0,0,100,100,255,0)
RunCommonEvent(105)
ShowMessageFace("",0,0,2,4)
ShowMessage("The moment my penis sinks into her――")
ShowMessage("It shoots up semen immediately.")
ShowMessageFace("",0,0,2,5)
ShowMessage("I ejaculate instantly after insertion.")
ShowMessage("The intense stimulation does not allow me even a second to endure――")
ShowMessageFace("",0,0,2,6)
ShowMessage("\\n<Luka>")
ShowMessage("A...hau, uuu...")
ShowMessageFace("nemea_fc1",5,0,2,7)
ShowMessage("\\n<Nemea>")
ShowMessage("Ara ara, I'm so sorry...♥")
ShowMessage("I might've finished you off too fast.")
ShowMessageFace("nemea_fc1",1,0,2,8)
ShowMessage("\\n<Nemea>")
ShowMessage("Please, don't feel embarrassed, ok?")
ShowMessage("Every guy reacts this way with me after all...♪")
ShowMessageFace("",0,0,2,9)
ShowMessage("I writhe in pleasure under Nemea's gaze.")
ShowMessage("My penis was fully enticed by the allure of her body.")
ShowMessageFace("",0,0,2,10)
ShowMessage("This pleasure make me feel like I'm ascending into heaven.")
ShowMessage("Her devilish charms can send a man to a heaven of sweet tranquility――")
ShowMessageFace("",0,0,2,11)
ShowMessage("\\n<Luka>")
ShowMessage("Hau...u, aaa...")
ShowMessageFace("nemea_fc1",5,0,2,12)
ShowMessage("\\n<Nemea>")
ShowMessage("Well then, let me suck you all up.")
ShowMessage("Here, I'll give you a taste of paradise...♥")
ShowMessageFace("",0,0,2,13)
ShowMessage("\\n<Luka>")
ShowMessage("A...aaaaa～～!!")
PictureDisplay(5,"ev_nemea_h02",0,0,0,0,100,100,255,0)
ShowMessageFace("",0,0,2,14)
ShowMessage("She begins to suck up all my vitality at once.")
ShowMessage("A tremendous pleasure surges from my crotch to my whole body.")
ShowMessageFace("",0,0,2,15)
ShowMessage("She tightens herself around my penis.")
ShowMessage("My hips jump up in reaction to that intense pleasure――")
RunCommonEvent(104)
PictureDisplay(5,"ev_nemea_h03",0,0,0,0,100,100,255,0)
RunCommonEvent(105)
ShowMessageFace("",0,0,2,16)
ShowMessage("\\n<Luka>")
ShowMessage("Hauuu...!!")
ShowMessageFace("",0,0,2,17)
ShowMessage("And I ejaculate in the blink of an eye.")
ShowMessage("I was finished in a moment by the overwhelming pleasure――")
PictureDisplay(5,"ev_nemea_h04",0,0,0,0,100,100,255,0)
ShowMessageFace("nemea_fc1",5,0,2,18)
ShowMessage("\\n<Nemea>")
ShowMessage("Fufufu, It feels good doesn't it?")
ShowMessage("I will suck you all up just like that...")
ShowMessageFace("",0,0,2,19)
ShowMessage("\\n<Luka>")
ShowMessage("S-sto...Hauuu!!")
ShowMessageFace("",0,0,2,20)
ShowMessage("With the two ejaculations so far, the feeling of weakness spreads throughout my body.")
ShowMessage("A life threatening amount of energy had already been absorbed.")
ShowMessageFace("",0,0,2,21)
ShowMessage("And it was all nourishment for Nemea.")
ShowMessage("I am being viciously devoured like prey――")
PictureDisplay(5,"ev_nemea_h05",0,0,0,0,100,100,255,0)
ShowMessageFace("",0,0,2,22)
ShowMessage("\\n<Luka>")
ShowMessage("No...I-I'm gonna die...")
ShowMessageFace("nemea_fc1",5,0,2,23)
ShowMessage("\\n<Nemea>")
ShowMessage("Ufufu, don't worry.")
ShowMessage("It will feel really good until your last moments...")
ShowMessageFace("",0,0,2,24)
ShowMessage("\\n<Luka>")
ShowMessage("No... a-auuu...")
ShowMessageFace("",0,0,2,25)
ShowMessage("My penis gets maddeningly sucked by her magic pussy.")
ShowMessage("The sweet sensation makes my hips jump up――")
RunCommonEvent(104)
PictureDisplay(5,"ev_nemea_h06",0,0,0,0,100,100,255,0)
RunCommonEvent(105)
ShowMessageFace("",0,0,2,26)
ShowMessage("A huge amount of semen overflows from inside Nemea.")
ShowMessage("My life is being fully stolen in exchange for pleasure.")
ShowMessageFace("",0,0,2,27)
ShowMessage("I could feel how debilitated I have become.")
ShowMessage("But can only writhe in pleasure as my vitality gets devoured.")
PictureDisplay(5,"ev_nemea_h07",0,0,0,0,100,100,255,0)
ShowMessageFace("",0,0,2,28)
ShowMessage("\\n<Luka>")
ShowMessage("A...uuuu...")
ShowMessageFace("nemea_fc1",5,0,2,29)
ShowMessage("\\n<Nemea>")
ShowMessage("Ara... you are still breathing?")
ShowMessage("To think you'd still be alive, you're such a strong hero♥")
ShowMessageFace("nemea_fc1",5,0,2,30)
ShowMessage("\\n<Nemea>")
ShowMessage("There's still a looot of fun we can have♥")
ShowMessage("Here...how about this♥")
ShowMessageFace("",0,0,2,31)
ShowMessage("\\n<Luka>")
ShowMessage("Ahi...hyaaaa～～!!")
ShowMessageFace("",0,0,2,32)
ShowMessage("Her vagina tightens harder around my penis.")
ShowMessage("The pleasure of my semen getting sucked up becomes more distinct――")
RunCommonEvent(104)
PictureDisplay(5,"ev_nemea_h08",0,0,0,0,100,100,255,0)
RunCommonEvent(105)
ShowMessageFace("",0,0,2,33)
ShowMessage("And suddenly a lot of semen gushes out.")
ShowMessage("At the same time my semen gets absorbed, my body loses more and more strength――")
ShowMessageFace("",0,0,2,34)
ShowMessage("\\n<Luka>")
ShowMessage("Hau...fuaaa...")
ShowMessageFace("",0,0,2,35)
ShowMessage("I am being drained alive――")
ShowMessage("And I just want to drown in this crazy pleasure.")
ShowMessageFace("",0,0,2,36)
ShowMessage("I want to taste more of this pleasant feeling――")
ShowMessage("I want more and more of my life to get eaten by Nemea――")
ShowMessageFace("",0,0,2,37)
ShowMessage("\\n<Luka>")
ShowMessage("Auu... mo-more...eat meee...")
ShowMessageFace("nemea_fc1",1,0,2,38)
ShowMessage("\\n<Nemea>")
ShowMessage("Ufufu, If you want...♥")
ShowMessage("My hero, you have worked so hard up to now...♥")
ShowMessageFace("nemea_fc1",1,0,2,39)
ShowMessage("\\n<Nemea>")
ShowMessage("I'll do what you want if it makes you really happy♥")
ShowMessage("Hoora, how's this...?")
PictureDisplay(5,"ev_nemea_h09",0,0,0,0,100,100,255,0)
ShowMessageFace("",0,0,2,40)
ShowMessage("\\n<Luka>")
ShowMessage("Hya...ahiiiii～～!!")
ShowMessageFace("",0,0,2,41)
ShowMessage("I raise a scream at the intense suction feeling.")
ShowMessage("It's as if an electric current of pleasure runs through my whole body.")
ShowMessageFace("",0,0,2,42)
ShowMessage("My hips jump up while shivering――")
ShowMessage("My penis pulsates inside her――")
RunCommonEvent(104)
RunCommonEvent(105)
ShowMessageFace("",0,0,2,43)
ShowMessage("And a large amount of semen overflows.")
ShowMessage("Strength leaves my body and my consciousness becomes unstable――")
PictureDisplay(5,"ev_nemea_h10",0,0,0,0,100,100,255,0)
ShowMessageFace("",0,0,2,44)
ShowMessage("\\n<Luka>")
ShowMessage("ua...auu...")
ShowMessageFace("nemea_fc1",5,0,2,45)
ShowMessage("\\n<Nemea>")
ShowMessage("Ara ara, you're still alive after that...")
ShowMessageFace("nemea_fc1",5,0,2,46)
ShowMessage("\\n<Nemea>")
ShowMessage("You are cute, healthy... and delicious...")
ShowMessage("At this rate I'll want to keep you for myself...♥")
ShowMessageFace("nemea_fc1",5,0,2,47)
ShowMessage("\\n<Nemea>")
ShowMessage("But, there are many other boys onee-san wants to feast on...")
ShowMessage("So, as a goodbye... I'll give you the absolute best gift♥")
ShowMessageFace("",0,0,2,48)
ShowMessage("\\n<Luka>")
ShowMessage("u...uuu...")
ShowMessageFace("nemea_fc1",5,0,2,49)
ShowMessage("\\n<Nemea>")
ShowMessage("Now, let me send you to heaven...♥")
PictureDisplay(5,"ev_nemea_h11",0,0,0,0,100,100,255,0)
ShowMessageFace("",0,0,2,50)
ShowMessage("\\n<Luka>")
ShowMessage("Agi...a, hyaaaaa～～!!")
ShowMessageFace("",0,0,2,51)
ShowMessage("My penis gets stimulated―― And my life continues to be absorbed.")
ShowMessage("Her magic pussy contracts, giving me catastrophic pleasure.")
ShowMessageFace("",0,0,2,52)
ShowMessage("Lost in the joy before the end, I thrust my hips――")
ShowMessageFace("",0,0,2,53)
ShowMessage("\\n<Luka>")
ShowMessage("Hau...uuuu...!!")
RunCommonEvent(104)
PictureDisplay(5,"ev_nemea_h12",0,0,0,0,100,100,255,0)
RunCommonEvent(105)
ShowMessageFace("",0,0,2,54)
ShowMessage("And a particularly large amount of semen shoots up into Nemea's pussy.")
ShowMessage("The last rush of life in me gushes out――")
ShowMessageFace("nemea_fc1",5,0,2,55)
ShowMessage("\\n<Nemea>")
ShowMessage("Ufufu, this is your final pleasure.")
ShowMessage("Hora... Since onee-san is going to eat you all up...")
ShowMessageFace("nemea_fc1",5,0,2,56)
ShowMessage("\\n<Nemea>")
ShowMessage("I want you to feel really good until you sleep, ok...♥")
ShowMessageFace("",0,0,2,57)
ShowMessage("The pleasure seems to turn my whole body into mud.")
ShowMessage("A feeling of release affects my soul――")
ShowMessageFace("",0,0,2,58)
ShowMessage("\\n<Luka>")
ShowMessage("ua...a...")
ShowMessageFace("",0,0,2,59)
ShowMessage("And then, strength completely abandons my body.")
ShowMessage("Even my consciousness disappears into a sweet dream――")
PictureDisplay(5,"ev_nemea_h13",0,0,0,0,100,100,255,0)
246(2)
ShowMessageFace("nemea_fc1",5,0,2,60)
ShowMessage("\\n<Nemea>")
ShowMessage("Thanks for the meal... Ufufu.")
ShowMessageFace("",0,0,2,61)
ShowMessage("Underneath Nemea lies my shriveled body.")
ShowMessage("The hero's breath ceases as his life energy is fully absorbed――")
221()
PictureClear(5)
PictureClear(6)
246(2)
ShowMessageFace("",0,0,2,62)
ShowMessage(".........")
221()
242(1)
Wait(120)
355("memory_interruption")
ShowChoices(strings("Change difficulty","Reincarnate"),2)
IfPlayerPicksChoice(0,null)
 ShowMessageFace("",0,0,2,63)
 ShowMessage("Please choose a difficulty level.")
 RunCommonEvent(110)
 0()
IfPlayerPicksChoice(1,null)
 0()
404()
RunCommonEvent(2999)
0()
