﻿// EVENT 5793
Name "Rマダムインセクト"

221()
ShowMessageFace("",0,0,2,1)
ShowMessage("こうして二人は、コロシアムに向かった。")
ShowMessage("しかしこれは、白念を餌食にするためのシルヴィアの罠。")
ShowMessageFace("",0,0,2,2)
ShowMessage("彼女の目論見通り、二人は試合で対戦することとなり――")
ShowMessage("そして――")
PictureDisplay(1,"bg084",0,0,0,0,100,100,255,0)
PictureDisplay(5,"ev_madaminsect_hb1",0,0,0,0,100,100,255,0)
222()
241(bytes(0x04,0x08,0x6f,0x3a,0x0d,0x52,0x50,0x47,0x3a,0x3a,0x42,0x47,0x4d,0x08,0x3a,0x0a,0x40,0x6e,0x61,0x6d,0x65,0x49,0x22,0x09,0x65,0x72,0x6f,0x31,0x06,0x3a,0x06,0x45,0x54,0x3a,0x0c,0x40,0x76,0x6f,0x6c,0x75,0x6d,0x65,0x69,0x69,0x3a,0x0b,0x40,0x70,0x69,0x74,0x63,0x68,0x69,0x69))
245(bytes(0x04,0x08,0x6f,0x3a,0x0d,0x52,0x50,0x47,0x3a,0x3a,0x42,0x47,0x53,0x08,0x3a,0x0a,0x40,0x6e,0x61,0x6d,0x65,0x49,0x22,0x1e,0x6d,0x6f,0x6e,0x5f,0x68,0x73,0x65,0x61,0x6e,0x31,0x31,0x5f,0x69,0x6e,0x6e,0x65,0x72,0x77,0x6f,0x72,0x6b,0x73,0x5f,0x63,0x31,0x06,0x3a,0x06,0x45,0x54,0x3a,0x0c,0x40,0x76,0x6f,0x6c,0x75,0x6d,0x65,0x69,0x55,0x3a,0x0b,0x40,0x70,0x69,0x74,0x63,0x68,0x69,0x69))
ShowMessageFace("byakunen_fc1",4,0,2,3)
ShowMessage("\\n<Hakunen>")
ShowMessage("う……ぁぁっ……")
ShowMessageFace("",0,0,2,4)
ShowMessage("白念はシルヴィアに抱かれ、すっかり体を弛緩させていた。")
ShowMessage("そして、甘いキスを受け入れてしまっている。")
ShowMessageFace("",0,0,2,5)
ShowMessage("すでに白念は三回も射精し、彼女の子宮に子種を搾り取られた。")
ShowMessage("そして受精した無数の卵を、アナルの中に産み付けているのだ。")
ShowMessageFace("madaminsect_fc1",1,0,2,6)
ShowMessage("\\n<シルヴィア>")
ShowMessage("うふふっ、すっかりお腹が膨らみましたね。")
ShowMessage("私達の子を、宿した感想はいかがです……？")
ShowMessageFace("byakunen_fc1",4,0,2,7)
ShowMessage("\\n<Hakunen>")
ShowMessage("はぅぅぅ……")
ShowMessageFace("",0,0,2,8)
ShowMessage("直腸に送り込まれた無数の受精卵は、前立腺を圧迫している。")
ShowMessage("その快感により肉棒は勃起し、びゅるびゅると精を断続的に吐き出した。")
ShowMessageFace("madaminsect_fc1",1,0,2,9)
ShowMessage("\\n<シルヴィア>")
ShowMessage("あらあら、いけない子。")
ShowMessage("産卵されながら、オモラシするなんて……")
ShowMessageFace("",0,0,2,10)
ShowMessage("シルヴィアは甘いキスを交わしながら、白念の体を手で愛撫し――")
ShowMessage("同時に、アナルの中に卵を送り込んでいく。")
ShowMessageFace("",0,0,2,11)
ShowMessage("一連の交尾および産卵は、コロシアムの観客の面前で行われた。")
ShowMessage("まるで見せつけるように、シルヴィアは白念相手に生殖を行ったのだ。")
ShowMessageFace("byakunen_fc1",4,0,2,12)
ShowMessage("\\n<Hakunen>")
ShowMessage("あ……あぁぁ……")
ShowMessageFace("madaminsect_fc1",1,0,2,13)
ShowMessage("\\n<シルヴィア>")
ShowMessage("うふふっ……")
ShowMessage("私の生殖相手にされるところ、皆に見てもらえましたね。")
ShowMessageFace("",0,0,2,14)
ShowMessage("白念は絶頂を繰り返しながら卵を産み付けられるという羞恥を、")
ShowMessage("観客達の面前に晒してしまったのである――")
221()
PictureClear(1)
PictureClear(5)
242(1)
246(1)
ShowMessageFace("",0,0,2,15)
ShowMessage("・・・・・・・・")
221()
Wait(120)
If(0,443,0)
 EndEventProcessing()
 0()
EndIf()
ChangeSwitch(2402,2402,0)
ChangeSwitch(2403,2403,0)
TeleportPlayer(0,78,45,30,2,2)
241(bytes(0x04,0x08,0x6f,0x3a,0x0d,0x52,0x50,0x47,0x3a,0x3a,0x42,0x47,0x4d,0x08,0x3a,0x0a,0x40,0x6e,0x61,0x6d,0x65,0x49,0x22,0x0c,0x63,0x61,0x73,0x74,0x6c,0x65,0x36,0x06,0x3a,0x06,0x45,0x54,0x3a,0x0c,0x40,0x76,0x6f,0x6c,0x75,0x6d,0x65,0x69,0x69,0x3a,0x0b,0x40,0x70,0x69,0x74,0x63,0x68,0x69,0x69))
222()
0()
