﻿// EVENT 0547
Name "RC: Eden"

If(1,1099,0,1,0)
 ShowMessageFace("",0,0,2,1)
 ShowMessage("The four of them appear to be taking a break...")
 ShowMessageFace("iriasu_fc4",0,0,2,2)
 ShowMessage("\\n<Ilias>Tea after practice has a blissful taste.\nLuka, would you like to take a break as well?")
 If(1,1098,0,3,0)
  ShowMessageFace("",0,0,2,3)
  ShowMessage("I should give the pizza to Ilias first.")
  EndEventProcessing()
  0()
 EndIf()
 If(1,1098,0,4,0)
  ShowMessageFace("",0,0,2,4)
  ShowMessage("I should be heading to the first floor dining hall now to eat lunch first.")
  EndEventProcessing()
  0()
 EndIf()
 If(1,1098,0,7,0)
  ShowMessageFace("",0,0,2,5)
  ShowMessage("I should give the pizza to Ilias first.")
  EndEventProcessing()
  0()
 EndIf()
 0()
EndIf()
If(1,1099,0,4,0)
 ShowMessageFace("eden_fc1",0,0,2,6)
 ShowMessage("\\n<Eden>In order to train myself to conceal emotions from my face... I am currently learning how to play poker.")
 ShowMessageFace("eden_fc1",0,0,2,7)
 ShowMessage("\\n<Eden>Now, sit face-to-face with me.\nI request a match!")
 If(0,2338,0)
  If(1,1098,0,6,0)
   ShowMessageFace("",0,0,2,8)
   ShowMessage("I'm in the middle of carrying luggage at the moment.\nI should prioritize heading to the cathedral first.")
   EndEventProcessing()
   0()
  EndIf()
  ShowMessageFace("sonia_fc2",2,0,2,9)
  ShowMessage("\\n<Sonya>Right now, we need to get that package to the cathdral...")
  ShowMessageFace("eden_fc1",0,0,2,10)
  ShowMessage("\\n<Eden>Allow me to take care of it!\nCome, let us play a game!")
  0()
 EndIf()
 0()
EndIf()
DefineLabel("メイン")
If(1,1099,0,1,0)
 355("ex_choice_add(\"Take a break(advances time)\",1,")
 655("\"v[1098] >= 5\",0)")
 0()
EndIf()
If(1,1099,0,4,0)
 355("ex_choice_add(\"Play poker with her (advances time)\",1,")
 655("\"v[1098] >= 5\",0)")
 0()
EndIf()
355("ex_choice_add(\"Consult regarding the phenomenon\",2,")
655("\"s[2341]\",0)")
655("ex_choice_add(\"Ask about any regrets\",3,")
655("\"s[2342]\",0)")
655("ex_choice_add(\"Ask about tools that can loop time\",4,")
655("\"s[2343]\",0)")
655("ex_choice_add(\"Ask about the pizza order\",5,")
655("\"s[2345]\",0)")
355("ex_choice_add(\"Ask about the mysterious makina\",6,")
655("\"s[2365]\",0)")
655("ex_choice_add(\"Ask about items needed for our plan\",7,")
655("\"s[2364]\",0)")
655("ex_choice_add(\"Invite to the tea party\",8,")
655("\"s[2378]\",0)")
655("ex_choice_add(\"Leave\",10)")
355("ex_choice_show(0,11,[0,0])")
If(1,9,0,1,0)
 If(1,1099,0,1,0)
  221()
  205(53,bytes(0x04,0x08,0x6f,0x3a,0x13,0x52,0x50,0x47,0x3a,0x3a,0x4d,0x6f,0x76,0x65,0x52,0x6f,0x75,0x74,0x65,0x09,0x3a,0x0c,0x40,0x72,0x65,0x70,0x65,0x61,0x74,0x46,0x3a,0x0f,0x40,0x73,0x6b,0x69,0x70,0x70,0x61,0x62,0x6c,0x65,0x46,0x3a,0x0a,0x40,0x77,0x61,0x69,0x74,0x54,0x3a,0x0a,0x40,0x6c,0x69,0x73,0x74,0x5b,0x07,0x6f,0x3a,0x15,0x52,0x50,0x47,0x3a,0x3a,0x4d,0x6f,0x76,0x65,0x43,0x6f,0x6d,0x6d,0x61,0x6e,0x64,0x07,0x3a,0x0a,0x40,0x63,0x6f,0x64,0x65,0x69,0x15,0x3a,0x10,0x40,0x70,0x61,0x72,0x61,0x6d,0x65,0x74,0x65,0x72,0x73,0x5b,0x00,0x6f,0x3b,0x0a,0x07,0x3b,0x0b,0x69,0x00,0x3b,0x0c,0x5b,0x00))
  TeleportPlayer(0,83,28,49,6,2)
  222()
  ShowMessageFace("iriasu_fc4",0,0,2,11)
  ShowMessage("\\n<Ilias>Once this break is over, we shall all convene once more. This will be our final practice before the actual performance.")
  ShowMessageFace("rucyfinac_fc1",0,0,2,12)
  ShowMessage("\\n<Lucifina-chan>It's almost time for the show♪")
  ShowMessageFace("micaelac_fc1",3,0,2,13)
  ShowMessage("\\n<Micaela-chan>This week's practice...\nI shall put it on full display on the performance stage.")
  ShowMessageFace("eden_fc1",0,0,2,14)
  ShowMessage("\\n<Eden>I have all of your backs covered.\nWe will prevail over this with everything we have!")
  ShowMessageFace("",0,0,2,15)
  ShowMessage("All four of them seem to be really motivated. But if I can't escape the time loop, there won't be a contest...")
  RunCommonEvent(540)
  EndEventProcessing()
  0()
 EndIf()
 If(1,1099,0,4,0)
  221()
  205(86,bytes(0x04,0x08,0x6f,0x3a,0x13,0x52,0x50,0x47,0x3a,0x3a,0x4d,0x6f,0x76,0x65,0x52,0x6f,0x75,0x74,0x65,0x09,0x3a,0x0c,0x40,0x72,0x65,0x70,0x65,0x61,0x74,0x46,0x3a,0x0f,0x40,0x73,0x6b,0x69,0x70,0x70,0x61,0x62,0x6c,0x65,0x46,0x3a,0x0a,0x40,0x77,0x61,0x69,0x74,0x54,0x3a,0x0a,0x40,0x6c,0x69,0x73,0x74,0x5b,0x07,0x6f,0x3a,0x15,0x52,0x50,0x47,0x3a,0x3a,0x4d,0x6f,0x76,0x65,0x43,0x6f,0x6d,0x6d,0x61,0x6e,0x64,0x07,0x3a,0x0a,0x40,0x63,0x6f,0x64,0x65,0x69,0x16,0x3a,0x10,0x40,0x70,0x61,0x72,0x61,0x6d,0x65,0x74,0x65,0x72,0x73,0x5b,0x00,0x6f,0x3b,0x0a,0x07,0x3b,0x0b,0x69,0x00,0x3b,0x0c,0x5b,0x00))
  TeleportPlayer(0,83,20,49,6,2)
  222()
  ShowMessageFace("eden_fc1",2,0,2,16)
  ShowMessage("\\n<Eden>............")
  ShowMessageFace("ruka_fc1",0,0,2,17)
  ShowMessage("\\n<Luka>It seems like you don't have a good hand...\nThen I'll raise.")
  ShowMessageFace("eden_fc1",1,0,2,18)
  ShowMessage("\\n<Eden>Kuh, did you just read me...? Then I fold.\nIt wouldn't even be a match with a single pair of 3's.")
  ShowMessageFace("ruka_fc1",0,0,2,19)
  ShowMessage("\\n<Luka>Yes, I win.\nTo tell you the truth, I was just bluffing.")
  ShowMessageFace("eden_fc1",2,0,2,20)
  ShowMessage("\\n<Eden>H-how craven!\nAs I would expect of Lucifina's child! You play underhandedly!")
  ShowMessageFace("",0,0,2,21)
  ShowMessage("Eden doesn't seem to be very good at poker...")
  ShowMessageFace("eden_fc1",0,0,2,22)
  ShowMessage("\\n<Eden>Nevertheless, gambling is enjoyable, isn't it?\nThat thrill of getting rich quick can be addicting...")
  ShowMessageFace("ruka_fc1",0,0,2,23)
  ShowMessage("\\n<Luka>You're not good at this, you should really stop...")
  ShowMessageFace("",0,0,2,24)
  ShowMessage("I spent some time playing poker...")
  If(0,2338,1)
   RunCommonEvent(5845)
   0()
  EndIf()
  If(0,2338,0)
   RunCommonEvent(5846)
   0()
  EndIf()
  EndEventProcessing()
  0()
 EndIf()
 0()
EndIf()
If(1,9,0,2,0)
 ShowMessageFace("",0,0,2,25)
 ShowMessage("Luka asked for advice regarding the strange phenomenon...")
 ShowMessageFace("eden_fc1",0,0,2,26)
 ShowMessage("\\n<Eden>Every day is repeating the same...?\nThe angels under my command have often experienced similar symptoms.")
 ShowMessageFace("eden_fc1",0,0,2,27)
 ShowMessage("\\n<Eden>It is nothing to worry about, your mind is just worn out. I can give you some counseling if you would like...")
 ShowMessageFace("",0,0,2,28)
 ShowMessage("It doesn't look like I can turn to Eden for assistance...")
 JumpToLabel("メイン")
 0()
EndIf()
If(1,9,0,3,0)
 ShowMessageFace("eden_fc1",0,0,2,29)
 ShowMessage("\\n<Eden>This Eden has absolutely no regrets.\nI shall always do my best, for Ilias's sake.")
 ShowMessageFace("",0,0,2,30)
 ShowMessage("I didn't get any helpful information...")
 JumpToLabel("メイン")
 0()
EndIf()
If(1,9,0,4,0)
 ShowMessageFace("eden_fc1",1,0,2,31)
 ShowMessage("\\n<Eden>I believe Ilias worked hard on creating something of that sort a long time ago. I would ask that you please do not pry any more from my lips.")
 ShowMessageFace("",0,0,2,32)
 ShowMessage("I didn't get any helpful information...")
 JumpToLabel("メイン")
 0()
EndIf()
If(1,9,0,5,0)
 ShowMessageFace("eden_fc1",0,0,2,33)
 ShowMessage("\\n<Eden>There's pizza delivery? What a convenient world this has become. In any case, I have no idea who that could've been.")
 ShowMessageFace("",0,0,2,34)
 ShowMessage("It doesn't look like Eden ordered the pizza...")
 JumpToLabel("メイン")
 0()
EndIf()
If(1,9,0,6,0)
 ShowMessageFace("eden_fc1",0,0,2,35)
 ShowMessage("\\n<Eden>This is a very mechanical hand mirror...\n...Eh? That's not what it is?")
 ShowMessageFace("",0,0,2,36)
 ShowMessage("I didn't get any helpful information...")
 JumpToLabel("メイン")
 0()
EndIf()
If(1,9,0,7,0)
 ShowMessageFace("eden_fc1",0,0,2,37)
 ShowMessage("\\n<Eden>As you can see, all I have is my body...\nI bear no items.")
 ShowMessageFace("",0,0,2,38)
 ShowMessage("I didn't get any helpful items...")
 JumpToLabel("メイン")
 0()
EndIf()
If(1,9,0,8,0)
 If(1,1113,0,1,5)
  If(1,1114,0,1,5)
   ShowMessageFace("eden_fc1",0,0,2,39)
   ShowMessage("\\n<Eden>...Black Alice is holding a tea party?\nIf this is some challenge, then I shall accept it.")
   If(1,1116,0,2,0)
    ChangeVariable(1116,1116,0,0,3)
    ChangeVariable(1115,1115,0,0,1)
    ChangeSwitch(2378,2378,1)
    0()
   EndIf()
   If(1,1116,0,1,0)
    ChangeVariable(1116,1116,0,0,2)
    ChangeVariable(1114,1114,0,0,1)
    0()
   EndIf()
   If(1,1116,0,0,0)
    ChangeVariable(1116,1116,0,0,1)
    ChangeVariable(1113,1113,0,0,1)
    0()
   EndIf()
   249(bytes(0x04,0x08,0x6f,0x3a,0x0c,0x52,0x50,0x47,0x3a,0x3a,0x4d,0x45,0x08,0x3a,0x0a,0x40,0x6e,0x61,0x6d,0x65,0x49,0x22,0x10,0x6d,0x6f,0x6e,0x5f,0x66,0x61,0x6e,0x66,0x61,0x6c,0x65,0x06,0x3a,0x06,0x45,0x54,0x3a,0x0b,0x40,0x70,0x69,0x74,0x63,0x68,0x69,0x69,0x3a,0x0c,0x40,0x76,0x6f,0x6c,0x75,0x6d,0x65,0x69,0x69))
   ShowMessageFace("",0,0,2,40)
   ShowMessage("Eden accepted the tea party invitation!")
   JumpToLabel("メイン")
   0()
  EndIf()
  0()
 EndIf()
 ShowMessageFace("",0,0,2,41)
 ShowMessage("I've already invited her to the tea party...")
 If(1,1116,0,1,0)
  ShowMessageFace("",0,0,2,42)
  ShowMessage("That's one guest I've invited to Black Alice's tea party. Let's gather two more participants!")
  0()
 EndIf()
 If(1,1116,0,2,0)
  ShowMessageFace("",0,0,2,43)
  ShowMessage("That's two guests I've invited to Black Alice's tea party. Let's gather one more participant!")
  0()
 EndIf()
 If(1,1116,0,3,0)
  ShowMessageFace("",0,0,2,44)
  ShowMessage("That's three guests I've invited to Black Alice's tea party. Let's head to Black Alice's room once it's 4 o'clock!")
  0()
 EndIf()
 JumpToLabel("メイン")
 0()
EndIf()
EndEventProcessing()
0()
