﻿// EVENT 5810
Name "Rカマキリ娘"

If(0,443,0)
 PictureDisplay(5,"80_kamakiri_st01",0,0,0,0,100,100,255,0)
 0()
EndIf()
242(1)
250(bytes(0x04,0x08,0x6f,0x3a,0x0c,0x52,0x50,0x47,0x3a,0x3a,0x53,0x45,0x08,0x3a,0x0a,0x40,0x6e,0x61,0x6d,0x65,0x49,0x22,0x0a,0x7a,0x69,0x68,0x6f,0x75,0x06,0x3a,0x06,0x45,0x54,0x3a,0x0b,0x40,0x70,0x69,0x74,0x63,0x68,0x69,0x69,0x3a,0x0c,0x40,0x76,0x6f,0x6c,0x75,0x6d,0x65,0x69,0x55))
Wait(60)
ShowMessageFace("",0,0,2,1)
ShowMessage("その時――城内に、五時の鐘が鳴り響いた。")
241(bytes(0x04,0x08,0x6f,0x3a,0x0d,0x52,0x50,0x47,0x3a,0x3a,0x42,0x47,0x4d,0x08,0x3a,0x0a,0x40,0x6e,0x61,0x6d,0x65,0x49,0x22,0x09,0x65,0x72,0x6f,0x31,0x06,0x3a,0x06,0x45,0x54,0x3a,0x0c,0x40,0x76,0x6f,0x6c,0x75,0x6d,0x65,0x69,0x69,0x3a,0x0b,0x40,0x70,0x69,0x74,0x63,0x68,0x69,0x69))
ShowMessageFace("kamakiri_fc1",0,0,2,2)
ShowMessage("\\n<Matis>")
ShowMessage("ギギ……お腹、減った……")
ShowMessageFace("",0,0,2,3)
ShowMessage("\\n<Luka>")
ShowMessage("でも、今食べたばっかりじゃ――")
ShowMessageFace("kamakiri_fc1",1,0,2,4)
ShowMessage("\\n<Matis>")
ShowMessage("ギギ……肉、食べる……！")
ShowMessageFace("",0,0,2,5)
ShowMessage("\\n<Luka>")
ShowMessage("な、何を……うわぁぁぁっ！！")
ShowMessageFace("",0,0,2,6)
ShowMessage("マティスは、鎌をかざして僕に襲いかかり――")
245(bytes(0x04,0x08,0x6f,0x3a,0x0d,0x52,0x50,0x47,0x3a,0x3a,0x42,0x47,0x53,0x08,0x3a,0x0a,0x40,0x6e,0x61,0x6d,0x65,0x49,0x22,0x1e,0x6d,0x6f,0x6e,0x5f,0x68,0x73,0x65,0x61,0x6e,0x30,0x38,0x5f,0x69,0x6e,0x6e,0x65,0x72,0x77,0x6f,0x72,0x6b,0x73,0x5f,0x61,0x38,0x06,0x3a,0x06,0x45,0x54,0x3a,0x0c,0x40,0x76,0x6f,0x6c,0x75,0x6d,0x65,0x69,0x55,0x3a,0x0b,0x40,0x70,0x69,0x74,0x63,0x68,0x69,0x69))
PictureDisplay(5,"ev_kamakiri_hc1",0,0,0,0,100,100,255,0)
ShowMessageFace("",0,0,2,7)
ShowMessage("\\n<Luka>")
ShowMessage("うぐ、うぅぅっ……！！")
ShowMessageFace("",0,0,2,8)
ShowMessage("巨大な腹部卵管で、頭から丸呑みにされてしまった。")
ShowMessage("ぐちゅぐちゅと波打つ柔肉が、全身に密着してくる――")
ShowMessageFace("",0,0,2,9)
ShowMessage("\\n<Luka>")
ShowMessage("あぐ……う、あぁぁっ……")
ShowMessageFace("kamakiri_fc1",1,0,2,10)
ShowMessage("\\n<Matis>")
ShowMessage("じっくり、噛んで……美味しく、食べる……")
ShowMessageFace("",0,0,2,11)
ShowMessage("ぎゅむっ、ぎゅむっ……と、柔肉が全身を揉み解す。")
ShowMessage("まるで、歯のない柔らかな口に咀嚼されているかのようだ。")
ShowMessageFace("",0,0,2,12)
ShowMessage("全身は温かい粘膜に包まれ、ぬめぬめの粘液にまみれる。")
ShowMessage("大きくなったペニスも、卵管の中でぐちゅぐちゅと揉みしだかれ――")
ShowMessageFace("",0,0,2,13)
ShowMessage("\\n<Luka>")
ShowMessage("はぅ……あ、あぁぁぁっ！！")
RunCommonEvent(104)
RunCommonEvent(105)
ShowMessageFace("",0,0,2,14)
ShowMessage("惨めにも、丸呑みにされながらイってしまった。")
ShowMessage("精液を漏らす僕を、マティスはまるで獲物のように飲み込んでいく――")
ShowMessageFace("kamakiri_fc1",1,0,2,15)
ShowMessage("\\n<Matis>")
ShowMessage("食べる、食べる、食べる……")
ShowMessageFace("",0,0,2,16)
ShowMessage("\\n<Luka>")
ShowMessage("あ……はぅぅぅぅ……")
ShowMessageFace("",0,0,2,17)
ShowMessage("びくびくと痙攣する体が、卵管に飲み込まれていく。")
ShowMessage("みるみるうちに、足先まで丸呑みにされてしまう――")
221()
PictureClear(5)
242(1)
246(1)
ShowMessageFace("",0,0,2,18)
ShowMessage("そのまま僕の体は、マティスの卵管内に飲み込まれてしまう。")
ShowMessage("甘い温もりの中で恍惚に浸り、とろけてしまうまであっという間だった――")
ShowMessageFace("",0,0,2,19)
ShowMessage("・・・・・・・・")
221()
Wait(120)
If(0,443,0)
 EndEventProcessing()
 0()
EndIf()
RunCommonEvent(541)
0()
