﻿// EVENT 5819
Name "Rスラグスターズ"

If(0,443,0)
 PictureDisplay(5,"80_name2_st01",0,0,0,0,100,100,255,0)
 0()
EndIf()
242(1)
250(bytes(0x04,0x08,0x6f,0x3a,0x0c,0x52,0x50,0x47,0x3a,0x3a,0x53,0x45,0x08,0x3a,0x0a,0x40,0x6e,0x61,0x6d,0x65,0x49,0x22,0x0a,0x7a,0x69,0x68,0x6f,0x75,0x06,0x3a,0x06,0x45,0x54,0x3a,0x0b,0x40,0x70,0x69,0x74,0x63,0x68,0x69,0x69,0x3a,0x0c,0x40,0x76,0x6f,0x6c,0x75,0x6d,0x65,0x69,0x55))
Wait(60)
ShowMessageFace("",0,0,2,1)
ShowMessage("その時――城内に、五時の鐘が鳴り響いた。")
241(bytes(0x04,0x08,0x6f,0x3a,0x0d,0x52,0x50,0x47,0x3a,0x3a,0x42,0x47,0x4d,0x08,0x3a,0x0a,0x40,0x6e,0x61,0x6d,0x65,0x49,0x22,0x09,0x65,0x72,0x6f,0x31,0x06,0x3a,0x06,0x45,0x54,0x3a,0x0c,0x40,0x76,0x6f,0x6c,0x75,0x6d,0x65,0x69,0x69,0x3a,0x0b,0x40,0x70,0x69,0x74,0x63,0x68,0x69,0x69))
ShowMessageFace("name2_fc2",1,0,2,2)
ShowMessage("\\n<Melty>")
ShowMessage("話の後は……交尾をしましょう。")
ShowMessage("さあ、いらっしゃい……")
ShowMessageFace("",0,0,2,3)
ShowMessage("\\n<Luka>")
ShowMessage("そんな……ダメだよ……！")
ShowMessageFace("name2_fc2",1,0,2,4)
ShowMessage("\\n<Melty>")
ShowMessage("あら、来ないの……？")
ShowMessage("それじゃあ、こっちから絡み付いてあげる……")
ShowMessageFace("",0,0,2,5)
ShowMessage("\\n<Luka>")
ShowMessage("やめてぇ……あ、あぁぁぁ……！")
245(bytes(0x04,0x08,0x6f,0x3a,0x0d,0x52,0x50,0x47,0x3a,0x3a,0x42,0x47,0x53,0x08,0x3a,0x0a,0x40,0x6e,0x61,0x6d,0x65,0x49,0x22,0x1a,0x6d,0x6f,0x6e,0x5f,0x68,0x73,0x65,0x61,0x6e,0x32,0x31,0x5f,0x74,0x65,0x6e,0x74,0x61,0x63,0x6c,0x65,0x32,0x06,0x3a,0x06,0x45,0x54,0x3a,0x0c,0x40,0x76,0x6f,0x6c,0x75,0x6d,0x65,0x69,0x55,0x3a,0x0b,0x40,0x70,0x69,0x74,0x63,0x68,0x69,0x69))
PictureDisplay(5,"ev_name2_hc2",0,0,0,0,100,100,255,0)
ShowMessageFace("",0,0,2,6)
ShowMessage("たちまち、メルティ達は僕の体に絡み付き――")
ShowMessage("そして、三人掛かりで密着されてしまった。")
ShowMessageFace("name2_fc2",1,0,2,7)
ShowMessage("\\n<Melty>")
ShowMessage("うふふっ、私達に抱かれた感想はどう？")
ShowMessage("これだけでも、昇天しちゃいそうでしょう……")
ShowMessageFace("",0,0,2,8)
ShowMessage("\\n<Luka>")
ShowMessage("うぐっ……こ、こんなぁ……")
ShowMessageFace("",0,0,2,9)
ShowMessage("全身にヌルヌルネバネバの感触が絡み付き――")
ShowMessage("まるで、粘液に満ちた肉壺に頭まで浸かってしまったかのようだ。")
ShowMessageFace("name2_fc2",1,0,2,10)
ShowMessage("\\n<Melty>")
ShowMessage("どんなにもがいている男でも――")
ShowMessage("これをやってあげたら、すぐ大人しくなるのよね。")
ShowMessageFace("",0,0,2,11)
ShowMessage("\\n<Luka>")
ShowMessage("はぅ……ふぁぁぁ……")
ShowMessageFace("",0,0,2,12)
ShowMessage("頭は、柔らかなおっぱいに埋もれるように包まれ――")
ShowMessage("まるで、おっぱいの中で溺れてしまうかのようだった。")
ShowMessageFace("",0,0,2,13)
ShowMessage("たちまち僕の理性は吹き飛び、頭の中を恍惚が支配する。")
ShowMessage("大きくなったペニスも、ヌルヌルの軟体に押し潰され――")
RunCommonEvent(104)
RunCommonEvent(105)
ShowMessageFace("",0,0,2,14)
ShowMessage("甘い快感に浸りながら、ドクドクと射精してしまった。")
ShowMessage("ペニスがどうなっているのか、よく分からないままに――")
ShowMessageFace("name2_fc2",1,0,2,15)
ShowMessage("\\n<Melty>")
ShowMessage("あら、もうイっちゃったの？")
ShowMessage("まだ、交尾は始まってないのに……")
ShowMessageFace("name2_fc2",1,0,2,16)
ShowMessage("\\n<Melty>")
ShowMessage("もう、変なとことに出しちゃって……")
ShowMessage("今度は、生殖器の中に出してもらうわよ。")
ShowMessageFace("",0,0,2,17)
ShowMessage("\\n<Luka>")
ShowMessage("あぅぅぅぅ……")
ShowMessageFace("",0,0,2,18)
ShowMessage("メルティ達は、僕の体を巻き取るようにしながら位置を変え――")
PictureDisplay(5,"ev_name2_hc1",0,0,0,0,100,100,255,0)
ShowMessageFace("",0,0,2,19)
ShowMessage("にゅるっ……と、ペニスがぬめった肉穴に根元まで沈み込んだ。")
ShowMessage("ヌルヌルの粘膜が、肉棒を根元までみっちり包んでくる――")
ShowMessageFace("",0,0,2,20)
ShowMessage("\\n<Luka>")
ShowMessage("はぅ……あぁぁぁっ！！")
ShowMessageFace("name2_fc2",1,0,2,21)
ShowMessage("\\n<Melty>")
ShowMessage("あははっ、挿っちゃった……♪")
ShowMessage("誰のおまんこに入ってるのか、分かる？")
ShowMessageFace("name2_fc2",1,0,2,22)
ShowMessage("\\n<Melty>")
ShowMessage("どうせ、誰でも同じよねぇ？")
ShowMessage("全員のおまんこに、干涸らびるまで発射してもらうし……")
ShowMessageFace("",0,0,2,23)
ShowMessage("\\n<Luka>")
ShowMessage("あぅぅ……あ、あぁぁっ……！")
ShowMessageFace("",0,0,2,24)
ShowMessage("全身が粘液で糸引く女体に埋もれ、艶めかしく愛撫され――")
ShowMessage("そしてペニスも、ヌルヌルの肉壺に包み込まれ――")
ShowMessageFace("",0,0,2,25)
ShowMessage("こんな快感に、我慢できるはずもなかった。")
ShowMessage("ヌルヌルの渦に巻き込まれたペニスが、歓喜するように脈打ち――")
RunCommonEvent(104)
RunCommonEvent(105)
ShowMessageFace("",0,0,2,26)
ShowMessage("そして、生殖孔の中にどっぷりと子種を捧げてしまう。")
ShowMessage("ネバネバの肉穴は艶めかしくうねり、貪欲に精液を搾り出した――")
ShowMessageFace("name2_fc2",1,0,2,27)
ShowMessage("\\n<Melty>")
ShowMessage("うふふっ、出したわね。")
ShowMessage("このまま、力尽きるまで搾り出すから――")
ShowMessageFace("",0,0,2,28)
ShowMessage("\\n<Luka>")
ShowMessage("そ、そんな――")
ShowMessageFace("",0,0,2,29)
ShowMessage("気付けば、メルティ達の様子が普段と異なっていた。")
ShowMessage("性的な貪欲さに、無慈悲な冷酷さが混じっている感じだ。")
ShowMessageFace("",0,0,2,30)
ShowMessage("よく見れば、彼女達の色まで異なっている。")
ShowMessage("まるで、邪悪な意志の影響を受けているような――")
ShowMessageFace("",0,0,2,31)
ShowMessage("\\n<Luka>")
ShowMessage("もしかして、これも……")
ShowMessage("時空異変のせいで……")
ShowMessageFace("name2_fc2",1,0,2,32)
ShowMessage("\\n<Melty>")
ShowMessage("あら、余計な事を考える余裕があるの……？")
ShowMessageFace("name2_fc2",1,0,2,33)
ShowMessage("\\n<Melty>")
ShowMessage("あなたは何も考えず、射精だけしていればいいの。")
ShowMessage("その命、尽きてしまうまでね……")
ShowMessageFace("",0,0,2,34)
ShowMessage("\\n<Luka>")
ShowMessage("そんなぁ……あ、あぅぅぅっ！")
RunCommonEvent(104)
RunCommonEvent(105)
ShowMessageFace("",0,0,2,35)
ShowMessage("こうして僕は、ぬめった女体の渦に絡め取られ――")
ShowMessage("ヌルヌルの感触に溺れながら、精を搾り尽くされたのだった。")
221()
PictureClear(5)
242(1)
246(1)
ShowMessageFace("",0,0,2,36)
ShowMessage("・・・・・・・・")
221()
Wait(120)
If(0,443,0)
 EndEventProcessing()
 0()
EndIf()
RunCommonEvent(541)
0()
