// EVENT 4201
Name "Sparrow Girl"

If(0,25,1)
 221()
 PictureClear(5)
 PictureClear(6)
 ShowMessageFace("",0,0,2,0)
 ShowMessage("......")
 242(2)
 Wait(120)
 241(bytes(0x04,0x08,0x6f,0x3a,0x0d,0x52,0x50,0x47,0x3a,0x3a,0x42,0x47,0x4d,0x08,0x3a,0x0a,0x40,0x6e,0x61,0x6d,0x65,0x49,0x22,0x0c,0x63,0x61,0x73,0x74,0x6c,0x65,0x36,0x06,0x3a,0x06,0x45,0x54,0x3a,0x0c,0x40,0x76,0x6f,0x6c,0x75,0x6d,0x65,0x69,0x69,0x3a,0x0b,0x40,0x70,0x69,0x74,0x63,0x68,0x69,0x69))
 EndEventProcessing()
 0()
EndIf()
PictureDisplay(5,"80_suzume_st01",0,0,0,0,100,100,255,0)
241(bytes(0x04,0x08,0x6f,0x3a,0x0d,0x52,0x50,0x47,0x3a,0x3a,0x42,0x47,0x4d,0x08,0x3a,0x0a,0x40,0x6e,0x61,0x6d,0x65,0x49,0x22,0x09,0x65,0x72,0x6f,0x31,0x06,0x3a,0x06,0x45,0x54,0x3a,0x0c,0x40,0x76,0x6f,0x6c,0x75,0x6d,0x65,0x69,0x69,0x3a,0x0b,0x40,0x70,0x69,0x74,0x63,0x68,0x69,0x69))
ShowMessageFace("suzume_fc1",0,0,2,1)
ShowMessage("\\n<Chirp>You want to mate with me...?\nI'm not very confident my skills, though...")
ShowMessageFace("",0,0,2,2)
ShowMessage("\\n<Luka>P-please...")
ShowMessageFace("suzume_fc1",0,0,2,3)
ShowMessage("\\n<Chirp>All right, come to my room.\nI'd rather others not see us...")
ShowMessageFace("",0,0,2,4)
ShowMessage("I follow Chirp to her room.")
221()
PictureDisplay(1,"bg195",0,0,0,0,100,100,255,0)
PictureDisplay(5,"ev_suzume_h4",0,0,0,0,100,100,255,0)
222()
241(bytes(0x04,0x08,0x6f,0x3a,0x0d,0x52,0x50,0x47,0x3a,0x3a,0x42,0x47,0x4d,0x08,0x3a,0x0a,0x40,0x6e,0x61,0x6d,0x65,0x49,0x22,0x09,0x65,0x72,0x6f,0x31,0x06,0x3a,0x06,0x45,0x54,0x3a,0x0c,0x40,0x76,0x6f,0x6c,0x75,0x6d,0x65,0x69,0x69,0x3a,0x0b,0x40,0x70,0x69,0x74,0x63,0x68,0x69,0x69))
ShowMessageFace("",0,0,2,5)
ShowMessage("As soon as I enter her room, she rips off my clothes.")
ShowMessage("Giddy, she strips and straddles on top of me.")
ShowMessageFace("suzume_fc1",0,0,2,6)
ShowMessage("\\n<Chirp>Your dick is already big...\nThat means we can mate now, right...?")
ShowMessageFace("suzume_fc1",2,0,2,7)
ShowMessage("\\n<Chirp>......")
ShowMessageFace("",0,0,2,8)
ShowMessage("Chirp silently looks down at me.")
ShowMessageFace("suzume_fc1",2,0,2,9)
ShowMessage("\\n<Chirp>...Let me practice first.\nI'm not any good at this, after all...")
ShowMessageFace("",0,0,2,10)
ShowMessage("Chirp starts shaking her waist.")
ShowMessage("Without being inserted in her, her thighs press against me as she rocks back and forth.")
ShowMessageFace("",0,0,2,11)
ShowMessage("\\n<Luka>Q-Quit that... Unngh...")
ShowMessageFace("",0,0,2,12)
ShowMessage("The soft pressure of her thighs...")
ShowMessage("And the feeling of my penis rubbing against her stomach...")
ShowMessageFace("",0,0,2,13)
ShowMessage("The gentle pleasure tickles my senses.")
ShowMessage("I start to tremble from the soft sensations.")
ShowMessageFace("suzume_fc1",0,0,2,14)
ShowMessage("\\n<Chirp>Unnf, unnf... Is that how I'm supposed to do it?\nIf it's inside of me, I wonder if that is able to make it come...?")
ShowMessageFace("",0,0,2,15)
ShowMessage("\\n<Luka>Ah, aaah...")
ShowMessageFace("",0,0,2,16)
ShowMessage("A sudden numbness runs up my spine.")
ShowMessage("I can't hold my desire to release back any longer.")
ShowMessageFace("",0,0,2,17)
ShowMessage("\\n<Luka>Ah...Noooo...!")
ShowMessageFace("suzume_fc1",2,0,2,18)
ShowMessage("\\n<Chirp>...Eh?")
RunCommonEvent(104)
PictureDisplay(5,"ev_suzume_h5",0,0,0,0,100,100,255,0)
RunCommonEvent(105)
ShowMessageFace("",0,0,2,19)
ShowMessage("My semen shoots up into the air.")
ShowMessage("My penis pulses as more and more leaks out.")
PictureMove(5,null,0,0,0,0,100,100,255,0,30,true)
ShowMessageFace("",0,0,2,20)
ShowMessage("My semen is all over Chirp's stomach and breasts.")
ShowMessage("Coming on accident, I feel too pathetic to speak.")
ShowMessageFace("suzume_fc1",0,0,2,21)
ShowMessage("\\n<Chirp>He came... But I didn't put it in yet...\nWhat a simple orgasm...")
ShowMessageFace("suzume_fc1",0,0,2,22)
ShowMessage("\\n<Chirp>If he's like that, then even I...")
ShowMessageFace("",0,0,2,23)
ShowMessage("The timid look on Chirp's face slowly vanishes.")
ShowMessage("A grin slowly spreads across her face as she starts to feel superior.")
ShowMessageFace("suzume_fc1",0,0,2,24)
ShowMessage("\\n<Chirp>Ok, I'll rape you now.\nGive me lots of seed. Fufu...")
ShowMessageFace("",0,0,2,25)
ShowMessage("\\n<Luka>Ah, aaah...")
ShowMessageFace("",0,0,2,26)
ShowMessage("Chirp firmly grabs hold of my wrists with her feet.")
ShowMessage("Pressing my tip against her entrance, she slowly forces me inside.")
245(bytes(0x04,0x08,0x6f,0x3a,0x0d,0x52,0x50,0x47,0x3a,0x3a,0x42,0x47,0x53,0x08,0x3a,0x0a,0x40,0x6e,0x61,0x6d,0x65,0x49,0x22,0x1e,0x6d,0x6f,0x6e,0x5f,0x68,0x73,0x65,0x61,0x6e,0x30,0x31,0x5f,0x69,0x6e,0x6e,0x65,0x72,0x77,0x6f,0x72,0x6b,0x73,0x5f,0x61,0x31,0x06,0x3a,0x06,0x45,0x54,0x3a,0x0c,0x40,0x76,0x6f,0x6c,0x75,0x6d,0x65,0x69,0x55,0x3a,0x0b,0x40,0x70,0x69,0x74,0x63,0x68,0x69,0x69))
PictureDisplay(5,"ev_suzume_h7",0,0,0,0,100,100,255,0)
ShowMessageFace("",0,0,2,27)
ShowMessage("\\n<Luka>Unnngh...!")
ShowMessageFace("suzume_fc1",0,0,2,28)
ShowMessage("\\n<Chirp>Aha, I put his penis in...\nMy pussy is actually raping someone...♪")
ShowMessageFace("",0,0,2,29)
ShowMessage("Her tight insides press down around me.")
ShowMessage("I'm barely fitting in her hot vagina.")
ShowMessageFace("",0,0,2,30)
ShowMessage("\\n<Luka>Ah... Aaaah...!")
ShowMessageFace("",0,0,2,31)
ShowMessage("She slowly drops her waist, leading me inside her.")
ShowMessage("Until finally, my penis is all the way in.")
ShowMessageFace("",0,0,2,32)
ShowMessage("\\n<Luka>Ooooh...!")
ShowMessageFace("",0,0,2,33)
ShowMessage("Deep inside her, I feel tiny little bumps against my tip.")
ShowMessage("It's as if they're specially massaging my tip.")
ShowMessageFace("",0,0,2,34)
ShowMessage("My penis twitches in delight at the sensation.")
ShowMessage("An organ designed to force males to come without fail...")
ShowMessageFace("suzume_fc1",0,0,2,35)
ShowMessage("\\n<Chirp>It's all the way in...\nYou understand, right? I'm raping you right now.")
ShowMessageFace("suzume_fc1",0,0,2,36)
ShowMessage("\\n<Chirp>Mating with me... Making a child.\nIf you ejaculate in me, we can have a baby...♪")
ShowMessageFace("",0,0,2,37)
ShowMessage("\\n<Luka>I can't do that...")
ShowMessageFace("",0,0,2,38)
ShowMessage("Of course, I can't have a child with my ally.")
ShowMessage("Chirp chuckles as she looks down at me, trying to refuse.")
ShowMessageFace("suzume_fc1",0,0,2,39)
ShowMessage("\\n<Chirp>You say that, but can you endure it...?\nDidn't you just come from almost nothing earlier...")
ShowMessageFace("",0,0,2,40)
ShowMessage("\\n<Luka>Urhg...")
ShowMessageFace("suzume_fc1",0,0,2,41)
ShowMessage("\\n<Chirp>I'll tighten it inside.\nI wonder if even that is enough for you...?")
ShowMessageFace("",0,0,2,42)
ShowMessage("Her vagina starts to squeeze down on me.")
ShowMessage("Her already tight insides gets even more unbearable.")
ShowMessageFace("",0,0,2,43)
ShowMessage("Deep inside her, the little protrusions press down at the same time, rubbing the tip of my penis.")
ShowMessageFace("",0,0,2,44)
ShowMessage("\\n<Luka>N-noooo... Aaaah...!")
ShowMessageFace("suzume_fc1",0,0,2,45)
ShowMessage("\\n<Chirp>Arere? You're already moaning like that...?")
ShowMessageFace("",0,0,2,46)
ShowMessage("In the intense tight pleasure, I'm already at my limit...")
RunCommonEvent(104)
PictureDisplay(5,"ev_suzume_h8",0,0,0,0,100,100,255,0)
RunCommonEvent(105)
ShowMessageFace("",0,0,2,47)
ShowMessage("\\n<Luka>Nnngh...")
ShowMessageFace("",0,0,2,48)
ShowMessage("I came inside Chirp's pussy.")
ShowMessage("My semen shoots out, covering all the way to those little bumps.")
ShowMessageFace("suzume_fc1",0,0,2,49)
ShowMessage("\\n<Chirp>Ahaha, I didn't even need to move my waist...\nDo you know what you just did? You gave me your seed...")
ShowMessageFace("",0,0,2,50)
ShowMessage("\\n<Luka>......")
ShowMessageFace("",0,0,2,51)
ShowMessage("The pleasure was too much, and I gave in...")
ShowMessage("It's a mistake I can never take back.")
ShowMessageFace("suzume_fc1",0,0,2,52)
ShowMessage("\\n<Chirp>But I want more semen.\nI'll actually move this time, so give me even more...!")
ShowMessageFace("",0,0,2,53)
ShowMessage("\\n<Luka>Wa-Wait, stop... Aaahh!...!!")
ShowMessageFace("",0,0,2,54)
ShowMessage("Chirp furiously shakes back and forth, going full power right from the start.")
ShowMessage("Giving in to her instinct, the stimulation is unbearable.")
ShowMessageFace("",0,0,2,55)
ShowMessage("Her tight walls squeeze me with every thrust.")
ShowMessage("The incredible stimulation drives me mad with pleasure.")
ShowMessageFace("",0,0,2,56)
ShowMessage("\\n<Luka>Aaah...T-Too intense...!")
ShowMessageFace("suzume_fc1",0,0,2,57)
ShowMessage("\\n<Chirp>Hora, hora...!\nHurry up and come a lot...!")
ShowMessageFace("suzume_fc1",0,0,2,58)
ShowMessage("\\n<Chirp>I want a baby...\nSo give me all of your seed...!")
ShowMessageFace("",0,0,2,59)
ShowMessage("\\n<Luka>Hyaaaa!!")
ShowMessageFace("",0,0,2,60)
ShowMessage("Completely given in to her instinct, she's just seeking my seed.")
ShowMessage("Disregarding all else, she only wants me to impregnate her.")
ShowMessageFace("suzume_fc1",0,0,2,61)
ShowMessage("\\n<Chirp>Are you going to come? You're about to blow, right?\nShoot it out deep in my pussy...!")
ShowMessageFace("",0,0,2,62)
ShowMessage("\\n<Luka>Unnngh... Aaaah...!!")
RunCommonEvent(104)
PictureDisplay(5,"ev_suzume_h9",0,0,0,0,100,100,255,0)
RunCommonEvent(105)
ShowMessageFace("",0,0,2,63)
ShowMessage("It's like soaring through heaven...")
ShowMessage("I pour my hot seed deep into her.")
ShowMessageFace("",0,0,2,64)
ShowMessage("She squeezes and contracts her vagina as I come inside.")
ShowMessage("Every last drop is squeezed out into her...")
246(2)
ShowMessageFace("",0,0,2,65)
ShowMessage("\\n<Luka>Nnngh...")
ShowMessageFace("suzume_fc1",0,0,2,66)
ShowMessage("\\n<Chirp>Ufufu, I got lots of seed♪\nI wonder if I'll really get pregnant...?")
ShowMessageFace("",0,0,2,67)
ShowMessage("She giggles as she strokes her stomach.")
ShowMessage("I may have done something irreparable...")
ShowMessageFace("suzume_fc1",0,0,2,68)
ShowMessage("\\n<Chirp>Should I give birth once our adventure is over?\nLet's raise our children together then♪")
ShowMessageFace("",0,0,2,69)
ShowMessage("\\n<Luka>......")
ShowMessageFace("",0,0,2,70)
ShowMessage("Too weak to move, I can't even refute her words.")
ShowMessage("I can't disobey her in this state...")
ShowMessageFace("",0,0,2,71)
ShowMessage("My life may twist to her desires...")
221()
PictureClear(5)
ShowMessageFace("",0,0,2,72)
ShowMessage("......")
242(2)
Wait(120)
241(bytes(0x04,0x08,0x6f,0x3a,0x0d,0x52,0x50,0x47,0x3a,0x3a,0x42,0x47,0x4d,0x08,0x3a,0x0a,0x40,0x6e,0x61,0x6d,0x65,0x49,0x22,0x0c,0x63,0x61,0x73,0x74,0x6c,0x65,0x36,0x06,0x3a,0x06,0x45,0x54,0x3a,0x0c,0x40,0x76,0x6f,0x6c,0x75,0x6d,0x65,0x69,0x69,0x3a,0x0b,0x40,0x70,0x69,0x74,0x63,0x68,0x69,0x69))
0()
