﻿// EVENT 0151
Name "Reaper:Reset character growth"

ShowMessageFace("sinigami_fc1",0,0,2,1)
ShowMessage("\\n<Reaper>You wish to reset a character's growth...?\nThey shall revert to as they were when you first recruited them.")
ShowChoices(strings("Go back","Reset"),0)
IfPlayerPicksChoice(0,null)
 PictureMove(5,null,0,0,0,0,100,100,0,0,30,true)
 PictureClear(5)
 EndEventProcessing()
 0()
IfPlayerPicksChoice(1,null)
 ShowMessageFace("sinigami_fc1",0,0,2,2)
 ShowMessage("\\n<Reaper>Very well. Who shall I reset?")
 355("names = party_members.collect{|m|m.name}")
 655("unlimited_choices(11, names)")
 655("if $game_variables[11] != names.size")
 655("actor = party_members[$game_variables[11]]")
 655("$game_variables[12] = actor.id")
 655("else")
 655("$game_variables[12] = 0")
 655("end")
 If(1,12,0,0,0)
  PictureMove(5,null,0,0,0,0,100,100,0,0,30,true)
  PictureClear(5)
  EndEventProcessing()
  0()
 EndIf()
 ShowMessageFace("sinigami_fc1",0,0,2,3)
 ShowMessage("\\n<Reaper>I'll ask once more. Do you really wish to reset this character?")
 ShowChoices(strings("GO BACK","Reset"),0)
 IfPlayerPicksChoice(0,null)
  PictureMove(5,null,0,0,0,0,100,100,0,0,30,true)
  PictureClear(5)
  EndEventProcessing()
  0()
 IfPlayerPicksChoice(1,null)
  355("clear_actor_ex(v(12))")
  ShowMessageFace("sinigami_fc1",0,0,2,4)
  ShowMessage("\\n<Reaper>......")
  ShowMessageFace("sinigami_fc1",0,0,2,5)
  ShowMessage("\\n<Reaper>...Reset complete. They've reverted to as they were when you first recruited them.")
  PictureMove(5,null,0,0,0,0,100,100,0,0,30,true)
  PictureClear(5)
  EndEventProcessing()
  0()
 404()
 0()
404()
PictureMove(5,null,0,0,0,0,100,100,0,0,30,true)
PictureClear(5)
EndEventProcessing()
0()
