// EVENT 7071
Name "Kate: Talk"

If(0,25,1)
 ShowMessageFace("",0,0,2,0)
 ShowMessage("You cannot challenge this BF without copying over the pictures from the first chapter.")
 PictureClear(5)
 EndEventProcessing()
 0()
EndIf()
If(1,808,0,0,0)
 ChangeVariable(808,808,0,0,1)
 0()
EndIf()
PictureDisplay(5,"80_mob_maid1_st01",0,0,0,0,100,100,0,0)
PictureMove(5,null,0,0,0,0,100,100,255,0,30,true)
If(0,2331,1)
 ShowMessageFace("mob_maid1_fc1",0,0,2,1)
 ShowMessage("\\n<Kate>This is Flora's house, my master and a legendary maid.\nPlease don't be a nuisance.")
 ShowMessageFace("mob_maid1_fc1",0,0,2,2)
 ShowMessage("\\n<Kate>By the way, I'm also a Battle Fucker.\nWant to have a match in my house?")
 0()
EndIf()
If(1,808,0,2,1)
 PictureDisplay(5,"80_mob_maid1_st05",0,0,0,0,100,100,255,0)
 ShowMessageFace("mob_maid1_fc1",4,0,2,3)
 ShowMessage("\\n<Kate>If I win, I get 120G.\nSince you won already, there's no prize.")
 PictureDisplay(5,"80_mob_maid1_st01",0,0,0,0,100,100,255,0)
 0()
Else()
 ShowMessageFace("mob_maid1_fc1",0,0,2,4)
 ShowMessage("\\n<Kate>If I win, I get 120G.\nIf you win, I'll give an accessory that increases job experience.")
 0()
EndIf()
ShowMessageFace("mob_maid1_fc1",0,0,2,5)
ShowMessage("\\n<Kate>Well, want a match?")
ShowChoices(strings("Battle Fuck Challenge","Reconsider"),2)
IfPlayerPicksChoice(0,"バトルファックを挑む")
 If(7,120,0)
  If(0,2331,1)
   ShowMessageFace("",0,0,2,6)
   ShowMessage("Luka leaves his companions, and enters Kate's house...")
   PictureClear(5)
   281(1)
   216(1)
   TeleportPlayer(0,630,14,6,6,0)
   241(bytes(0x04,0x08,0x6f,0x3a,0x0d,0x52,0x50,0x47,0x3a,0x3a,0x42,0x47,0x4d,0x08,0x3a,0x0a,0x40,0x6e,0x61,0x6d,0x65,0x49,0x22,0x09,0x65,0x72,0x6f,0x32,0x06,0x3a,0x06,0x45,0x54,0x3a,0x0c,0x40,0x76,0x6f,0x6c,0x75,0x6d,0x65,0x69,0x50,0x3a,0x0b,0x40,0x70,0x69,0x74,0x63,0x68,0x69,0x69))
   PictureDisplay(5,"80_mob_maid1_st01",0,0,0,0,100,100,0,0)
   PictureMove(5,null,0,0,0,0,100,100,255,0,30,true)
   0()
  EndIf()
  RunCommonEvent(7072)
  EndEventProcessing()
  0()
 Else()
  PictureDisplay(5,"80_mob_maid1_st05",0,0,0,0,100,100,255,0)
  ShowMessageFace("mob_maid1_fc1",4,0,2,7)
  ShowMessage("\\n<Kate>Sorry, looks like you're short on money.\nPlease come back later.")
  PictureClear(5)
  If(0,2331,1)
   241(bytes(0x04,0x08,0x6f,0x3a,0x0d,0x52,0x50,0x47,0x3a,0x3a,0x42,0x47,0x4d,0x08,0x3a,0x0a,0x40,0x6e,0x61,0x6d,0x65,0x49,0x22,0x0a,0x6d,0x75,0x72,0x61,0x32,0x06,0x3a,0x06,0x45,0x54,0x3a,0x0c,0x40,0x76,0x6f,0x6c,0x75,0x6d,0x65,0x69,0x69,0x3a,0x0b,0x40,0x70,0x69,0x74,0x63,0x68,0x69,0x69))
   0()
  EndIf()
  EndEventProcessing()
  0()
 EndIf()
 0()
IfPlayerPicksChoice(1,"やめておく")
 PictureDisplay(5,"80_mob_maid1_st04",0,0,0,0,100,100,255,0)
 ShowMessageFace("mob_maid1_fc1",3,0,2,8)
 ShowMessage("\\n<Kate>I see, too bad.\nI was going to humiliate you, and you know it.")
 PictureClear(5)
 If(0,2331,1)
  241(bytes(0x04,0x08,0x6f,0x3a,0x0d,0x52,0x50,0x47,0x3a,0x3a,0x42,0x47,0x4d,0x08,0x3a,0x0a,0x40,0x6e,0x61,0x6d,0x65,0x49,0x22,0x0a,0x6d,0x75,0x72,0x61,0x32,0x06,0x3a,0x06,0x45,0x54,0x3a,0x0c,0x40,0x76,0x6f,0x6c,0x75,0x6d,0x65,0x69,0x69,0x3a,0x0b,0x40,0x70,0x69,0x74,0x63,0x68,0x69,0x69))
  0()
 EndIf()
 EndEventProcessing()
 0()
404()
0()
