// EVENT 4146
Name "Wolf Girl"

If(0,25,1)
 221()
 PictureClear(5)
 PictureClear(6)
 ShowMessageFace("",0,0,2,0)
 ShowMessage("......")
 242(2)
 Wait(120)
 241(bytes(0x04,0x08,0x6f,0x3a,0x0d,0x52,0x50,0x47,0x3a,0x3a,0x42,0x47,0x4d,0x08,0x3a,0x0a,0x40,0x6e,0x61,0x6d,0x65,0x49,0x22,0x0c,0x63,0x61,0x73,0x74,0x6c,0x65,0x36,0x06,0x3a,0x06,0x45,0x54,0x3a,0x0c,0x40,0x76,0x6f,0x6c,0x75,0x6d,0x65,0x69,0x69,0x3a,0x0b,0x40,0x70,0x69,0x74,0x63,0x68,0x69,0x69))
 EndEventProcessing()
 0()
EndIf()
PictureDisplay(5,"80_okami_st04",0,0,0,0,100,100,255,0)
ShowMessageFace("okami_fc1",3,0,2,1)
ShowMessage("\\n<Amara>You want to mate with me...?")
ShowMessageFace("",0,0,2,2)
ShowMessage("\\n<Luka>Y-Yes...")
ShowMessageFace("okami_fc1",3,0,2,3)
ShowMessage("\\n<Amara>All right, then let's mate and make a baby!")
ShowMessageFace("",0,0,2,4)
ShowMessage("\\n<Luka>Eh? A child? No, that's too soon...")
ShowMessageFace("",0,0,2,5)
ShowMessage("Amara pushes me down, and mounts me.")
ShowMessage("As quick and wild as a beast, she presses her hips down on me.")
241(bytes(0x04,0x08,0x6f,0x3a,0x0d,0x52,0x50,0x47,0x3a,0x3a,0x42,0x47,0x4d,0x08,0x3a,0x0a,0x40,0x6e,0x61,0x6d,0x65,0x49,0x22,0x09,0x65,0x72,0x6f,0x31,0x06,0x3a,0x06,0x45,0x54,0x3a,0x0c,0x40,0x76,0x6f,0x6c,0x75,0x6d,0x65,0x69,0x69,0x3a,0x0b,0x40,0x70,0x69,0x74,0x63,0x68,0x69,0x69))
245(bytes(0x04,0x08,0x6f,0x3a,0x0d,0x52,0x50,0x47,0x3a,0x3a,0x42,0x47,0x53,0x08,0x3a,0x0a,0x40,0x6e,0x61,0x6d,0x65,0x49,0x22,0x1e,0x6d,0x6f,0x6e,0x5f,0x68,0x73,0x65,0x61,0x6e,0x30,0x34,0x5f,0x69,0x6e,0x6e,0x65,0x72,0x77,0x6f,0x72,0x6b,0x73,0x5f,0x61,0x34,0x06,0x3a,0x06,0x45,0x54,0x3a,0x0c,0x40,0x76,0x6f,0x6c,0x75,0x6d,0x65,0x69,0x55,0x3a,0x0b,0x40,0x70,0x69,0x74,0x63,0x68,0x69,0x69))
PictureDisplay(5,"ev_okami_h1",0,0,0,0,100,100,0,0)
PictureMove(5,null,0,0,0,0,100,100,255,0,30,true)
ShowMessageFace("",0,0,2,6)
ShowMessage("\\n<Luka>W-Wait...\nListen to me...Aaah!")
ShowMessageFace("okami_fc1",3,0,2,7)
ShowMessage("\\n<Amara>Uga... I'm putting you inside me!")
ShowMessageFace("",0,0,2,8)
ShowMessage("My thing is quickly forced into her.")
ShowMessage("Her hot vagina clamps down on me in seconds!")
ShowMessageFace("",0,0,2,9)
ShowMessage("Her insides are incredibly tight.")
ShowMessage("It's like a tight grip, holding me.")
ShowMessageFace("",0,0,2,10)
ShowMessage("\\n<Luka>Unnngh...So tight...")
ShowMessageFace("okami_fc1",3,0,2,11)
ShowMessage("\\n<Amara>I'm always training my body!\nEven inside my pussy, I can clench my muscles super hard!")
ShowMessageFace("",0,0,2,12)
ShowMessage("Amara shakes her body, and clenches inside her vagina.")
ShowMessage("It feels like I'm being squeezed by a hand inside her.")
ShowMessageFace("",0,0,2,13)
ShowMessage("Wrapped in her soft flesh, squeezed...")
ShowMessage("Her wild-like vagina would force any man to come in moments.")
ShowMessageFace("",0,0,2,14)
ShowMessage("\\n<Luka>Children are... Don't...! G-Get off me...!")
ShowMessageFace("",0,0,2,15)
ShowMessage("I struggle to escape from the pleasure...")
ShowMessage("But Amara is holding me down too hard, I can't break free.")
ShowMessageFace("okami_fc1",3,0,2,16)
ShowMessage("\\n<Amara>Until you give me your seed, I won't stop even if you cry!\nBesides, it feels so good for me too!")
PictureDisplay(5,"ev_okami_h2",0,0,0,0,100,100,255,0)
ShowMessageFace("",0,0,2,17)
ShowMessage("Amara takes off her clothes, and starts rubbing her own breasts.")
ShowMessage("She moans with a pleasure-filled voice as she bounces up and down.")
ShowMessageFace("",0,0,2,18)
ShowMessage("\\n<Luka>Unnngh...Stop moving...\nAh...Aaaaaah!")
ShowMessageFace("",0,0,2,19)
ShowMessage("Her up and down motions to pleasure a man...")
ShowMessage("Combined with her tight vagina, my penis is easily handled by her.")
ShowMessageFace("okami_fc1",3,0,2,20)
ShowMessage("\\n<Amara>This feels so good!\nCome on, hurry up and come!")
ShowMessageFace("",0,0,2,21)
ShowMessage("\\n<Luka>Ah... Aaaah!!")
ShowMessageFace("",0,0,2,22)
ShowMessage("Her movements slowly get faster.")
ShowMessage("Bouncing up and down, sometimes grinding against me...")
ShowMessageFace("",0,0,2,23)
ShowMessage("It's just what I would expect from a beast in heat.")
ShowMessage("In only moments, I'm overwhelmed by her intense mating movements.")
ShowMessageFace("",0,0,2,24)
ShowMessage("\\n<Luka>Aaah...I'm coming...!")
ShowMessageFace("okami_fc1",3,0,2,25)
ShowMessage("\\n<Amara>Shoot out all your semen in me!\nGet me pregnant with your baby!")
ShowMessageFace("",0,0,2,26)
ShowMessage("\\n<Luka>We can't...Don't...\nAaah...")
ShowMessageFace("",0,0,2,27)
ShowMessage("I have to hold back somehow.")
ShowMessage("But it's a useless effort.")
ShowMessageFace("",0,0,2,28)
ShowMessage("Her body gets even more heated.")
ShowMessage("Amara gets more excited as she feels me close, increasing her own passion.")
ShowMessageFace("okami_fc1",3,0,2,29)
ShowMessage("\\n<Amara>I'm going to come too...!\nHora, come! Shoot out your seed, come!")
ShowMessageFace("",0,0,2,30)
ShowMessage("Amara's rape gets more intense.")
ShowMessage("My body trembles, my penis pulsing inside her warm flesh.")
ShowMessageFace("",0,0,2,31)
ShowMessage("\\n<Luka>Aaah... Coming...\nAh, aaaaaah!!")
ShowMessageFace("okami_fc1",3,0,2,32)
ShowMessage("\\n<Amara>I'm coming too!\nNnnn...!!")
ShowMessageFace("",0,0,2,33)
ShowMessage("My head goes pure white in pleasure.")
ShowMessage("At the same time, her vagina contracts and tightens around my penis.")
RunCommonEvent(104)
PictureDisplay(5,"ev_okami_h3",0,0,0,0,100,100,255,0)
RunCommonEvent(105)
ShowMessageFace("",0,0,2,34)
ShowMessage("Amara and I come at the same time.")
ShowMessage("My penis pours into her contracting vagina.")
ShowMessageFace("",0,0,2,35)
ShowMessage("\\n<Luka>Ah, aaah...")
ShowMessageFace("okami_fc1",3,0,2,36)
ShowMessage("\\n<Amara>Nnngh...")
ShowMessageFace("",0,0,2,37)
ShowMessage("I taste the pleasure of her squeezing vagina as I come.")
ShowMessage("Her flesh continues to squeeze me, stimulating me all through my climax.")
PictureDisplay(5,"ev_okami_h4",0,0,0,0,100,100,255,0)
ShowMessageFace("",0,0,2,38)
ShowMessage("Her contractions slowly stop.")
ShowMessage("Amara gasps as she straddles me.")
ShowMessageFace("okami_fc1",3,0,2,39)
ShowMessage("\\n<Amara>Nnngh...That felt so good!\nHey, let's go again!")
ShowMessageFace("",0,0,2,40)
ShowMessage("\\n<Luka>Eh, again...? Aaah!!")
PictureDisplay(5,"ev_okami_h5",0,0,0,0,100,100,255,0)
ShowMessageFace("",0,0,2,41)
ShowMessage("Without waiting for my response, Amara starts bouncing up and down again.")
ShowMessage("My penis is assaulted in her tight vagina again.")
ShowMessageFace("",0,0,2,42)
ShowMessage("\\n<Luka>D-don't...! Let me rest...!")
ShowMessageFace("okami_fc1",3,0,2,43)
ShowMessage("\\n<Amara>Ah, you feel so good!\nHora, come inside me again!")
ShowMessageFace("",0,0,2,44)
ShowMessage("Her one-sided rape continues.")
ShowMessage("Driven by pleasure and instinct, Amara's movements get even more beastial.")
ShowMessageFace("",0,0,2,45)
ShowMessage("My penis is tossed around in her tight vagina.")
ShowMessage("Her violent movements force pleasure into me, no matter what I do.")
ShowMessageFace("",0,0,2,46)
ShowMessage("\\n<Luka>Ah, Ooooh...! Aaaah...!!")
ShowMessageFace("okami_fc1",3,0,2,47)
ShowMessage("\\n<Amara>Haahaa... You're feeling good right?\nMe too, it feels so good!")
ShowMessageFace("okami_fc1",3,0,2,48)
ShowMessage("\\n<Amara>It's going to be an even more intense orgasm this time!\nYou too, come together with me!")
ShowMessageFace("",0,0,2,49)
ShowMessage("\\n<Luka>N-no...! Aaaah...!!")
ShowMessageFace("",0,0,2,50)
ShowMessage("Amara bounces up and down, and side to side...")
ShowMessage("My penis, squeezed tight inside her, is brought to the limit.")
ShowMessageFace("",0,0,2,51)
ShowMessage("Her vagina starts to contract like before...")
ShowMessage("Her budding orgasm brings me to the edge, just like before.")
ShowMessageFace("okami_fc1",3,0,2,52)
ShowMessage("\\n<Amara>Ah... Coming! Even harder than before!\nYou too, come with me! Aaaaaah!!")
ShowMessageFace("",0,0,2,53)
ShowMessage("\\n<Luka>Ngh... Ah, aaaah...!!")
ShowMessageFace("",0,0,2,54)
ShowMessage("As Amara reaches her orgasm, her vagina sharply contracts.")
ShowMessage("The crazy pleasure dyes my head all pink.")
RunCommonEvent(104)
PictureDisplay(5,"ev_okami_h6",0,0,0,0,100,100,255,0)
RunCommonEvent(105)
ShowMessageFace("",0,0,2,55)
ShowMessage("Her vagina contracts and squeezes me.")
ShowMessage("At the same time, my penis pulses as I release inside her.")
ShowMessageFace("",0,0,2,56)
ShowMessage("Giving myself over to pleasure, I spurt shot after shot into her.")
ShowMessage("As a man, I can't think of anything better than this sensation...")
ShowMessageFace("okami_fc1",3,0,2,57)
ShowMessage("\\n<Amara>Nnngh...\nYour penis is spurting inside me...")
ShowMessageFace("okami_fc1",3,0,2,58)
ShowMessage("\\n<Amara>Your penis is twitching inside me.\nYour warm semen is filling me... It feels so nice...")
ShowMessageFace("",0,0,2,59)
ShowMessage("\\n<Luka>Unnngh...Your flesh is twitching...\nS-So good...")
ShowMessageFace("",0,0,2,60)
ShowMessage("We bask in the glow of each other's orgasms.")
ShowMessage("The pleasure from coming at the same time...")
ShowMessageFace("",0,0,2,61)
ShowMessage("Mating just like beasts.")
ShowMessage("After breeding on instinct, our bodies relax.")
221()
PictureClear(5)
246(2)
ShowMessageFace("",0,0,2,62)
ShowMessage("With that, I mated with Amara...")
ShowMessage("I wonder what will happen now...")
ShowMessageFace("",0,0,2,63)
ShowMessage("......")
242(2)
Wait(120)
241(bytes(0x04,0x08,0x6f,0x3a,0x0d,0x52,0x50,0x47,0x3a,0x3a,0x42,0x47,0x4d,0x08,0x3a,0x0a,0x40,0x6e,0x61,0x6d,0x65,0x49,0x22,0x0c,0x63,0x61,0x73,0x74,0x6c,0x65,0x36,0x06,0x3a,0x06,0x45,0x54,0x3a,0x0c,0x40,0x76,0x6f,0x6c,0x75,0x6d,0x65,0x69,0x69,0x3a,0x0b,0x40,0x70,0x69,0x74,0x63,0x68,0x69,0x69))
0()
