// EVENT 0203
Name "Talk Seduction 3 Seduction Of Each Enemy"

If(5,0,0,1)
 RunCommonEvent(202)
 108("スイッチ11がオフなら、敵が有効ではないので中断")
 If(0,11,1)
  EndEventProcessing()
  0()
 EndIf()
 ChangeVariable(38,38,0,3,4,0,2)
 ChangeVariable(38,38,3,1,41)
 ChangeVariable(38,38,4,0,100)
 ChangeVariable(37,37,0,3,4,0,0)
 If(12,"all_members_armor_have?(1741)")
  If(1,37,1,38,4)
   108("スイッチ12をオフにすることで、この後の誘惑と会話をキャンセル")
   ChangeSwitch(12,12,1)
   ChangeSwitch(21,21,0)
   RunCommonEvent(205)
   355("common_event = ")
   655("$data_common_events[v(14) + 2000]")
   655("child = Game_Interpreter.new(@depth + 1)")
   655("child.setup(common_event.list, 0)")
   655("child.run")
   EndEventProcessing()
   0()
  EndIf()
  0()
 EndIf()
 ChangeVariable(37,37,3,0,2)
 If(1,37,1,38,4)
  108("スイッチ12をオフにすることで、この後の誘惑と会話をキャンセル")
  ChangeSwitch(12,12,1)
  ChangeSwitch(21,21,0)
  RunCommonEvent(205)
  355("common_event = ")
  655("$data_common_events[v(14) + 2000]")
  655("child = Game_Interpreter.new(@depth + 1)")
  655("child.setup(common_event.list, 0)")
  655("child.run")
  EndEventProcessing()
  0()
 EndIf()
 0()
EndIf()
0()
