﻿// EVENT 7283
Name "Augusta: Defeat"

RunCommonEvent(7000)
PictureDisplay(5,"80_mob_heisi_st01",0,0,0,0,100,100,255,0)
PictureClear(6)
ShowMessageFace("mob_heisi_fc1",0,0,2,1)
ShowMessage("\\n<Augusta>I won!\nI'm Sorry, but I'll be taking your bet...")
If(0,443,1)
 125(1,0,1000)
 0()
EndIf()
ShowMessageFace("",0,0,2,2)
ShowMessage("Luka hands over 1000G!")
ShowMessageFace("mob_heisi_fc1",0,0,2,3)
ShowMessage("\\n<Augusta>Thank you for being my opponent!\nIf you get another chance, I'd like to play with you again!")
If(0,443,0)
 EndEventProcessing()
 0()
EndIf()
If(0,2331,1)
 PictureClear(5)
 281(1)
 TeleportPlayer(0,37,30,53,2,0)
 216(0)
 0()
EndIf()
EndEventProcessing()
0()
