// EVENT 0907
Name "Chaos Labyrinth Rank 4 Items"

ChangeVariable(12,12,0,2,1,4)
If(1,12,0,1,0)
 JumpToLabel("消費アイテム")
 0()
EndIf()
If(1,12,0,2,0)
 JumpToLabel("素材アイテム")
 0()
EndIf()
If(1,12,0,3,0)
 JumpToLabel("食料アイテム")
 0()
EndIf()
If(1,12,0,4,0)
 JumpToLabel("アクセサリ")
 0()
EndIf()
DefineLabel("消費アイテム")
ChangeVariable(11,11,0,2,1,21)
If(1,11,0,1,0)
 ChangeInventory_Item(3,0,0,1)
 EndEventProcessing()
 0()
EndIf()
If(1,11,0,2,0)
 ChangeInventory_Item(5,0,0,1)
 EndEventProcessing()
 0()
EndIf()
If(1,11,0,3,0)
 ChangeInventory_Item(8,0,0,1)
 EndEventProcessing()
 0()
EndIf()
If(1,11,0,4,0)
 ChangeInventory_Item(12,0,0,1)
 EndEventProcessing()
 0()
EndIf()
If(1,11,0,5,0)
 ChangeInventory_Item(22,0,0,1)
 EndEventProcessing()
 0()
EndIf()
If(1,11,0,6,0)
 ChangeInventory_Item(53,0,0,1)
 EndEventProcessing()
 0()
EndIf()
If(1,11,0,7,0)
 ChangeInventory_Item(57,0,0,1)
 EndEventProcessing()
 0()
EndIf()
If(1,11,0,8,0)
 ChangeInventory_Item(61,0,0,1)
 EndEventProcessing()
 0()
EndIf()
If(1,11,0,9,0)
 ChangeInventory_Item(65,0,0,1)
 EndEventProcessing()
 0()
EndIf()
If(1,11,0,10,0)
 ChangeInventory_Item(69,0,0,1)
 EndEventProcessing()
 0()
EndIf()
If(1,11,0,11,0)
 ChangeInventory_Item(73,0,0,1)
 EndEventProcessing()
 0()
EndIf()
If(1,11,0,12,0)
 ChangeInventory_Item(77,0,0,1)
 EndEventProcessing()
 0()
EndIf()
If(1,11,0,13,0)
 ChangeInventory_Item(81,0,0,1)
 EndEventProcessing()
 0()
EndIf()
If(1,11,0,14,0)
 ChangeInventory_Item(104,0,0,1)
 EndEventProcessing()
 0()
EndIf()
If(1,11,0,15,0)
 ChangeInventory_Item(109,0,0,1)
 EndEventProcessing()
 0()
EndIf()
If(1,11,0,16,0)
 ChangeInventory_Item(110,0,0,1)
 EndEventProcessing()
 0()
EndIf()
If(1,11,0,17,0)
 ChangeInventory_Item(111,0,0,1)
 EndEventProcessing()
 0()
EndIf()
If(1,11,0,18,0)
 ChangeInventory_Item(32,0,0,1)
 EndEventProcessing()
 0()
EndIf()
If(1,11,0,19,1)
 If(1,11,0,21,2)
  ChangeInventory_Item(92,0,0,1)
  EndEventProcessing()
  0()
 EndIf()
 0()
EndIf()
DefineLabel("素材アイテム")
ChangeVariable(11,11,0,2,13,30)
If(1,11,0,13,0)
 ChangeInventory_Item(226,0,0,1)
 EndEventProcessing()
 0()
EndIf()
If(1,11,0,14,0)
 ChangeInventory_Item(227,0,0,1)
 EndEventProcessing()
 0()
EndIf()
If(1,11,0,15,0)
 ChangeInventory_Item(228,0,0,1)
 EndEventProcessing()
 0()
EndIf()
If(1,11,0,16,0)
 ChangeInventory_Item(229,0,0,1)
 EndEventProcessing()
 0()
EndIf()
If(1,11,0,17,0)
 ChangeInventory_Item(230,0,0,1)
 EndEventProcessing()
 0()
EndIf()
If(1,11,0,18,0)
 ChangeInventory_Item(231,0,0,1)
 EndEventProcessing()
 0()
EndIf()
If(1,11,0,19,0)
 ChangeInventory_Item(232,0,0,1)
 EndEventProcessing()
 0()
EndIf()
If(1,11,0,20,0)
 ChangeInventory_Item(233,0,0,1)
 EndEventProcessing()
 0()
EndIf()
If(1,11,0,21,0)
 ChangeInventory_Item(234,0,0,1)
 EndEventProcessing()
 0()
EndIf()
If(1,11,0,22,0)
 ChangeInventory_Item(235,0,0,1)
 EndEventProcessing()
 0()
EndIf()
If(1,11,0,23,0)
 ChangeInventory_Item(236,0,0,1)
 EndEventProcessing()
 0()
EndIf()
If(1,11,0,24,0)
 ChangeInventory_Item(237,0,0,1)
 EndEventProcessing()
 0()
EndIf()
If(1,11,0,25,0)
 ChangeInventory_Item(238,0,0,1)
 EndEventProcessing()
 0()
EndIf()
If(1,11,0,26,0)
 ChangeInventory_Item(239,0,0,1)
 EndEventProcessing()
 0()
EndIf()
If(1,11,0,27,0)
 ChangeInventory_Item(240,0,0,1)
 EndEventProcessing()
 0()
EndIf()
If(1,11,0,28,0)
 ChangeInventory_Item(241,0,0,1)
 EndEventProcessing()
 0()
EndIf()
If(1,11,0,29,0)
 ChangeInventory_Item(242,0,0,1)
 EndEventProcessing()
 0()
EndIf()
If(1,11,0,30,0)
 ChangeInventory_Item(243,0,0,1)
 EndEventProcessing()
 0()
EndIf()
DefineLabel("食料アイテム")
ChangeVariable(11,11,0,2,31,61)
If(1,11,0,31,0)
 ChangeInventory_Item(362,0,0,1)
 EndEventProcessing()
 0()
EndIf()
If(1,11,0,32,0)
 ChangeInventory_Item(369,0,0,1)
 EndEventProcessing()
 0()
EndIf()
If(1,11,0,33,0)
 ChangeInventory_Item(372,0,0,1)
 EndEventProcessing()
 0()
EndIf()
If(1,11,0,34,0)
 ChangeInventory_Item(373,0,0,1)
 EndEventProcessing()
 0()
EndIf()
If(1,11,0,35,0)
 ChangeInventory_Item(377,0,0,1)
 EndEventProcessing()
 0()
EndIf()
If(1,11,0,36,0)
 ChangeInventory_Item(378,0,0,1)
 EndEventProcessing()
 0()
EndIf()
If(1,11,0,37,0)
 ChangeInventory_Item(392,0,0,1)
 EndEventProcessing()
 0()
EndIf()
If(1,11,0,38,0)
 ChangeInventory_Item(408,0,0,1)
 EndEventProcessing()
 0()
EndIf()
If(1,11,0,39,0)
 ChangeInventory_Item(409,0,0,1)
 EndEventProcessing()
 0()
EndIf()
If(1,11,0,40,0)
 ChangeInventory_Item(410,0,0,1)
 EndEventProcessing()
 0()
EndIf()
If(1,11,0,41,0)
 ChangeInventory_Item(411,0,0,1)
 EndEventProcessing()
 0()
EndIf()
If(1,11,0,42,0)
 ChangeInventory_Item(412,0,0,1)
 EndEventProcessing()
 0()
EndIf()
If(1,11,0,43,0)
 ChangeInventory_Item(413,0,0,1)
 EndEventProcessing()
 0()
EndIf()
If(1,11,0,44,0)
 ChangeInventory_Item(414,0,0,1)
 EndEventProcessing()
 0()
EndIf()
If(1,11,0,45,0)
 ChangeInventory_Item(415,0,0,1)
 EndEventProcessing()
 0()
EndIf()
If(1,11,0,46,0)
 ChangeInventory_Item(416,0,0,1)
 EndEventProcessing()
 0()
EndIf()
If(1,11,0,47,0)
 ChangeInventory_Item(417,0,0,1)
 EndEventProcessing()
 0()
EndIf()
If(1,11,0,48,0)
 ChangeInventory_Item(418,0,0,1)
 EndEventProcessing()
 0()
EndIf()
If(1,11,0,49,0)
 ChangeInventory_Item(419,0,0,1)
 EndEventProcessing()
 0()
EndIf()
If(1,11,0,50,0)
 ChangeInventory_Item(420,0,0,1)
 EndEventProcessing()
 0()
EndIf()
If(1,11,0,51,0)
 ChangeInventory_Item(421,0,0,1)
 EndEventProcessing()
 0()
EndIf()
If(1,11,0,52,0)
 ChangeInventory_Item(422,0,0,1)
 EndEventProcessing()
 0()
EndIf()
If(1,11,0,53,0)
 ChangeInventory_Item(423,0,0,1)
 EndEventProcessing()
 0()
EndIf()
If(1,11,0,54,0)
 ChangeInventory_Item(424,0,0,1)
 EndEventProcessing()
 0()
EndIf()
If(1,11,0,55,0)
 ChangeInventory_Item(425,0,0,1)
 EndEventProcessing()
 0()
EndIf()
If(1,11,0,56,0)
 ChangeInventory_Item(426,0,0,1)
 EndEventProcessing()
 0()
EndIf()
If(1,11,0,57,0)
 ChangeInventory_Item(427,0,0,1)
 EndEventProcessing()
 0()
EndIf()
If(1,11,0,58,0)
 ChangeInventory_Item(428,0,0,1)
 EndEventProcessing()
 0()
EndIf()
If(1,11,0,59,0)
 ChangeInventory_Item(429,0,0,1)
 EndEventProcessing()
 0()
EndIf()
If(1,11,0,60,0)
 ChangeInventory_Item(430,0,0,1)
 EndEventProcessing()
 0()
EndIf()
If(1,11,0,61,0)
 ChangeInventory_Item(431,0,0,1)
 EndEventProcessing()
 0()
EndIf()
DefineLabel("アクセサリ")
ChangeVariable(11,11,0,2,62,273)
If(1,11,0,62,0)
 ChangeInventoryArmor(1004,0,0,1,false)
 EndEventProcessing()
 0()
EndIf()
If(1,11,0,63,0)
 ChangeInventoryArmor(1009,0,0,1,false)
 EndEventProcessing()
 0()
EndIf()
If(1,11,0,64,0)
 ChangeInventoryArmor(1014,0,0,1,false)
 EndEventProcessing()
 0()
EndIf()
If(1,11,0,65,0)
 ChangeInventoryArmor(1019,0,0,1,false)
 EndEventProcessing()
 0()
EndIf()
If(1,11,0,66,0)
 ChangeInventoryArmor(1024,0,0,1,false)
 EndEventProcessing()
 0()
EndIf()
If(1,11,0,67,0)
 ChangeInventoryArmor(1029,0,0,1,false)
 EndEventProcessing()
 0()
EndIf()
If(1,11,0,68,0)
 ChangeInventoryArmor(1034,0,0,1,false)
 EndEventProcessing()
 0()
EndIf()
If(1,11,0,69,0)
 ChangeInventoryArmor(1039,0,0,1,false)
 EndEventProcessing()
 0()
EndIf()
If(1,11,0,70,0)
 ChangeInventoryArmor(1044,0,0,1,false)
 EndEventProcessing()
 0()
EndIf()
If(1,11,0,71,0)
 ChangeInventoryArmor(1048,0,0,1,false)
 EndEventProcessing()
 0()
EndIf()
If(1,11,0,72,0)
 ChangeInventoryArmor(1068,0,0,1,false)
 EndEventProcessing()
 0()
EndIf()
If(1,11,0,73,0)
 ChangeInventoryArmor(1073,0,0,1,false)
 EndEventProcessing()
 0()
EndIf()
If(1,11,0,74,0)
 ChangeInventoryArmor(1078,0,0,1,false)
 EndEventProcessing()
 0()
EndIf()
If(1,11,0,75,0)
 ChangeInventoryArmor(1083,0,0,1,false)
 EndEventProcessing()
 0()
EndIf()
If(1,11,0,76,0)
 ChangeInventoryArmor(1087,0,0,1,false)
 EndEventProcessing()
 0()
EndIf()
If(1,11,0,77,0)
 ChangeInventoryArmor(1091,0,0,1,false)
 EndEventProcessing()
 0()
EndIf()
If(1,11,0,78,0)
 ChangeInventoryArmor(1093,0,0,1,false)
 EndEventProcessing()
 0()
EndIf()
If(1,11,0,79,0)
 ChangeInventoryArmor(1097,0,0,1,false)
 EndEventProcessing()
 0()
EndIf()
If(1,11,0,80,0)
 ChangeInventoryArmor(1104,0,0,1,false)
 EndEventProcessing()
 0()
EndIf()
If(1,11,0,81,0)
 ChangeInventoryArmor(1105,0,0,1,false)
 EndEventProcessing()
 0()
EndIf()
If(1,11,0,82,0)
 ChangeInventoryArmor(1106,0,0,1,false)
 EndEventProcessing()
 0()
EndIf()
If(1,11,0,83,0)
 ChangeInventoryArmor(1112,0,0,1,false)
 EndEventProcessing()
 0()
EndIf()
If(1,11,0,84,0)
 ChangeInventoryArmor(1124,0,0,1,false)
 EndEventProcessing()
 0()
EndIf()
If(1,11,0,85,0)
 ChangeInventoryArmor(1128,0,0,1,false)
 EndEventProcessing()
 0()
EndIf()
If(1,11,0,86,0)
 ChangeInventoryArmor(1132,0,0,1,false)
 EndEventProcessing()
 0()
EndIf()
If(1,11,0,87,0)
 ChangeInventoryArmor(1135,0,0,1,false)
 EndEventProcessing()
 0()
EndIf()
If(1,11,0,88,0)
 ChangeInventoryArmor(1139,0,0,1,false)
 EndEventProcessing()
 0()
EndIf()
If(1,11,0,89,0)
 ChangeInventoryArmor(1144,0,0,1,false)
 EndEventProcessing()
 0()
EndIf()
If(1,11,0,90,0)
 ChangeInventoryArmor(1150,0,0,1,false)
 EndEventProcessing()
 0()
EndIf()
If(1,11,0,91,0)
 ChangeInventoryArmor(1152,0,0,1,false)
 EndEventProcessing()
 0()
EndIf()
If(1,11,0,92,0)
 ChangeInventoryArmor(1158,0,0,1,false)
 EndEventProcessing()
 0()
EndIf()
If(1,11,0,93,0)
 ChangeInventoryArmor(1169,0,0,1,false)
 EndEventProcessing()
 0()
EndIf()
If(1,11,0,94,0)
 ChangeInventoryArmor(1177,0,0,1,false)
 EndEventProcessing()
 0()
EndIf()
If(1,11,0,95,0)
 ChangeInventoryArmor(1178,0,0,1,false)
 EndEventProcessing()
 0()
EndIf()
If(1,11,0,96,0)
 ChangeInventoryArmor(1181,0,0,1,false)
 EndEventProcessing()
 0()
EndIf()
If(1,11,0,97,0)
 ChangeInventoryArmor(1187,0,0,1,false)
 EndEventProcessing()
 0()
EndIf()
If(1,11,0,98,0)
 ChangeInventoryArmor(1190,0,0,1,false)
 EndEventProcessing()
 0()
EndIf()
If(1,11,0,99,0)
 ChangeInventoryArmor(1194,0,0,1,false)
 EndEventProcessing()
 0()
EndIf()
If(1,11,0,100,0)
 ChangeInventoryArmor(1196,0,0,1,false)
 EndEventProcessing()
 0()
EndIf()
If(1,11,0,101,0)
 ChangeInventoryArmor(1212,0,0,1,false)
 EndEventProcessing()
 0()
EndIf()
If(1,11,0,102,0)
 ChangeInventoryArmor(1213,0,0,1,false)
 EndEventProcessing()
 0()
EndIf()
If(1,11,0,103,0)
 ChangeInventoryArmor(1214,0,0,1,false)
 EndEventProcessing()
 0()
EndIf()
If(1,11,0,104,0)
 ChangeInventoryArmor(1215,0,0,1,false)
 EndEventProcessing()
 0()
EndIf()
If(1,11,0,105,0)
 ChangeInventoryArmor(1216,0,0,1,false)
 EndEventProcessing()
 0()
EndIf()
If(1,11,0,106,0)
 ChangeInventoryArmor(1217,0,0,1,false)
 EndEventProcessing()
 0()
EndIf()
If(1,11,0,107,0)
 ChangeInventoryArmor(1218,0,0,1,false)
 EndEventProcessing()
 0()
EndIf()
If(1,11,0,108,0)
 ChangeInventoryArmor(1219,0,0,1,false)
 EndEventProcessing()
 0()
EndIf()
If(1,11,0,109,0)
 ChangeInventoryArmor(1220,0,0,1,false)
 EndEventProcessing()
 0()
EndIf()
If(1,11,0,110,0)
 ChangeInventoryArmor(1221,0,0,1,false)
 EndEventProcessing()
 0()
EndIf()
If(1,11,0,111,0)
 ChangeInventoryArmor(1222,0,0,1,false)
 EndEventProcessing()
 0()
EndIf()
If(1,11,0,112,0)
 ChangeInventoryArmor(1223,0,0,1,false)
 EndEventProcessing()
 0()
EndIf()
If(1,11,0,113,0)
 ChangeInventoryArmor(1224,0,0,1,false)
 EndEventProcessing()
 0()
EndIf()
If(1,11,0,114,0)
 ChangeInventoryArmor(1225,0,0,1,false)
 EndEventProcessing()
 0()
EndIf()
If(1,11,0,115,0)
 ChangeInventoryArmor(1226,0,0,1,false)
 EndEventProcessing()
 0()
EndIf()
If(1,11,0,116,0)
 ChangeInventoryArmor(1227,0,0,1,false)
 EndEventProcessing()
 0()
EndIf()
If(1,11,0,117,0)
 ChangeInventoryArmor(1228,0,0,1,false)
 EndEventProcessing()
 0()
EndIf()
If(1,11,0,118,0)
 ChangeInventoryArmor(1229,0,0,1,false)
 EndEventProcessing()
 0()
EndIf()
If(1,11,0,119,0)
 ChangeInventoryArmor(1230,0,0,1,false)
 EndEventProcessing()
 0()
EndIf()
If(1,11,0,120,0)
 ChangeInventoryArmor(1231,0,0,1,false)
 EndEventProcessing()
 0()
EndIf()
If(1,11,0,121,0)
 ChangeInventoryArmor(1232,0,0,1,false)
 EndEventProcessing()
 0()
EndIf()
If(1,11,0,122,0)
 ChangeInventoryArmor(1233,0,0,1,false)
 EndEventProcessing()
 0()
EndIf()
If(1,11,0,123,0)
 ChangeInventoryArmor(1234,0,0,1,false)
 EndEventProcessing()
 0()
EndIf()
If(1,11,0,124,0)
 ChangeInventoryArmor(1235,0,0,1,false)
 EndEventProcessing()
 0()
EndIf()
If(1,11,0,125,0)
 ChangeInventoryArmor(1236,0,0,1,false)
 EndEventProcessing()
 0()
EndIf()
If(1,11,0,126,0)
 ChangeInventoryArmor(1237,0,0,1,false)
 EndEventProcessing()
 0()
EndIf()
If(1,11,0,127,0)
 ChangeInventoryArmor(1240,0,0,1,false)
 EndEventProcessing()
 0()
EndIf()
If(1,11,0,128,0)
 ChangeInventoryArmor(1244,0,0,1,false)
 EndEventProcessing()
 0()
EndIf()
If(1,11,0,129,0)
 ChangeInventoryArmor(1247,0,0,1,false)
 EndEventProcessing()
 0()
EndIf()
If(1,11,0,130,0)
 ChangeInventoryArmor(1250,0,0,1,false)
 EndEventProcessing()
 0()
EndIf()
If(1,11,0,131,0)
 ChangeInventoryArmor(1253,0,0,1,false)
 EndEventProcessing()
 0()
EndIf()
If(1,11,0,132,0)
 ChangeInventoryArmor(1256,0,0,1,false)
 EndEventProcessing()
 0()
EndIf()
If(1,11,0,133,0)
 ChangeInventoryArmor(1259,0,0,1,false)
 EndEventProcessing()
 0()
EndIf()
If(1,11,0,134,0)
 ChangeInventoryArmor(1262,0,0,1,false)
 EndEventProcessing()
 0()
EndIf()
If(1,11,0,135,0)
 ChangeInventoryArmor(1265,0,0,1,false)
 EndEventProcessing()
 0()
EndIf()
If(1,11,0,136,0)
 ChangeInventoryArmor(1268,0,0,1,false)
 EndEventProcessing()
 0()
EndIf()
If(1,11,0,137,0)
 ChangeInventoryArmor(1271,0,0,1,false)
 EndEventProcessing()
 0()
EndIf()
If(1,11,0,138,0)
 ChangeInventoryArmor(1274,0,0,1,false)
 EndEventProcessing()
 0()
EndIf()
If(1,11,0,139,0)
 ChangeInventoryArmor(1277,0,0,1,false)
 EndEventProcessing()
 0()
EndIf()
If(1,11,0,140,0)
 ChangeInventoryArmor(1280,0,0,1,false)
 EndEventProcessing()
 0()
EndIf()
If(1,11,0,141,0)
 ChangeInventoryArmor(1283,0,0,1,false)
 EndEventProcessing()
 0()
EndIf()
If(1,11,0,142,0)
 ChangeInventoryArmor(1286,0,0,1,false)
 EndEventProcessing()
 0()
EndIf()
If(1,11,0,143,0)
 ChangeInventoryArmor(1289,0,0,1,false)
 EndEventProcessing()
 0()
EndIf()
If(1,11,0,144,0)
 ChangeInventoryArmor(1292,0,0,1,false)
 EndEventProcessing()
 0()
EndIf()
If(1,11,0,145,0)
 ChangeInventoryArmor(1295,0,0,1,false)
 EndEventProcessing()
 0()
EndIf()
If(1,11,0,146,0)
 ChangeInventoryArmor(1298,0,0,1,false)
 EndEventProcessing()
 0()
EndIf()
If(1,11,0,147,0)
 ChangeInventoryArmor(1301,0,0,1,false)
 EndEventProcessing()
 0()
EndIf()
If(1,11,0,148,0)
 ChangeInventoryArmor(1304,0,0,1,false)
 EndEventProcessing()
 0()
EndIf()
If(1,11,0,149,0)
 ChangeInventoryArmor(1307,0,0,1,false)
 EndEventProcessing()
 0()
EndIf()
If(1,11,0,150,0)
 ChangeInventoryArmor(1310,0,0,1,false)
 EndEventProcessing()
 0()
EndIf()
If(1,11,0,151,0)
 ChangeInventoryArmor(1313,0,0,1,false)
 EndEventProcessing()
 0()
EndIf()
If(1,11,0,152,0)
 ChangeInventoryArmor(1316,0,0,1,false)
 EndEventProcessing()
 0()
EndIf()
If(1,11,0,153,0)
 ChangeInventoryArmor(1319,0,0,1,false)
 EndEventProcessing()
 0()
EndIf()
If(1,11,0,154,0)
 ChangeInventoryArmor(1322,0,0,1,false)
 EndEventProcessing()
 0()
EndIf()
If(1,11,0,155,0)
 ChangeInventoryArmor(1325,0,0,1,false)
 EndEventProcessing()
 0()
EndIf()
If(1,11,0,156,0)
 ChangeInventoryArmor(1328,0,0,1,false)
 EndEventProcessing()
 0()
EndIf()
If(1,11,0,157,0)
 ChangeInventoryArmor(1331,0,0,1,false)
 EndEventProcessing()
 0()
EndIf()
If(1,11,0,158,0)
 ChangeInventoryArmor(1334,0,0,1,false)
 EndEventProcessing()
 0()
EndIf()
If(1,11,0,159,0)
 ChangeInventoryArmor(1337,0,0,1,false)
 EndEventProcessing()
 0()
EndIf()
If(1,11,0,160,0)
 ChangeInventoryArmor(1340,0,0,1,false)
 EndEventProcessing()
 0()
EndIf()
If(1,11,0,161,0)
 ChangeInventoryArmor(1343,0,0,1,false)
 EndEventProcessing()
 0()
EndIf()
If(1,11,0,162,0)
 ChangeInventoryArmor(1346,0,0,1,false)
 EndEventProcessing()
 0()
EndIf()
If(1,11,0,163,0)
 ChangeInventoryArmor(1349,0,0,1,false)
 EndEventProcessing()
 0()
EndIf()
If(1,11,0,164,0)
 ChangeInventoryArmor(1352,0,0,1,false)
 EndEventProcessing()
 0()
EndIf()
If(1,11,0,165,0)
 ChangeInventoryArmor(1355,0,0,1,false)
 EndEventProcessing()
 0()
EndIf()
If(1,11,0,166,0)
 ChangeInventoryArmor(1358,0,0,1,false)
 EndEventProcessing()
 0()
EndIf()
If(1,11,0,167,0)
 ChangeInventoryArmor(1361,0,0,1,false)
 EndEventProcessing()
 0()
EndIf()
If(1,11,0,168,0)
 ChangeInventoryArmor(1364,0,0,1,false)
 EndEventProcessing()
 0()
EndIf()
If(1,11,0,169,0)
 ChangeInventoryArmor(1367,0,0,1,false)
 EndEventProcessing()
 0()
EndIf()
If(1,11,0,170,0)
 ChangeInventoryArmor(1370,0,0,1,false)
 EndEventProcessing()
 0()
EndIf()
If(1,11,0,171,0)
 ChangeInventoryArmor(1373,0,0,1,false)
 EndEventProcessing()
 0()
EndIf()
If(1,11,0,172,0)
 ChangeInventoryArmor(1376,0,0,1,false)
 EndEventProcessing()
 0()
EndIf()
If(1,11,0,173,0)
 ChangeInventoryArmor(1379,0,0,1,false)
 EndEventProcessing()
 0()
EndIf()
If(1,11,0,174,0)
 ChangeInventoryArmor(1382,0,0,1,false)
 EndEventProcessing()
 0()
EndIf()
If(1,11,0,175,0)
 ChangeInventoryArmor(1385,0,0,1,false)
 EndEventProcessing()
 0()
EndIf()
If(1,11,0,176,0)
 ChangeInventoryArmor(1388,0,0,1,false)
 EndEventProcessing()
 0()
EndIf()
If(1,11,0,177,0)
 ChangeInventoryArmor(1391,0,0,1,false)
 EndEventProcessing()
 0()
EndIf()
If(1,11,0,178,0)
 ChangeInventoryArmor(1394,0,0,1,false)
 EndEventProcessing()
 0()
EndIf()
If(1,11,0,179,0)
 ChangeInventoryArmor(1397,0,0,1,false)
 EndEventProcessing()
 0()
EndIf()
If(1,11,0,180,0)
 ChangeInventoryArmor(1400,0,0,1,false)
 EndEventProcessing()
 0()
EndIf()
If(1,11,0,181,0)
 ChangeInventoryArmor(1403,0,0,1,false)
 EndEventProcessing()
 0()
EndIf()
If(1,11,0,182,0)
 ChangeInventoryArmor(1405,0,0,1,false)
 EndEventProcessing()
 0()
EndIf()
If(1,11,0,183,0)
 ChangeInventoryArmor(1406,0,0,1,false)
 EndEventProcessing()
 0()
EndIf()
If(1,11,0,184,0)
 ChangeInventoryArmor(1407,0,0,1,false)
 EndEventProcessing()
 0()
EndIf()
If(1,11,0,185,0)
 ChangeInventoryArmor(1408,0,0,1,false)
 EndEventProcessing()
 0()
EndIf()
If(1,11,0,186,0)
 ChangeInventoryArmor(1409,0,0,1,false)
 EndEventProcessing()
 0()
EndIf()
If(1,11,0,187,0)
 ChangeInventoryArmor(1411,0,0,1,false)
 EndEventProcessing()
 0()
EndIf()
If(1,11,0,188,0)
 ChangeInventoryArmor(1485,0,0,1,false)
 EndEventProcessing()
 0()
EndIf()
If(1,11,0,189,0)
 ChangeInventoryArmor(1489,0,0,1,false)
 EndEventProcessing()
 0()
EndIf()
If(1,11,0,190,0)
 ChangeInventoryArmor(1494,0,0,1,false)
 EndEventProcessing()
 0()
EndIf()
If(1,11,0,191,0)
 ChangeInventoryArmor(1498,0,0,1,false)
 EndEventProcessing()
 0()
EndIf()
If(1,11,0,192,0)
 ChangeInventoryArmor(1502,0,0,1,false)
 EndEventProcessing()
 0()
EndIf()
If(1,11,0,193,0)
 ChangeInventoryArmor(1506,0,0,1,false)
 EndEventProcessing()
 0()
EndIf()
If(1,11,0,194,0)
 ChangeInventoryArmor(1510,0,0,1,false)
 EndEventProcessing()
 0()
EndIf()
If(1,11,0,195,0)
 ChangeInventoryArmor(1514,0,0,1,false)
 EndEventProcessing()
 0()
EndIf()
If(1,11,0,196,0)
 ChangeInventoryArmor(1517,0,0,1,false)
 EndEventProcessing()
 0()
EndIf()
If(1,11,0,197,0)
 ChangeInventoryArmor(1521,0,0,1,false)
 EndEventProcessing()
 0()
EndIf()
If(1,11,0,198,0)
 ChangeInventoryArmor(1526,0,0,1,false)
 EndEventProcessing()
 0()
EndIf()
If(1,11,0,199,0)
 ChangeInventoryArmor(1530,0,0,1,false)
 EndEventProcessing()
 0()
EndIf()
If(1,11,0,200,0)
 ChangeInventoryArmor(1533,0,0,1,false)
 EndEventProcessing()
 0()
EndIf()
If(1,11,0,201,0)
 ChangeInventoryArmor(1538,0,0,1,false)
 EndEventProcessing()
 0()
EndIf()
If(1,11,0,202,0)
 ChangeInventoryArmor(1540,0,0,1,false)
 EndEventProcessing()
 0()
EndIf()
If(1,11,0,203,0)
 ChangeInventoryArmor(1542,0,0,1,false)
 EndEventProcessing()
 0()
EndIf()
If(1,11,0,204,0)
 ChangeInventoryArmor(1544,0,0,1,false)
 EndEventProcessing()
 0()
EndIf()
If(1,11,0,205,0)
 ChangeInventoryArmor(1546,0,0,1,false)
 EndEventProcessing()
 0()
EndIf()
If(1,11,0,206,0)
 ChangeInventoryArmor(1549,0,0,1,false)
 EndEventProcessing()
 0()
EndIf()
If(1,11,0,207,0)
 ChangeInventoryArmor(1551,0,0,1,false)
 EndEventProcessing()
 0()
EndIf()
If(1,11,0,208,0)
 ChangeInventoryArmor(1553,0,0,1,false)
 EndEventProcessing()
 0()
EndIf()
If(1,11,0,209,0)
 ChangeInventoryArmor(1555,0,0,1,false)
 EndEventProcessing()
 0()
EndIf()
If(1,11,0,210,0)
 ChangeInventoryArmor(1557,0,0,1,false)
 EndEventProcessing()
 0()
EndIf()
If(1,11,0,211,0)
 ChangeInventoryArmor(1559,0,0,1,false)
 EndEventProcessing()
 0()
EndIf()
If(1,11,0,212,0)
 ChangeInventoryArmor(1561,0,0,1,false)
 EndEventProcessing()
 0()
EndIf()
If(1,11,0,213,0)
 ChangeInventoryArmor(1563,0,0,1,false)
 EndEventProcessing()
 0()
EndIf()
If(1,11,0,214,0)
 ChangeInventoryArmor(1565,0,0,1,false)
 EndEventProcessing()
 0()
EndIf()
If(1,11,0,215,0)
 ChangeInventoryArmor(1567,0,0,1,false)
 EndEventProcessing()
 0()
EndIf()
If(1,11,0,216,0)
 ChangeInventoryArmor(1569,0,0,1,false)
 EndEventProcessing()
 0()
EndIf()
If(1,11,0,217,0)
 ChangeInventoryArmor(1571,0,0,1,false)
 EndEventProcessing()
 0()
EndIf()
If(1,11,0,218,0)
 ChangeInventoryArmor(1573,0,0,1,false)
 EndEventProcessing()
 0()
EndIf()
If(1,11,0,219,0)
 ChangeInventoryArmor(1575,0,0,1,false)
 EndEventProcessing()
 0()
EndIf()
If(1,11,0,220,0)
 ChangeInventoryArmor(1577,0,0,1,false)
 EndEventProcessing()
 0()
EndIf()
If(1,11,0,221,0)
 ChangeInventoryArmor(1579,0,0,1,false)
 EndEventProcessing()
 0()
EndIf()
If(1,11,0,222,0)
 ChangeInventoryArmor(1581,0,0,1,false)
 EndEventProcessing()
 0()
EndIf()
If(1,11,0,223,0)
 ChangeInventoryArmor(1583,0,0,1,false)
 EndEventProcessing()
 0()
EndIf()
If(1,11,0,224,0)
 ChangeInventoryArmor(1585,0,0,1,false)
 EndEventProcessing()
 0()
EndIf()
If(1,11,0,225,0)
 ChangeInventoryArmor(1587,0,0,1,false)
 EndEventProcessing()
 0()
EndIf()
If(1,11,0,226,0)
 ChangeInventoryArmor(1589,0,0,1,false)
 EndEventProcessing()
 0()
EndIf()
If(1,11,0,227,0)
 ChangeInventoryArmor(1590,0,0,1,false)
 EndEventProcessing()
 0()
EndIf()
If(1,11,0,228,0)
 ChangeInventoryArmor(1592,0,0,1,false)
 EndEventProcessing()
 0()
EndIf()
If(1,11,0,229,0)
 ChangeInventoryArmor(1593,0,0,1,false)
 EndEventProcessing()
 0()
EndIf()
If(1,11,0,230,0)
 ChangeInventoryArmor(1594,0,0,1,false)
 EndEventProcessing()
 0()
EndIf()
If(1,11,0,231,0)
 ChangeInventoryArmor(1595,0,0,1,false)
 EndEventProcessing()
 0()
EndIf()
If(1,11,0,232,0)
 ChangeInventoryArmor(1596,0,0,1,false)
 EndEventProcessing()
 0()
EndIf()
If(1,11,0,233,0)
 ChangeInventoryArmor(1597,0,0,1,false)
 EndEventProcessing()
 0()
EndIf()
If(1,11,0,234,0)
 ChangeInventoryArmor(1598,0,0,1,false)
 EndEventProcessing()
 0()
EndIf()
If(1,11,0,235,0)
 ChangeInventoryArmor(1599,0,0,1,false)
 EndEventProcessing()
 0()
EndIf()
If(1,11,0,236,0)
 ChangeInventoryArmor(1600,0,0,1,false)
 EndEventProcessing()
 0()
EndIf()
If(1,11,0,237,0)
 ChangeInventoryArmor(1601,0,0,1,false)
 EndEventProcessing()
 0()
EndIf()
If(1,11,0,238,0)
 ChangeInventoryArmor(1602,0,0,1,false)
 EndEventProcessing()
 0()
EndIf()
If(1,11,0,239,0)
 ChangeInventoryArmor(1603,0,0,1,false)
 EndEventProcessing()
 0()
EndIf()
If(1,11,0,240,0)
 ChangeInventoryArmor(1604,0,0,1,false)
 EndEventProcessing()
 0()
EndIf()
If(1,11,0,241,0)
 ChangeInventoryArmor(1605,0,0,1,false)
 EndEventProcessing()
 0()
EndIf()
If(1,11,0,242,0)
 ChangeInventoryArmor(1606,0,0,1,false)
 EndEventProcessing()
 0()
EndIf()
If(1,11,0,243,0)
 ChangeInventoryArmor(1607,0,0,1,false)
 EndEventProcessing()
 0()
EndIf()
If(1,11,0,244,0)
 ChangeInventoryArmor(1608,0,0,1,false)
 EndEventProcessing()
 0()
EndIf()
If(1,11,0,245,0)
 ChangeInventoryArmor(1609,0,0,1,false)
 EndEventProcessing()
 0()
EndIf()
If(1,11,0,246,0)
 ChangeInventoryArmor(1610,0,0,1,false)
 EndEventProcessing()
 0()
EndIf()
If(1,11,0,247,0)
 ChangeInventoryArmor(1611,0,0,1,false)
 EndEventProcessing()
 0()
EndIf()
If(1,11,0,248,0)
 ChangeInventoryArmor(1612,0,0,1,false)
 EndEventProcessing()
 0()
EndIf()
If(1,11,0,249,0)
 ChangeInventoryArmor(1613,0,0,1,false)
 EndEventProcessing()
 0()
EndIf()
If(1,11,0,250,0)
 ChangeInventoryArmor(1614,0,0,1,false)
 EndEventProcessing()
 0()
EndIf()
If(1,11,0,251,0)
 ChangeInventoryArmor(1615,0,0,1,false)
 EndEventProcessing()
 0()
EndIf()
If(1,11,0,252,0)
 ChangeInventoryArmor(1616,0,0,1,false)
 EndEventProcessing()
 0()
EndIf()
If(1,11,0,253,0)
 ChangeInventoryArmor(1617,0,0,1,false)
 EndEventProcessing()
 0()
EndIf()
If(1,11,0,254,0)
 ChangeInventoryArmor(1618,0,0,1,false)
 EndEventProcessing()
 0()
EndIf()
If(1,11,0,255,0)
 ChangeInventoryArmor(1619,0,0,1,false)
 EndEventProcessing()
 0()
EndIf()
If(1,11,0,256,0)
 ChangeInventoryArmor(1620,0,0,1,false)
 EndEventProcessing()
 0()
EndIf()
If(1,11,0,257,0)
 ChangeInventoryArmor(1621,0,0,1,false)
 EndEventProcessing()
 0()
EndIf()
If(1,11,0,258,0)
 ChangeInventoryArmor(1622,0,0,1,false)
 EndEventProcessing()
 0()
EndIf()
If(1,11,0,259,0)
 ChangeInventoryArmor(1623,0,0,1,false)
 EndEventProcessing()
 0()
EndIf()
If(1,11,0,260,0)
 ChangeInventoryArmor(1624,0,0,1,false)
 EndEventProcessing()
 0()
EndIf()
If(1,11,0,261,0)
 ChangeInventoryArmor(1625,0,0,1,false)
 EndEventProcessing()
 0()
EndIf()
If(1,11,0,262,0)
 ChangeInventoryArmor(1626,0,0,1,false)
 EndEventProcessing()
 0()
EndIf()
If(1,11,0,263,0)
 ChangeInventoryArmor(1627,0,0,1,false)
 EndEventProcessing()
 0()
EndIf()
If(1,11,0,264,0)
 ChangeInventoryArmor(1708,0,0,1,false)
 EndEventProcessing()
 0()
EndIf()
If(1,11,0,265,0)
 ChangeInventoryArmor(1710,0,0,1,false)
 EndEventProcessing()
 0()
EndIf()
If(1,11,0,266,0)
 ChangeInventoryArmor(1712,0,0,1,false)
 EndEventProcessing()
 0()
EndIf()
If(1,11,0,267,0)
 ChangeInventoryArmor(1714,0,0,1,false)
 EndEventProcessing()
 0()
EndIf()
If(1,11,0,268,0)
 ChangeInventoryArmor(1716,0,0,1,false)
 EndEventProcessing()
 0()
EndIf()
If(1,11,0,269,0)
 ChangeInventoryArmor(1718,0,0,1,false)
 EndEventProcessing()
 0()
EndIf()
If(1,11,0,270,0)
 ChangeInventoryArmor(1720,0,0,1,false)
 EndEventProcessing()
 0()
EndIf()
If(1,11,0,271,0)
 ChangeInventoryArmor(1722,0,0,1,false)
 EndEventProcessing()
 0()
EndIf()
If(1,11,0,272,0)
 ChangeInventoryArmor(1724,0,0,1,false)
 EndEventProcessing()
 0()
EndIf()
If(1,11,0,273,0)
 ChangeInventoryArmor(1726,0,0,1,false)
 EndEventProcessing()
 0()
EndIf()
0()
