// EVENT 7122
Name "Maria: Match"

ChangeSwitch(96,96,0)
ChangeSwitch(98,98,0)
ShowMessageFace("mob_sister1_fc1",0,0,2,1)
ShowMessage("\\n<Maria>Fufu, then let's have a good time.\nNow, here we go.")
PictureDisplay(6,"ev_mob_sister1_h01",0,0,120,50,100,100,255,0)
250(bytes(0x04,0x08,0x6f,0x3a,0x0c,0x52,0x50,0x47,0x3a,0x3a,0x53,0x45,0x08,0x3a,0x0a,0x40,0x6e,0x61,0x6d,0x65,0x49,0x22,0x11,0x6d,0x6f,0x6e,0x5f,0x65,0x72,0x6f,0x5f,0x70,0x79,0x75,0x31,0x06,0x3a,0x06,0x45,0x54,0x3a,0x0b,0x40,0x70,0x69,0x74,0x63,0x68,0x69,0x69,0x3a,0x0c,0x40,0x76,0x6f,0x6c,0x75,0x6d,0x65,0x69,0x69))
ChangeVariable(11,11,0,2,48,52)
311(0,1,1,1,11,true)
ShowMessageFace("",0,0,2,2)
ShowMessage("Maria opens her mouth, and reaches her tongue out toward Luka's penis!")
ShowMessage("The tip of her tongue brushes against Luka's glans!\\D")
ShowMessage("Luka takes \\V[11] damage!")
ChangeVariable(27,27,0,3,3,1,2)
If(1,27,0,0,0)
 RunCommonEvent(7125)
 EndEventProcessing()
 0()
EndIf()
ShowMessageFace("mob_sister1_fc1",0,0,2,3)
ShowMessage("\\n<Maria>A light greeting, first.\n*Lick* *Lick*")
250(bytes(0x04,0x08,0x6f,0x3a,0x0c,0x52,0x50,0x47,0x3a,0x3a,0x53,0x45,0x08,0x3a,0x0a,0x40,0x6e,0x61,0x6d,0x65,0x49,0x22,0x11,0x6d,0x6f,0x6e,0x5f,0x65,0x72,0x6f,0x5f,0x70,0x79,0x75,0x32,0x06,0x3a,0x06,0x45,0x54,0x3a,0x0b,0x40,0x70,0x69,0x74,0x63,0x68,0x69,0x69,0x3a,0x0c,0x40,0x76,0x6f,0x6c,0x75,0x6d,0x65,0x69,0x69))
ChangeVariable(11,11,0,2,48,52)
311(0,1,1,1,11,true)
ShowMessageFace("",0,0,2,4)
ShowMessage("Maria's tongue licks Luka's glans!")
ShowMessage("Her quick tongue movements dart all over his tip!\\D")
ShowMessage("Luka takes \\V[11] damage!")
ChangeVariable(27,27,0,3,3,1,2)
If(1,27,0,0,0)
 RunCommonEvent(7125)
 EndEventProcessing()
 0()
EndIf()
ShowMessageFace("mob_sister1_fc1",0,0,2,5)
ShowMessage("\\n<Maria>Now let's begin.\nI'll have you taste heaven in earnest...")
PictureDisplay(6,"ev_mob_sister1_h02",0,0,120,50,100,100,255,0)
250(bytes(0x04,0x08,0x6f,0x3a,0x0c,0x52,0x50,0x47,0x3a,0x3a,0x53,0x45,0x08,0x3a,0x0a,0x40,0x6e,0x61,0x6d,0x65,0x49,0x22,0x12,0x6d,0x6f,0x6e,0x5f,0x65,0x72,0x6f,0x5f,0x6b,0x6f,0x6b,0x69,0x31,0x06,0x3a,0x06,0x45,0x54,0x3a,0x0b,0x40,0x70,0x69,0x74,0x63,0x68,0x69,0x69,0x3a,0x0c,0x40,0x76,0x6f,0x6c,0x75,0x6d,0x65,0x69,0x69))
ChangeVariable(11,11,0,2,48,52)
311(0,1,1,1,11,true)
ShowMessageFace("",0,0,2,6)
ShowMessage("Maria presses her hands together, as if praying!")
ShowMessage("His penis is caught between her two palms!\\D")
ShowMessage("Luka takes \\V[11] damage!")
ChangeVariable(27,27,0,3,3,1,2)
If(1,27,0,0,0)
 RunCommonEvent(7126)
 EndEventProcessing()
 0()
EndIf()
ShowMessageFace("mob_sister1_fc1",0,0,2,7)
ShowMessage("\\n<Maria>And the point sticking out...\n*Lick* *Lick*")
250(bytes(0x04,0x08,0x6f,0x3a,0x0c,0x52,0x50,0x47,0x3a,0x3a,0x53,0x45,0x08,0x3a,0x0a,0x40,0x6e,0x61,0x6d,0x65,0x49,0x22,0x11,0x6d,0x6f,0x6e,0x5f,0x65,0x72,0x6f,0x5f,0x70,0x79,0x75,0x32,0x06,0x3a,0x06,0x45,0x54,0x3a,0x0b,0x40,0x70,0x69,0x74,0x63,0x68,0x69,0x69,0x3a,0x0c,0x40,0x76,0x6f,0x6c,0x75,0x6d,0x65,0x69,0x69))
ChangeVariable(11,11,0,2,48,52)
311(0,1,1,1,11,true)
ShowMessageFace("",0,0,2,8)
ShowMessage("Her tongue reaches out, licking the tip of Luka's penis!")
ShowMessage("The tip of Maria's tongue darts back and forth, giving a ticklish feeling!\\D")
ShowMessage("Luka takes \\V[11] damage!")
ChangeVariable(27,27,0,3,3,1,2)
If(1,27,0,0,0)
 RunCommonEvent(7126)
 EndEventProcessing()
 0()
EndIf()
ShowMessageFace("mob_sister1_fc1",0,0,2,9)
ShowMessage("\\n<Maria>I'll use your weakest point to defeat you...\nWell? It's irresistible, isn't it?")
250(bytes(0x04,0x08,0x6f,0x3a,0x0c,0x52,0x50,0x47,0x3a,0x3a,0x53,0x45,0x08,0x3a,0x0a,0x40,0x6e,0x61,0x6d,0x65,0x49,0x22,0x11,0x6d,0x6f,0x6e,0x5f,0x65,0x72,0x6f,0x5f,0x70,0x79,0x75,0x32,0x06,0x3a,0x06,0x45,0x54,0x3a,0x0b,0x40,0x70,0x69,0x74,0x63,0x68,0x69,0x69,0x3a,0x0c,0x40,0x76,0x6f,0x6c,0x75,0x6d,0x65,0x69,0x69))
ChangeVariable(11,11,0,2,48,52)
311(0,1,1,1,11,true)
ShowMessageFace("",0,0,2,10)
ShowMessage("Pressed between her two palms, Luka's sensitive tip is licked!")
ShowMessage("The saliva dripping from her stimulates him!\\D")
ShowMessage("Luka takes \\V[11] damage!")
ChangeVariable(27,27,0,3,3,1,2)
If(1,27,0,0,0)
 RunCommonEvent(7126)
 EndEventProcessing()
 0()
EndIf()
If(1,27,0,250,4)
 ShowMessageFace("ruka_fc1",0,0,2,11)
 ShowMessage("\\n<Luka>Ah, unnngh...")
 ShowMessageFace("mob_sister1_fc1",0,0,2,12)
 ShowMessage("\\n<Maria>Fufu, already letting out a moan?\nIf you're unable to endure it, why not just let go and come?")
 0()
Else()
 ShowMessageFace("mob_sister1_fc1",0,0,2,13)
 ShowMessage("\\n<Maria>You're enduring it quite well.\nGiving in would feel so much better though, you know?")
 0()
EndIf()
250(bytes(0x04,0x08,0x6f,0x3a,0x0c,0x52,0x50,0x47,0x3a,0x3a,0x53,0x45,0x08,0x3a,0x0a,0x40,0x6e,0x61,0x6d,0x65,0x49,0x22,0x11,0x6d,0x6f,0x6e,0x5f,0x65,0x72,0x6f,0x5f,0x70,0x79,0x75,0x32,0x06,0x3a,0x06,0x45,0x54,0x3a,0x0b,0x40,0x70,0x69,0x74,0x63,0x68,0x69,0x69,0x3a,0x0c,0x40,0x76,0x6f,0x6c,0x75,0x6d,0x65,0x69,0x69))
ChangeVariable(11,11,0,2,48,52)
311(0,1,1,1,11,true)
ShowMessageFace("",0,0,2,14)
ShowMessage("Her tongue crawls all over the tip of Luka's penis!")
ShowMessage("The weakest point of a man is gently stroked by her warm tongue!\\D")
ShowMessage("Luka takes \\V[11] damage!")
ChangeVariable(27,27,0,3,3,1,2)
If(1,27,0,0,0)
 RunCommonEvent(7126)
 EndEventProcessing()
 0()
EndIf()
ShowMessageFace("mob_sister1_fc1",0,0,2,15)
ShowMessage("\\n<Maria>Well...?\nAre my hands warm?")
250(bytes(0x04,0x08,0x6f,0x3a,0x0c,0x52,0x50,0x47,0x3a,0x3a,0x53,0x45,0x08,0x3a,0x0a,0x40,0x6e,0x61,0x6d,0x65,0x49,0x22,0x12,0x6d,0x6f,0x6e,0x5f,0x65,0x72,0x6f,0x5f,0x6b,0x6f,0x6b,0x69,0x31,0x06,0x3a,0x06,0x45,0x54,0x3a,0x0b,0x40,0x70,0x69,0x74,0x63,0x68,0x69,0x69,0x3a,0x0c,0x40,0x76,0x6f,0x6c,0x75,0x6d,0x65,0x69,0x69))
ChangeVariable(11,11,0,2,48,52)
311(0,1,1,1,11,true)
ShowMessageFace("",0,0,2,16)
ShowMessage("Luka's penis is pressed between her two palms!")
ShowMessage("The soft feeling of her hands gives a sweet stimulation!\\D")
ShowMessage("Luka takes \\V[11] damage!")
ChangeVariable(27,27,0,3,3,1,2)
If(1,27,0,0,0)
 RunCommonEvent(7126)
 EndEventProcessing()
 0()
EndIf()
ShowMessageFace("mob_sister1_fc1",0,0,2,17)
ShowMessage("\\n<Maria>Now for lots of tongue on the tip...\n*Lick* *Lick*")
250(bytes(0x04,0x08,0x6f,0x3a,0x0c,0x52,0x50,0x47,0x3a,0x3a,0x53,0x45,0x08,0x3a,0x0a,0x40,0x6e,0x61,0x6d,0x65,0x49,0x22,0x11,0x6d,0x6f,0x6e,0x5f,0x65,0x72,0x6f,0x5f,0x70,0x79,0x75,0x32,0x06,0x3a,0x06,0x45,0x54,0x3a,0x0b,0x40,0x70,0x69,0x74,0x63,0x68,0x69,0x69,0x3a,0x0c,0x40,0x76,0x6f,0x6c,0x75,0x6d,0x65,0x69,0x69))
ChangeVariable(11,11,0,2,48,52)
311(0,1,1,1,11,true)
ShowMessageFace("",0,0,2,18)
ShowMessage("Maria's tongue crawls all over the tip of Luka's penis!")
ShowMessage("Luka's penis is dripping with Maria's saliva!\\D")
ShowMessage("Luka takes \\V[11] damage!")
ChangeVariable(27,27,0,3,3,1,2)
If(1,27,0,0,0)
 RunCommonEvent(7126)
 EndEventProcessing()
 0()
EndIf()
ShowMessageFace("mob_sister1_fc1",0,0,2,19)
ShowMessage("\\n<Maria>Now for lots of tongue on the tip...\n*Lick* *Lick*")
250(bytes(0x04,0x08,0x6f,0x3a,0x0c,0x52,0x50,0x47,0x3a,0x3a,0x53,0x45,0x08,0x3a,0x0a,0x40,0x6e,0x61,0x6d,0x65,0x49,0x22,0x11,0x6d,0x6f,0x6e,0x5f,0x65,0x72,0x6f,0x5f,0x70,0x79,0x75,0x32,0x06,0x3a,0x06,0x45,0x54,0x3a,0x0b,0x40,0x70,0x69,0x74,0x63,0x68,0x69,0x69,0x3a,0x0c,0x40,0x76,0x6f,0x6c,0x75,0x6d,0x65,0x69,0x69))
ChangeVariable(11,11,0,2,48,52)
311(0,1,1,1,11,true)
ShowMessageFace("",0,0,2,20)
ShowMessage("Maria's tongue crawls all over the tip of Luka's penis!")
ShowMessage("Luka's penis is dripping with Maria's saliva!\\D")
ShowMessage("Luka takes \\V[11] damage!")
ChangeVariable(27,27,0,3,3,1,2)
If(1,27,0,0,0)
 RunCommonEvent(7126)
 EndEventProcessing()
 0()
EndIf()
ShowMessageFace("mob_sister1_fc1",0,0,2,21)
ShowMessage("\\n<Maria>I'll finish you off soon.\nJust like this, on a man's weak point...")
250(bytes(0x04,0x08,0x6f,0x3a,0x0c,0x52,0x50,0x47,0x3a,0x3a,0x53,0x45,0x08,0x3a,0x0a,0x40,0x6e,0x61,0x6d,0x65,0x49,0x22,0x11,0x6d,0x6f,0x6e,0x5f,0x65,0x72,0x6f,0x5f,0x70,0x79,0x75,0x32,0x06,0x3a,0x06,0x45,0x54,0x3a,0x0b,0x40,0x70,0x69,0x74,0x63,0x68,0x69,0x69,0x3a,0x0c,0x40,0x76,0x6f,0x6c,0x75,0x6d,0x65,0x69,0x69))
ChangeVariable(11,11,0,2,48,52)
311(0,1,1,1,11,true)
ShowMessageFace("",0,0,2,22)
ShowMessage("Maria's tongue glides up and down his back muscle!")
ShowMessage("Her skilled movements target every weak point!\\D")
ShowMessage("Luka takes \\V[11] damage!")
ChangeVariable(27,27,0,3,3,1,2)
If(1,27,0,0,0)
 RunCommonEvent(7126)
 EndEventProcessing()
 0()
EndIf()
ShowMessageFace("mob_sister1_fc1",0,0,2,23)
ShowMessage("\\n<Maria>This is the end.\nUfufu, you'll be in heaven soon.")
250(bytes(0x04,0x08,0x6f,0x3a,0x0c,0x52,0x50,0x47,0x3a,0x3a,0x53,0x45,0x08,0x3a,0x0a,0x40,0x6e,0x61,0x6d,0x65,0x49,0x22,0x11,0x6d,0x6f,0x6e,0x5f,0x65,0x72,0x6f,0x5f,0x70,0x79,0x75,0x32,0x06,0x3a,0x06,0x45,0x54,0x3a,0x0b,0x40,0x70,0x69,0x74,0x63,0x68,0x69,0x69,0x3a,0x0c,0x40,0x76,0x6f,0x6c,0x75,0x6d,0x65,0x69,0x69))
ChangeVariable(11,11,0,2,48,52)
311(0,1,1,1,11,true)
ShowMessageFace("",0,0,2,24)
ShowMessage("Maria's palms press together, squeezing Luka's penis!")
ShowMessage("At the same time, her tongue licks the tip of his penis!\\D")
ShowMessage("Luka takes \\V[11] damage!")
ChangeVariable(27,27,0,3,3,1,2)
If(1,27,0,0,0)
 RunCommonEvent(7126)
 EndEventProcessing()
 0()
EndIf()
RunCommonEvent(7124)
EndEventProcessing()
0()
