﻿// EVENT 5801
Name "R Natasha 2"

If(0,443,0)
 205(-1,bytes(0x04,0x08,0x6f,0x3a,0x13,0x52,0x50,0x47,0x3a,0x3a,0x4d,0x6f,0x76,0x65,0x52,0x6f,0x75,0x74,0x65,0x09,0x3a,0x0c,0x40,0x72,0x65,0x70,0x65,0x61,0x74,0x46,0x3a,0x0f,0x40,0x73,0x6b,0x69,0x70,0x70,0x61,0x62,0x6c,0x65,0x46,0x3a,0x0a,0x40,0x77,0x61,0x69,0x74,0x54,0x3a,0x0a,0x40,0x6c,0x69,0x73,0x74,0x5b,0x07,0x6f,0x3a,0x15,0x52,0x50,0x47,0x3a,0x3a,0x4d,0x6f,0x76,0x65,0x43,0x6f,0x6d,0x6d,0x61,0x6e,0x64,0x07,0x3a,0x0a,0x40,0x63,0x6f,0x64,0x65,0x69,0x18,0x3a,0x10,0x40,0x70,0x61,0x72,0x61,0x6d,0x65,0x74,0x65,0x72,0x73,0x5b,0x00,0x6f,0x3b,0x0a,0x07,0x3b,0x0b,0x69,0x00,0x3b,0x0c,0x5b,0x00))
 ChangeSwitch(31,31,0)
 222()
 0()
EndIf()
241(bytes(0x04,0x08,0x6f,0x3a,0x0d,0x52,0x50,0x47,0x3a,0x3a,0x42,0x47,0x4d,0x08,0x3a,0x0a,0x40,0x6e,0x61,0x6d,0x65,0x49,0x22,0x09,0x65,0x72,0x6f,0x31,0x06,0x3a,0x06,0x45,0x54,0x3a,0x0c,0x40,0x76,0x6f,0x6c,0x75,0x6d,0x65,0x69,0x69,0x3a,0x0b,0x40,0x70,0x69,0x74,0x63,0x68,0x69,0x69))
ShowMessageFace("",0,0,2,1)
ShowMessage("\\n<Luka>What are you doing...?")
ShowMessageFace("d_succubus_fc1",0,0,2,2)
ShowMessage("\\n<Natasha>Umm... I spent all my allowance.\nSo I was wondering if you could give me some money...")
PictureDisplay(5,"ev_d_succubus_hf1",0,0,0,0,100,100,0,0)
PictureMove(5,null,0,0,0,0,100,100,255,0,30,true)
ShowMessageFace("",0,0,2,3)
ShowMessage("Suddenly, Natasha spreads her legs, revealing her crotch!")
PictureDisplay(5,"ev_d_succubus_hf2",0,0,0,0,100,100,255,0)
ShowMessageFace("d_succubus_fc1",1,0,2,4)
ShowMessage("\\n<Natasha>Here... You can look if you want.\nIn exchange, you will give me 100 gold for each time you come.")
ShowMessageFace("",0,0,2,5)
ShowMessage("\\n<Luka>T-that's...! We can't...!")
ShowMessageFace("d_succubus_fc1",1,0,2,6)
ShowMessage("\\n<Natasha>Huh?\nYou say no, but your penis is getting bigger...♪")
ShowMessageFace("",0,0,2,7)
ShowMessage("\\n<Luka>No, this is not...")
ShowMessageFace("d_succubus_fc1",1,0,2,8)
ShowMessage("\\n<Natasha>Here, look at my pussy...\nDon't hesitate, just stroke your penis.")
ShowMessageFace("",0,0,2,9)
ShowMessage("\\n<Luka>Ugh...")
PictureDisplay(5,"ev_d_succubus_hf3",0,0,0,0,100,100,255,0)
ShowMessageFace("",0,0,2,10)
ShowMessage("I'm fighting it in my head, but...\nI grab my penis and start to stroke it.")
ShowMessageFace("",0,0,2,11)
ShowMessage("\\n<Luka>Ah... Ahhh...")
ShowMessageFace("d_succubus_fc1",1,0,2,12)
ShowMessage("\\n<Natasha>Ufufu, you're so excited...\nSpurt it out already, I want to go back.")
ShowMessageFace("",0,0,2,13)
ShowMessage("\\n<Luka>Huff, huff... Huu...")
ShowMessageFace("",0,0,2,14)
ShowMessage("Natasha's groin is so close I can smell it...\nMy excitement quickly reaches its peak.")
ShowMessageFace("",0,0,2,15)
ShowMessage("Then...")
ShowMessageFace("",0,0,2,16)
ShowMessage("\\n<Luka>I-I'm coming... Ahhh!!")
RunCommonEvent(104)
PictureDisplay(5,"ev_d_succubus_hf4",0,0,0,0,100,100,255,0)
RunCommonEvent(105)
ShowMessageFace("",0,0,2,17)
ShowMessage("With my eyes fixed on Natasha's crotch...\nI pitifully made myself come with my own hands.")
PictureClear(5)
ShowMessageFace("d_succubus_fc1",1,0,2,18)
ShowMessage("\\n<Natasha>...And you came.\nAs promised, you'll give me 100 gold for the show.")
ShowMessageFace("",0,0,2,19)
ShowMessage("\\n<Luka>Uh, uhhh...")
ShowMessageFace("",0,0,2,20)
ShowMessage("I give her 100 gold while feeling full of shame.\nNatasha smiles as she collects her money.")
ShowMessageFace("d_succubus_fc1",1,0,2,21)
ShowMessage("\\n<Natasha>So, what do we do now?\nDo you still want to enjoy the view...?")
ShowChoices(strings("Keep going","I can't anymore"),0)
IfPlayerPicksChoice(0,null)
 PictureDisplay(5,"ev_d_succubus_hf4",0,0,0,0,100,100,255,0)
 ShowMessageFace("d_succubus_fc1",1,0,2,22)
 ShowMessage("\\n<Natasha>Ufufu, okay then...\nLook as much as you want♪")
 ShowMessageFace("",0,0,2,23)
 ShowMessage("\\n<Luka>Huff... Huff...")
 ShowMessageFace("",0,0,2,24)
 ShowMessage("I'm stroking my dick up and down in excitement.\nMesmerized by the enchanting sight, it's like I'm losing my soul to it...")
 ShowMessageFace("",0,0,2,25)
 ShowMessage("\\n<Luka>Ah, I'm coming again... Ahhh!!")
 RunCommonEvent(104)
 PictureDisplay(5,"ev_d_succubus_hf5",0,0,0,0,100,100,255,0)
 RunCommonEvent(105)
 ShowMessageFace("",0,0,2,26)
 ShowMessage("And in a matter of seconds, I'm ejaculating for the second time.\nThe semen I release stains her private parts right before my eyes.")
 ShowMessageFace("d_succubus_fc1",1,0,2,27)
 ShowMessage("\\n<Natasha>Oh boy~ Your semen is all over my pussy...\nThat'll cost you an extra 300 gold.")
 ShowMessageFace("",0,0,2,28)
 ShowMessage("\\n<Luka>N-no way...")
 ShowMessageFace("d_succubus_fc1",1,0,2,29)
 ShowMessage("\\n<Natasha>Come on, let's keep going.\nYou might not get a chance like this again...")
 ShowMessageFace("",0,0,2,30)
 ShowMessage("\\n<Luka>Hauuu...")
 ShowMessageFace("",0,0,2,31)
 ShowMessage("I'm so entranced, I can't stop stroking my penis.\nI masturbate incessantly, my eyes glued to Natasha's vagina.")
 221()
 PictureClear(5)
 242(1)
 246(1)
 ShowMessageFace("",0,0,2,32)
 ShowMessage("I kept masturbating to her pussy for a while...\nIn the end, I had to pay 800 gold.")
 ShowMessageFace("",0,0,2,33)
 ShowMessage("・・・・・・・・")
 0()
IfPlayerPicksChoice(1,null)
 ShowMessageFace("d_succubus_fc1",2,0,2,34)
 ShowMessage("\\n<Natasha>Huh? You want to end it here...?\nBut I can't go and play around with only this much money...")
 ShowMessageFace("d_succubus_fc1",0,0,2,35)
 ShowMessage("\\n<Natasha>I guess I need to make some more money.\nI'll do something special for you.")
 ShowMessageFace("",0,0,2,36)
 ShowMessage("Suddenly, Natasha clings to me from behind.\nThen, she positions her tail between my legs...")
 ShowMessageFace("",0,0,2,37)
 ShowMessage("\\n<Luka>W-what are you...")
 ShowMessageFace("d_succubus_fc1",0,0,2,38)
 ShowMessage("\\n<Natasha>I'll give you a big treat and use my tail.\nAnd I'll take your money every time you cum in there...")
 ShowMessageFace("",0,0,2,39)
 ShowMessage("\\n<Luka>Y-you can't...")
 ShowMessageFace("d_succubus_fc1",1,0,2,40)
 ShowMessage("\\n<Natasha>If you don't want to pay, all you have to do is resist.\nOkay, here we go...♪")
 245(bytes(0x04,0x08,0x6f,0x3a,0x0d,0x52,0x50,0x47,0x3a,0x3a,0x42,0x47,0x53,0x08,0x3a,0x0a,0x40,0x6e,0x61,0x6d,0x65,0x49,0x22,0x17,0x6d,0x6f,0x6e,0x5f,0x68,0x73,0x65,0x61,0x6e,0x31,0x35,0x5f,0x6b,0x79,0x75,0x69,0x6e,0x32,0x06,0x3a,0x06,0x45,0x54,0x3a,0x0c,0x40,0x76,0x6f,0x6c,0x75,0x6d,0x65,0x69,0x55,0x3a,0x0b,0x40,0x70,0x69,0x74,0x63,0x68,0x69,0x69))
 PictureDisplay(5,"ev_d_succubus_he1",0,0,0,0,100,100,0,0)
 PictureMove(5,null,0,0,0,0,100,100,255,0,30,true)
 ShowMessageFace("",0,0,2,41)
 ShowMessage("She sucks my cock into the milking hole of her tail.\nHer soft flesh squeezes me as her slimy insides take me in all the way to the base.")
 ShowMessageFace("",0,0,2,42)
 ShowMessage("\\n<Luka>Ah... Ahhh...!")
 ShowMessageFace("d_succubus_fc1",1,0,2,43)
 ShowMessage("\\n<Natasha>Ufufu, how is it...?\nIt'll cost you 1,000 gold if you cum inside♪")
 ShowMessageFace("",0,0,2,44)
 ShowMessage("\\n<Luka>N-no way... Hauuu!!")
 PictureDisplay(5,"ev_d_succubus_he2",0,0,0,0,100,100,255,0)
 ShowMessageFace("",0,0,2,45)
 ShowMessage("The soft flesh surrounding my penis twists around vigorously, and I shudder involuntarily.\nNatasha's thick tail is filled to the brim with springy lewd flesh.")
 ShowMessageFace("",0,0,2,46)
 ShowMessage("It contracts strongly, squeezing my penis from the base up.\nIts tightness and movements are so exquisite that it makes me shiver.")
 ShowMessageFace("",0,0,2,47)
 ShowMessage("\\n<Luka>Ahhh... Stop...")
 ShowMessageFace("d_succubus_fc1",1,0,2,48)
 ShowMessage("\\n<Natasha>Oh? Are you gonna cum already?\nThen go ahead...♪")
 ShowMessageFace("",0,0,2,49)
 ShowMessage("\\n<Luka>Hau... Ahhhhh...!")
 RunCommonEvent(104)
 PictureDisplay(5,"ev_d_succubus_he3",0,0,0,0,100,100,255,0)
 RunCommonEvent(105)
 ShowMessageFace("",0,0,2,50)
 ShowMessage("My semen gushes out into her tail.\nHer milking tail is like a powerful pump, sucking the semen out of me...")
 ShowMessageFace("d_succubus_fc1",1,0,2,51)
 ShowMessage("\\n<Natasha>Thank you for your patronage~♪\nThe ejaculation fee is 1,000 gold per shot♪")
 ShowMessageFace("",0,0,2,52)
 ShowMessage("\\n<Luka>You... Auuu...")
 ShowMessageFace("",0,0,2,53)
 ShowMessage("As Natasha's tail sucks out my semen, I feel like I'm going to lose my mind.\nBut her milking hole contracts and releases more and more, squeezing my penis.")
 ShowMessageFace("d_succubus_fc1",1,0,2,54)
 ShowMessage("\\n<Natasha>There's still a lot of money to be made.\nHooora, cum again~♪")
 ShowMessageFace("",0,0,2,55)
 ShowMessage("\\n<Luka>Stop it...! Ah, hauuu...!!")
 ShowMessageFace("",0,0,2,56)
 ShowMessage("She is forcefully stroking my penis with her tail.\nMy penis is squeezed by her thick, soft flesh as I surrender to the pleasure...")
 ShowMessageFace("",0,0,2,57)
 ShowMessage("\\n<Luka>Uwahhhhh...!")
 RunCommonEvent(104)
 RunCommonEvent(105)
 ShowMessageFace("",0,0,2,58)
 ShowMessage("Again, Natasha's tail squeezes my semen out of me.\nA large amount of cloudy liquid is sucked out inside her tail...")
 ShowMessageFace("",0,0,2,59)
 ShowMessage("\\n<Luka>Hauuu...")
 ShowMessageFace("d_succubus_fc1",1,0,2,60)
 ShowMessage("\\n<Natasha>And that's one more shot.\nAnd another 1,000 gold for me...♪")
 ShowMessageFace("d_succubus_fc1",1,0,2,61)
 ShowMessage("\\n<Natasha>But I wanna make some more cash.\nSo I'm gonna milk you again~♪")
 ShowMessageFace("",0,0,2,62)
 ShowMessage("\\n<Luka>Stop! Ah, hauuu!!")
 RunCommonEvent(104)
 RunCommonEvent(105)
 221()
 PictureClear(5)
 242(1)
 246(1)
 ShowMessageFace("",0,0,2,63)
 ShowMessage("Natasha squeezed me out with her tail many times after that.\nIn the end, I had to pay 6,100G.")
 ShowMessageFace("",0,0,2,64)
 ShowMessage("......")
 0()
404()
221()
ChangeSwitch(31,31,1)
Wait(120)
241(bytes(0x04,0x08,0x6f,0x3a,0x0d,0x52,0x50,0x47,0x3a,0x3a,0x42,0x47,0x4d,0x08,0x3a,0x0a,0x40,0x6e,0x61,0x6d,0x65,0x49,0x22,0x0c,0x63,0x61,0x73,0x74,0x6c,0x65,0x36,0x06,0x3a,0x06,0x45,0x54,0x3a,0x0c,0x40,0x76,0x6f,0x6c,0x75,0x6d,0x65,0x69,0x69,0x3a,0x0b,0x40,0x70,0x69,0x74,0x63,0x68,0x69,0x69))
If(0,443,0)
 EndEventProcessing()
 0()
EndIf()
0()
