﻿// EVENT 5831
Name "R Yamata no Orochi"

If(0,443,0)
 PictureDisplay(5,"80_yamatanooroti_st01",0,0,0,0,100,100,255,0)
 0()
EndIf()
242(1)
250(bytes(0x04,0x08,0x6f,0x3a,0x0c,0x52,0x50,0x47,0x3a,0x3a,0x53,0x45,0x08,0x3a,0x0a,0x40,0x6e,0x61,0x6d,0x65,0x49,0x22,0x0a,0x7a,0x69,0x68,0x6f,0x75,0x06,0x3a,0x06,0x45,0x54,0x3a,0x0b,0x40,0x70,0x69,0x74,0x63,0x68,0x69,0x69,0x3a,0x0c,0x40,0x76,0x6f,0x6c,0x75,0x6d,0x65,0x69,0x55))
Wait(60)
ShowMessageFace("",0,0,2,1)
ShowMessage("At that moment, the five o'clock bell rings in the castle.")
241(bytes(0x04,0x08,0x6f,0x3a,0x0d,0x52,0x50,0x47,0x3a,0x3a,0x42,0x47,0x4d,0x08,0x3a,0x0a,0x40,0x6e,0x61,0x6d,0x65,0x49,0x22,0x09,0x65,0x72,0x6f,0x31,0x06,0x3a,0x06,0x45,0x54,0x3a,0x0c,0x40,0x76,0x6f,0x6c,0x75,0x6d,0x65,0x69,0x69,0x3a,0x0b,0x40,0x70,0x69,0x74,0x63,0x68,0x69,0x69))
ShowMessageFace("yamatanooroti_fc1",3,0,2,2)
ShowMessage("\\n<Yamata no Orochi>Now, l'll take your semen before going to the festival.\nI'll savor your body...")
ShowMessageFace("",0,0,2,3)
ShowMessage("\\n<Luka>Huh? Oh no...")
ShowMessageFace("",0,0,2,4)
ShowMessage("Eight necks encircle my bewildered body.")
245(bytes(0x04,0x08,0x6f,0x3a,0x0d,0x52,0x50,0x47,0x3a,0x3a,0x42,0x47,0x53,0x08,0x3a,0x0a,0x40,0x6e,0x61,0x6d,0x65,0x49,0x22,0x10,0x6d,0x6f,0x6e,0x5f,0x68,0x76,0x6f,0x69,0x63,0x65,0x32,0x06,0x3a,0x06,0x45,0x54,0x3a,0x0c,0x40,0x76,0x6f,0x6c,0x75,0x6d,0x65,0x69,0x55,0x3a,0x0b,0x40,0x70,0x69,0x74,0x63,0x68,0x69,0x69))
PictureDisplay(5,"ev_yamatanooroti_hb1",0,0,0,0,100,100,255,0)
ShowMessageFace("",0,0,2,5)
ShowMessage("\\n<Luka>Ah... Ahhhh!!")
ShowMessageFace("",0,0,2,6)
ShowMessage("Yamata no Orochi's heads strech out their tongues and lick all over my body.\nI writhe at the feel of her tongues crawling all over me.")
ShowMessageFace("",0,0,2,7)
ShowMessage("\\n<Luka>Uh... Ah, ahhh...!!")
ShowMessageFace("yamatanooroti_fc1",3,0,2,8)
ShowMessage("\\n<Yamata no Orochi>Kuku, you are a very tasty male.\nDoing it carefully like this is fine, but...")
ShowMessageFace("",0,0,2,9)
ShowMessage("One of Yamata no Orochi's heads opens her mouth wide.\nShe shows off her gaping mouth, which could swallow a person whole.")
ShowMessageFace("yamatanooroti_fc1",3,0,2,10)
ShowMessage("\\n<Yamata no Orochi>It would be even better to swallow you whole, in one breath.\nKukuku, your body must be very delicious...")
ShowMessageFace("",0,0,2,11)
ShowMessage("\\n<Luka>N-no... Ahhh...")
ShowMessageFace("",0,0,2,12)
ShowMessage("Her tongues run all over my frightened body as if to play with me.\nThen, she begins to lick my penis too.")
ShowMessageFace("",0,0,2,13)
ShowMessage("She uses her tongues as if she's trying to carefully taste everything from the tip to the base.\nIt feels so good that it makes my hips shudder...")
ShowMessageFace("",0,0,2,14)
ShowMessage("\\n<Luka>Ugh... Ahhhhh!!")
RunCommonEvent(104)
RunCommonEvent(105)
ShowMessageFace("",0,0,2,15)
ShowMessage("Then, semen gushes out of me.\nCountless tongues lick off the semen that I released.")
ShowMessageFace("",0,0,2,16)
ShowMessage("\\n<Luka>Ah... Uhhh...")
ShowMessageFace("yamatanooroti_fc1",3,0,2,17)
ShowMessage("\\n<Yamata no Orochi>Kuku... You made me taste the finest seed.\nI shall have a taste of your meat next...")
ShowMessageFace("",0,0,2,18)
ShowMessage("One of Yamata no Orochi's mouth approaches me from the front...")
ShowMessageFace("",0,0,2,19)
ShowMessage("\\n<Luka>Ah... Uwhaaah!!")
ShowMessageFace("",0,0,2,20)
ShowMessage("And then I was swallowed whole.")
221()
Wait(60)
PictureDisplay(5,"ev_yamatanooroti_hb2",0,0,0,0,100,100,255,0)
245(bytes(0x04,0x08,0x6f,0x3a,0x0d,0x52,0x50,0x47,0x3a,0x3a,0x42,0x47,0x53,0x08,0x3a,0x0a,0x40,0x6e,0x61,0x6d,0x65,0x49,0x22,0x1e,0x6d,0x6f,0x6e,0x5f,0x68,0x73,0x65,0x61,0x6e,0x30,0x38,0x5f,0x69,0x6e,0x6e,0x65,0x72,0x77,0x6f,0x72,0x6b,0x73,0x5f,0x61,0x38,0x06,0x3a,0x06,0x45,0x54,0x3a,0x0c,0x40,0x76,0x6f,0x6c,0x75,0x6d,0x65,0x69,0x55,0x3a,0x0b,0x40,0x70,0x69,0x74,0x63,0x68,0x69,0x69))
222()
ShowMessageFace("yamatanooroti_fc1",3,0,2,21)
ShowMessage("\\n<Yamata no Orochi>Kuku, I knew you would be delicious.\nI'll slowly digest you now...")
ShowMessageFace("",0,0,2,22)
ShowMessage("Yamata no Orochi's abdomen swells significantly.\nOne could see that there was prey being digested in her stomach.")
ShowMessageFace("",0,0,2,23)
ShowMessage("And the girls all looked very satisfied indeed.\nThey devoured exquisite prey, and their appetite was satisfied...")
ShowMessageFace("yamatanooroti_fc1",3,0,2,24)
ShowMessage("\\n<Yamata no Orochi>Oh my, he just ejaculated in there.\nThis male seems to be quite pleased as well...")
ShowMessageFace("yamatanooroti_fc1",1,0,2,25)
ShowMessage("\\n<Yamata no Orochi>You're leaking semen even though you're being digested...\nMales are such wretched creatures.")
ShowMessageFace("yamatanooroti_fc1",2,0,2,26)
ShowMessage("\\n<Yamata no Orochi>Fufufu... But what a delicacy.\nI am satisfied.")
ShowMessageFace("",0,0,2,27)
ShowMessage("Yamata no Orochi indulged in the delights of predators until her prey was dissolved and digested in her stomach.")
221()
PictureClear(5)
242(1)
246(1)
ShowMessageFace("",0,0,2,28)
ShowMessage("・・・・・・・・")
221()
Wait(120)
If(0,443,0)
 EndEventProcessing()
 0()
EndIf()
RunCommonEvent(541)
0()
