// EVENT 7142
Name "Naia: Match"

ChangeSwitch(96,96,0)
ChangeSwitch(98,98,0)
ShowMessageFace("mob_uranai1_fc1",0,0,2,1)
ShowMessage("\\n<Naia>Ok, let's have a Battle Fuck.\nMy first art of seduction...")
ShowMessageFace("",0,0,2,2)
ShowMessage("Strange magical power flows from Naia's crystal ball!")
ShowMessage("Luka has been entranced!")
ShowMessageFace("mob_uranai1_fc1",0,0,2,3)
ShowMessage("\\n<Naia>Now, grab your own male genitalia.\nAnd stroke it.")
250(bytes(0x04,0x08,0x6f,0x3a,0x0c,0x52,0x50,0x47,0x3a,0x3a,0x53,0x45,0x08,0x3a,0x0a,0x40,0x6e,0x61,0x6d,0x65,0x49,0x22,0x12,0x6d,0x6f,0x6e,0x5f,0x65,0x72,0x6f,0x5f,0x6b,0x6f,0x6b,0x69,0x31,0x06,0x3a,0x06,0x45,0x54,0x3a,0x0b,0x40,0x70,0x69,0x74,0x63,0x68,0x69,0x69,0x3a,0x0c,0x40,0x76,0x6f,0x6c,0x75,0x6d,0x65,0x69,0x69))
PictureDisplay(5,"80_mob_uranai1_st01",0,0,-190,0,100,100,255,0)
PictureDisplay(6,"ev_mob_uranai1_ct61",0,0,240,50,100,100,255,0)
ChangeVariable(11,11,0,2,73,77)
311(0,1,1,1,11,true)
ShowMessageFace("",0,0,2,4)
ShowMessage("Commanded by Naia, Luka grabs hold of his penis!")
ShowMessage("He slowly strokes it!\\D")
ShowMessage("Luka takes \\V[11] damage!")
ChangeVariable(27,27,0,3,3,1,2)
If(1,27,0,0,0)
 RunCommonEvent(7145)
 EndEventProcessing()
 0()
EndIf()
ShowMessageFace("mob_uranai1_fc1",0,0,2,5)
ShowMessage("\\n<Naia>Please make your genitals feel good by yourself.\nThe way you always do...")
250(bytes(0x04,0x08,0x6f,0x3a,0x0c,0x52,0x50,0x47,0x3a,0x3a,0x53,0x45,0x08,0x3a,0x0a,0x40,0x6e,0x61,0x6d,0x65,0x49,0x22,0x12,0x6d,0x6f,0x6e,0x5f,0x65,0x72,0x6f,0x5f,0x6b,0x6f,0x6b,0x69,0x31,0x06,0x3a,0x06,0x45,0x54,0x3a,0x0b,0x40,0x70,0x69,0x74,0x63,0x68,0x69,0x69,0x3a,0x0c,0x40,0x76,0x6f,0x6c,0x75,0x6d,0x65,0x69,0x69))
ChangeVariable(11,11,0,2,73,77)
311(0,1,1,1,11,true)
ShowMessageFace("",0,0,2,6)
ShowMessage("As commanded by Naia, Luka masturbates!\\D")
ShowMessage("Luka takes \\V[11] damage!")
ChangeVariable(27,27,0,3,3,1,2)
If(1,27,0,0,0)
 RunCommonEvent(7145)
 EndEventProcessing()
 0()
EndIf()
ShowMessageFace("mob_uranai1_fc1",0,0,2,7)
ShowMessage("\\n<Naia>You can touch your penis to my body, just this once.\nTo begin with... Shall I let you use my feet?")
250(bytes(0x04,0x08,0x6f,0x3a,0x0c,0x52,0x50,0x47,0x3a,0x3a,0x53,0x45,0x08,0x3a,0x0a,0x40,0x6e,0x61,0x6d,0x65,0x49,0x22,0x12,0x6d,0x6f,0x6e,0x5f,0x65,0x72,0x6f,0x5f,0x6b,0x6f,0x6b,0x69,0x31,0x06,0x3a,0x06,0x45,0x54,0x3a,0x0b,0x40,0x70,0x69,0x74,0x63,0x68,0x69,0x69,0x3a,0x0c,0x40,0x76,0x6f,0x6c,0x75,0x6d,0x65,0x69,0x69))
PictureDisplay(6,"ev_mob_uranai1_ct51",0,0,240,50,100,100,255,0)
ChangeVariable(11,11,0,2,73,77)
311(0,1,1,1,11,true)
ShowMessageFace("",0,0,2,8)
ShowMessage("Naia holds out her foot!")
ShowMessage("Luka bends down, and rubs his penis on her foot!\\D")
ShowMessage("Luka takes \\V[11] damage!")
ChangeVariable(27,27,0,3,3,1,2)
If(1,27,0,0,0)
 RunCommonEvent(7146)
 EndEventProcessing()
 0()
EndIf()
ShowMessageFace("mob_uranai1_fc1",0,0,2,9)
ShowMessage("\\n<Naia>Groveling like a dog, how miserable...\nAren't you humiliated?")
250(bytes(0x04,0x08,0x6f,0x3a,0x0c,0x52,0x50,0x47,0x3a,0x3a,0x53,0x45,0x08,0x3a,0x0a,0x40,0x6e,0x61,0x6d,0x65,0x49,0x22,0x12,0x6d,0x6f,0x6e,0x5f,0x65,0x72,0x6f,0x5f,0x6b,0x6f,0x6b,0x69,0x31,0x06,0x3a,0x06,0x45,0x54,0x3a,0x0b,0x40,0x70,0x69,0x74,0x63,0x68,0x69,0x69,0x3a,0x0c,0x40,0x76,0x6f,0x6c,0x75,0x6d,0x65,0x69,0x69))
ChangeVariable(11,11,0,2,73,77)
311(0,1,1,1,11,true)
ShowMessageFace("",0,0,2,10)
ShowMessage("Crouching, Luka keeps rubbing his penis against Naia's foot!")
ShowMessage("The soft touch of her foot stimulates him!\\D")
ShowMessage("Luka takes \\V[11] damage!")
ChangeVariable(27,27,0,3,3,1,2)
If(1,27,0,0,0)
 RunCommonEvent(7146)
 EndEventProcessing()
 0()
EndIf()
ShowMessageFace("mob_uranai1_fc1",0,0,2,11)
ShowMessage("\\n<Naia>You're like a dog marking territory...\nDo you want to come on my feet that badly?")
250(bytes(0x04,0x08,0x6f,0x3a,0x0c,0x52,0x50,0x47,0x3a,0x3a,0x53,0x45,0x08,0x3a,0x0a,0x40,0x6e,0x61,0x6d,0x65,0x49,0x22,0x12,0x6d,0x6f,0x6e,0x5f,0x65,0x72,0x6f,0x5f,0x6b,0x6f,0x6b,0x69,0x31,0x06,0x3a,0x06,0x45,0x54,0x3a,0x0b,0x40,0x70,0x69,0x74,0x63,0x68,0x69,0x69,0x3a,0x0c,0x40,0x76,0x6f,0x6c,0x75,0x6d,0x65,0x69,0x69))
ChangeVariable(11,11,0,2,73,77)
311(0,1,1,1,11,true)
ShowMessageFace("",0,0,2,12)
ShowMessage("Luka masturbates using Naia's legs as commanded!")
ShowMessage("He rubs his glans against her smooth skin!\\D")
ShowMessage("Luka takes \\V[11] damage!")
ChangeVariable(27,27,0,3,3,1,2)
If(1,27,0,0,0)
 RunCommonEvent(7146)
 EndEventProcessing()
 0()
EndIf()
If(1,27,0,375,4)
 ShowMessageFace("ruka_fc1",0,0,2,13)
 ShowMessage("\\n<Luka>Ah, unnngh...")
 ShowMessageFace("mob_uranai1_fc1",0,0,2,14)
 ShowMessage("\\n<Naia>Are you going to come soon...?\nThen, I'll have you use my stomach next.")
 0()
Else()
 ShowMessageFace("mob_uranai1_fc1",0,0,2,15)
 ShowMessage("\\n<Naia>Are you enduring it...?\nThen, I'll have you use my stomach next.")
 0()
EndIf()
250(bytes(0x04,0x08,0x6f,0x3a,0x0c,0x52,0x50,0x47,0x3a,0x3a,0x53,0x45,0x08,0x3a,0x0a,0x40,0x6e,0x61,0x6d,0x65,0x49,0x22,0x12,0x6d,0x6f,0x6e,0x5f,0x65,0x72,0x6f,0x5f,0x6b,0x6f,0x6b,0x69,0x31,0x06,0x3a,0x06,0x45,0x54,0x3a,0x0b,0x40,0x70,0x69,0x74,0x63,0x68,0x69,0x69,0x3a,0x0c,0x40,0x76,0x6f,0x6c,0x75,0x6d,0x65,0x69,0x69))
PictureDisplay(5,"ev_mob_uranai1_h1",0,0,0,0,100,100,255,0)
PictureClear(6)
ChangeVariable(11,11,0,2,73,77)
311(0,1,1,1,11,true)
ShowMessageFace("",0,0,2,16)
ShowMessage("Luka pushes his penis against Naia's stomach!")
ShowMessage("Her soft, elastic flesh pushes back against him!\\D")
ShowMessage("Luka takes \\V[11] damage!")
ChangeVariable(27,27,0,3,3,1,2)
If(1,27,0,0,0)
 RunCommonEvent(7147)
 EndEventProcessing()
 0()
EndIf()
ShowMessageFace("mob_uranai1_fc1",0,0,2,17)
ShowMessage("\\n<Naia>My, you look somewhat silly.\nUse my stomach however makes you feel best.")
250(bytes(0x04,0x08,0x6f,0x3a,0x0c,0x52,0x50,0x47,0x3a,0x3a,0x53,0x45,0x08,0x3a,0x0a,0x40,0x6e,0x61,0x6d,0x65,0x49,0x22,0x12,0x6d,0x6f,0x6e,0x5f,0x65,0x72,0x6f,0x5f,0x6b,0x6f,0x6b,0x69,0x31,0x06,0x3a,0x06,0x45,0x54,0x3a,0x0b,0x40,0x70,0x69,0x74,0x63,0x68,0x69,0x69,0x3a,0x0c,0x40,0x76,0x6f,0x6c,0x75,0x6d,0x65,0x69,0x69))
ChangeVariable(11,11,0,2,73,77)
311(0,1,1,1,11,true)
ShowMessageFace("",0,0,2,18)
ShowMessage("Luka rubs his penis against Naia's stomach as commanded!")
ShowMessage("He pushes his glans against her navel, savoring the sensation!\\D")
ShowMessage("Luka takes \\V[11] damage!")
ChangeVariable(27,27,0,3,3,1,2)
If(1,27,0,0,0)
 RunCommonEvent(7147)
 EndEventProcessing()
 0()
EndIf()
ShowMessageFace("mob_uranai1_fc1",0,0,2,19)
ShowMessage("\\n<Naia>My belly button...? Is that good?\nSuch a pervert...")
250(bytes(0x04,0x08,0x6f,0x3a,0x0c,0x52,0x50,0x47,0x3a,0x3a,0x53,0x45,0x08,0x3a,0x0a,0x40,0x6e,0x61,0x6d,0x65,0x49,0x22,0x12,0x6d,0x6f,0x6e,0x5f,0x65,0x72,0x6f,0x5f,0x6b,0x6f,0x6b,0x69,0x31,0x06,0x3a,0x06,0x45,0x54,0x3a,0x0b,0x40,0x70,0x69,0x74,0x63,0x68,0x69,0x69,0x3a,0x0c,0x40,0x76,0x6f,0x6c,0x75,0x6d,0x65,0x69,0x69))
ChangeVariable(11,11,0,2,73,77)
311(0,1,1,1,11,true)
ShowMessageFace("",0,0,2,20)
ShowMessage("Luka continues rubbing against her belly button!")
ShowMessage("The soft, elastic sensation stimulates him!\\D")
ShowMessage("Luka takes \\V[11] damage!")
ChangeVariable(27,27,0,3,3,1,2)
If(1,27,0,0,0)
 RunCommonEvent(7147)
 EndEventProcessing()
 0()
EndIf()
ShowMessageFace("mob_uranai1_fc1",0,0,2,21)
ShowMessage("\\n<Naia>Is it almost time for you to finish?\nJust come on my belly button like that...")
250(bytes(0x04,0x08,0x6f,0x3a,0x0c,0x52,0x50,0x47,0x3a,0x3a,0x53,0x45,0x08,0x3a,0x0a,0x40,0x6e,0x61,0x6d,0x65,0x49,0x22,0x12,0x6d,0x6f,0x6e,0x5f,0x65,0x72,0x6f,0x5f,0x6b,0x6f,0x6b,0x69,0x31,0x06,0x3a,0x06,0x45,0x54,0x3a,0x0b,0x40,0x70,0x69,0x74,0x63,0x68,0x69,0x69,0x3a,0x0c,0x40,0x76,0x6f,0x6c,0x75,0x6d,0x65,0x69,0x69))
ChangeVariable(11,11,0,2,73,77)
311(0,1,1,1,11,true)
ShowMessageFace("",0,0,2,22)
ShowMessage("As commanded, Luka presses his penis against her belly button!")
ShowMessage("He rubs himself against her!\\D")
ShowMessage("Luka takes \\V[11] damage!")
ChangeVariable(27,27,0,3,3,1,2)
If(1,27,0,0,0)
 RunCommonEvent(7147)
 EndEventProcessing()
 0()
EndIf()
ShowMessageFace("mob_uranai1_fc1",0,0,2,23)
ShowMessage("\\n<Naia>You're panting so much, like a dog...\nNow, please hurry up and come.")
250(bytes(0x04,0x08,0x6f,0x3a,0x0c,0x52,0x50,0x47,0x3a,0x3a,0x53,0x45,0x08,0x3a,0x0a,0x40,0x6e,0x61,0x6d,0x65,0x49,0x22,0x12,0x6d,0x6f,0x6e,0x5f,0x65,0x72,0x6f,0x5f,0x6b,0x6f,0x6b,0x69,0x31,0x06,0x3a,0x06,0x45,0x54,0x3a,0x0b,0x40,0x70,0x69,0x74,0x63,0x68,0x69,0x69,0x3a,0x0c,0x40,0x76,0x6f,0x6c,0x75,0x6d,0x65,0x69,0x69))
ChangeVariable(11,11,0,2,73,77)
311(0,1,1,1,11,true)
ShowMessageFace("",0,0,2,24)
ShowMessage("Luka rubs his penis against Naia's belly button!")
ShowMessage("The soft touch gives him a weak ecstasy!\\D")
ShowMessage("Luka takes \\V[11] damage!")
ChangeVariable(27,27,0,3,3,1,2)
If(1,27,0,0,0)
 RunCommonEvent(7147)
 EndEventProcessing()
 0()
EndIf()
RunCommonEvent(7144)
EndEventProcessing()
0()
