// EVENT 3117
Name "Worm Villager"

If(0,25,1)
 JumpToLabel("反省会")
 0()
EndIf()
PictureDisplay(5,"80_wormv_st02",0,0,0,0,100,100,0,0)
PictureMove(5,null,0,0,0,0,100,100,255,0,30,true)
241(bytes(0x04,0x08,0x6f,0x3a,0x0d,0x52,0x50,0x47,0x3a,0x3a,0x42,0x47,0x4d,0x08,0x3a,0x0a,0x40,0x6e,0x61,0x6d,0x65,0x49,0x22,0x09,0x65,0x72,0x6f,0x31,0x06,0x3a,0x06,0x45,0x54,0x3a,0x0c,0x40,0x76,0x6f,0x6c,0x75,0x6d,0x65,0x69,0x69,0x3a,0x0b,0x40,0x70,0x69,0x74,0x63,0x68,0x69,0x69))
ShowMessageFace("",0,0,2,1)
ShowMessage("\\n<Luka>Unnngh...")
250(bytes(0x04,0x08,0x6f,0x3a,0x0c,0x52,0x50,0x47,0x3a,0x3a,0x53,0x45,0x08,0x3a,0x0a,0x40,0x6e,0x61,0x6d,0x65,0x49,0x22,0x16,0x6d,0x6f,0x6e,0x5f,0x65,0x72,0x6f,0x5f,0x6d,0x61,0x6b,0x69,0x74,0x75,0x6b,0x69,0x33,0x06,0x3a,0x06,0x45,0x54,0x3a,0x0b,0x40,0x70,0x69,0x74,0x63,0x68,0x69,0x69,0x3a,0x0c,0x40,0x76,0x6f,0x6c,0x75,0x6d,0x65,0x69,0x69))
PictureDisplay(5,"ev_wormv_h1",0,0,0,0,100,100,255,0)
ShowMessageFace("",0,0,2,2)
ShowMessage("The Worm Villager's tentacle coils around me.")
ShowMessage("Completely entangled in her, I'm left unable to move.")
ShowMessageFace("wormv_fc1",1,0,2,3)
ShowMessage("\\n<Worm Villager>I want more...\nYour semen is too delicious to resist.")
ShowMessageFace("wormv_fc1",1,0,2,4)
ShowMessage("\\n<Worm Villager>Hora... Doesn't my tentacle look like it would feel amazing?")
250(bytes(0x04,0x08,0x6f,0x3a,0x0c,0x52,0x50,0x47,0x3a,0x3a,0x53,0x45,0x08,0x3a,0x0a,0x40,0x6e,0x61,0x6d,0x65,0x49,0x22,0x11,0x6d,0x6f,0x6e,0x5f,0x65,0x72,0x6f,0x5f,0x70,0x79,0x75,0x32,0x06,0x3a,0x06,0x45,0x54,0x3a,0x0b,0x40,0x70,0x69,0x74,0x63,0x68,0x69,0x69,0x3a,0x0c,0x40,0x76,0x6f,0x6c,0x75,0x6d,0x65,0x69,0x69))
ShowMessageFace("",0,0,2,5)
ShowMessage("With a lewd noise, a mouth opens at the end of one of her tentacles.")
ShowMessage("The flesh inside of it wriggles and vibrates around, as if inviting me.")
ShowMessageFace("",0,0,2,6)
ShowMessage("She's going to stick me in there...")
ShowMessage("Just thinking of that fills me with both hate and expectation.")
ShowMessageFace("",0,0,2,7)
ShowMessage("\\n<Luka>Stop... Stop...")
ShowMessageFace("wormv_fc1",1,0,2,8)
ShowMessage("\\n<Worm Villager>Hehe... Are you ready?\nWell then... Here we go! ♪")
245(bytes(0x04,0x08,0x6f,0x3a,0x0d,0x52,0x50,0x47,0x3a,0x3a,0x42,0x47,0x53,0x08,0x3a,0x0a,0x40,0x6e,0x61,0x6d,0x65,0x49,0x22,0x17,0x6d,0x6f,0x6e,0x5f,0x68,0x73,0x65,0x61,0x6e,0x31,0x35,0x5f,0x6b,0x79,0x75,0x69,0x6e,0x32,0x06,0x3a,0x06,0x45,0x54,0x3a,0x0c,0x40,0x76,0x6f,0x6c,0x75,0x6d,0x65,0x69,0x55,0x3a,0x0b,0x40,0x70,0x69,0x74,0x63,0x68,0x69,0x69))
PictureDisplay(5,"ev_wormv_h6",0,0,0,0,100,100,255,0)
ShowMessageFace("",0,0,2,9)
ShowMessage("With a soft slurping noise, her tentacle sucks me all the way inside!")
ShowMessage("In an instant, I'm sucked all the way into the slimy tentacle's mouth!")
ShowMessageFace("",0,0,2,10)
ShowMessage("\\n<Luka>Ah, aaaah...!!")
ShowMessageFace("",0,0,2,11)
ShowMessage("My body shivers as the unexpected pleasure attacks me.")
ShowMessageFace("",0,0,2,12)
ShowMessage("The inside of her tentacle is softer and warmer than I expected.")
ShowMessageFace("",0,0,2,13)
ShowMessage("As I tremble after insertion, the soft flesh starts to narrow around me.")
ShowMessage("But above all was the suction...")
ShowMessageFace("",0,0,2,14)
ShowMessage("As if it was smoking me, the tentacle sucks and pulls on me with powerful sucking.")
ShowMessageFace("",0,0,2,15)
ShowMessage("\\n<Luka>Ahh... The sucking...")
ShowMessageFace("wormv_fc1",1,0,2,16)
ShowMessage("\\n<Worm Villager>Hehehe... That's right...\nI'm sucking your penis with my tentacle.")
ShowMessageFace("wormv_fc1",1,0,2,17)
ShowMessage("\\n<Worm Villager>Just like this, I'll suck everything out...")
ShowMessageFace("",0,0,2,18)
ShowMessage("\\n<Luka>Auuu... Amazing...")
ShowMessageFace("",0,0,2,19)
ShowMessage("The suction brings me a sweet pleasure.")
ShowMessage("The stimulation blows away my previous disgust at the slimy tentacle.")
ShowMessageFace("",0,0,2,20)
ShowMessage("The desire to explode inside of her tentacle boils up through me.")
ShowMessageFace("wormv_fc1",1,0,2,21)
ShowMessage("\\n<Worm Villager>Hehe... You get it now, don't you? You want to come, right?\nYou want this tentacle to suck up all of your semen, right?")
ShowMessageFace("wormv_fc1",1,0,2,22)
ShowMessage("\\n<Worm Villager>That's good... Just give in to your desires.\nI'll gladly suck out everything for you♪")
ShowMessageFace("",0,0,2,23)
ShowMessage("\\n<Luka>Ah, aaah...")
ShowMessageFace("",0,0,2,24)
ShowMessage("The Worm Villager seductively whispers in my ear as her tentacle continues its powerful suction.")
ShowMessageFace("",0,0,2,25)
ShowMessage("At the same time, the fleshy walls wriggle and vibrate around my penis.")
ShowMessageFace("wormv_fc1",1,0,2,26)
ShowMessage("\\n<Worm Villager>Hahaha... I can taste your pre-come♪")
ShowMessageFace("wormv_fc1",1,0,2,27)
ShowMessage("\\n<Worm Villager>I'll be able to taste all of your semen soon enough.\nJust surrender to the world of pleasure I can bring you, and don't think of anything else.")
ShowMessageFace("",0,0,2,28)
ShowMessage("\\n<Luka>Unnngh...")
ShowMessageFace("",0,0,2,29)
ShowMessage("My penis is inside of her strange tentacle...")
ShowMessage("Able to do nothing but look at her sucking on me, a deep sense of defeat fills me.")
ShowMessageFace("",0,0,2,30)
ShowMessage("But still, my body can't deny the pleasure...")
ShowMessageFace("",0,0,2,31)
ShowMessage("The desire to have my semen sucked out by her is slowly taking over my other thoughts...")
ShowMessageFace("",0,0,2,32)
ShowMessage("\\n<Luka>Don't...I'm coming...")
ShowMessageFace("wormv_fc1",1,0,2,33)
ShowMessage("\\n<Worm Villager>Don't hold back... Just give in.\nHere, I'll help you... Once I do this, you'll be forced to surrender.")
ShowMessageFace("",0,0,2,34)
ShowMessage("The wriggling of her flesh violently increases.")
ShowMessage("With the lewd sounds from the suction getting even louder, the stimulation drastically increases.")
ShowMessageFace("",0,0,2,35)
ShowMessage("Unable to endure her forceful attack, I finally yield to the desire.")
ShowMessageFace("",0,0,2,36)
ShowMessage("\\n<Luka>Ah! I'm coming!")
RunCommonEvent(104)
PictureDisplay(5,"ev_wormv_h7",0,0,0,0,100,100,255,0)
RunCommonEvent(105)
ShowMessageFace("",0,0,2,37)
ShowMessage("I finally explode inside of her soft tentacle, pouring out everything into her.")
ShowMessageFace("",0,0,2,38)
ShowMessage("\\n<Luka>Faaa... Incredible...")
ShowMessageFace("",0,0,2,39)
ShowMessage("The sense of release is overwhelming.")
ShowMessage("As if my soul itself is being sucked out, I let out a sigh.")
ShowMessageFace("",0,0,2,40)
ShowMessage("Until my ejaculation ends, I'm stuck in a trance.")
ShowMessage("There's no escape from this pleasure anymore...")
ShowMessageFace("wormv_fc1",1,0,2,41)
ShowMessage("\\n<Worm Villager>Hehe... Your semen is delicious♪")
ShowMessageFace("wormv_fc1",1,0,2,42)
ShowMessage("\\n<Worm Villager>But I'm not done yet.\nUntil my thirst is gone...")
ShowMessageFace("",0,0,2,43)
ShowMessage("\\n<Luka>Ah... Aieee!!")
245(bytes(0x04,0x08,0x6f,0x3a,0x0d,0x52,0x50,0x47,0x3a,0x3a,0x42,0x47,0x53,0x08,0x3a,0x0a,0x40,0x6e,0x61,0x6d,0x65,0x49,0x22,0x17,0x6d,0x6f,0x6e,0x5f,0x68,0x73,0x65,0x61,0x6e,0x31,0x36,0x5f,0x6b,0x79,0x75,0x69,0x6e,0x33,0x06,0x3a,0x06,0x45,0x54,0x3a,0x0c,0x40,0x76,0x6f,0x6c,0x75,0x6d,0x65,0x69,0x55,0x3a,0x0b,0x40,0x70,0x69,0x74,0x63,0x68,0x69,0x69))
ShowMessageFace("",0,0,2,44)
ShowMessage("Suddenly, the tentacle starts to move back and forth.")
ShowMessageFace("",0,0,2,45)
ShowMessage("Until now it was only suction, but now she starts rubbing the tip of my penis.")
ShowMessageFace("",0,0,2,46)
ShowMessage("The new movement causes my penis to rub against the soft folds and bumps inside of her tentacle, as her suction remains as strong as before.")
ShowMessageFace("",0,0,2,47)
ShowMessage("In and out, from the base to the tip, I let out a yell as it becomes too much to take.")
ShowMessageFace("",0,0,2,48)
ShowMessage("\\n<Luka>Auu... Incredible!\nFaaa... Too good...")
ShowMessageFace("",0,0,2,49)
ShowMessage("The last of the resistance in my mind is destroyed as the stimulation makes it feel as though I'm floating.")
ShowMessageFace("",0,0,2,50)
ShowMessage("This devilish tentacle that is able to suck out my semen...")
ShowMessage("Any man would go crazy at this...")
ShowMessageFace("",0,0,2,51)
ShowMessage("\\n<Luka>Auuu... Amazing... It's too good...")
ShowMessageFace("wormv_fc1",1,0,2,52)
ShowMessage("\\n<Worm Villager>It looks like you're really enjoying yourself now.\nDid you finally give yourself to the depravation?")
ShowMessageFace("wormv_fc1",1,0,2,53)
ShowMessage("\\n<Worm Villager>Then let me keep sucking on you...\nUntil you're completely corrupt, I'll suck it all out♪")
ShowMessageFace("",0,0,2,54)
ShowMessage("\\n<Luka>Ahhh... Faa...")
ShowMessageFace("",0,0,2,55)
ShowMessage("Her movements start to become even quicker.")
ShowMessageFace("",0,0,2,56)
ShowMessage("With the lewd sucking noises sounding out, the rhythmic pumping forces me quickly over the edge again.")
ShowMessageFace("",0,0,2,57)
ShowMessage("\\n<Luka>Ahh! I'm coming again!")
ShowMessageFace("",0,0,2,58)
ShowMessage("As if rejoicing at the stimulation, I explode inside of her again.")
RunCommonEvent(104)
PictureDisplay(5,"ev_wormv_h8",0,0,0,0,100,100,255,0)
RunCommonEvent(105)
ShowMessageFace("",0,0,2,59)
ShowMessage("Each spurt inside of the tentacle is matched by a powerful suction as her tentacle sucks out every drop I shoot in her.")
ShowMessageFace("",0,0,2,60)
ShowMessage("\\n<Luka>Hnnaaa...")
ShowMessageFace("",0,0,2,61)
ShowMessage("My body relaxes at the bliss spreading through my body.")
ShowMessage("But she wasn't about to let me take a rest...")
ShowMessageFace("wormv_fc1",1,0,2,62)
ShowMessage("\\n<Worm Villager>Delicious... But not enough...\nI want even more of your semen...")
ShowMessageFace("",0,0,2,63)
ShowMessage("\\n<Luka>Unnngh...!!")
ShowMessageFace("",0,0,2,64)
ShowMessage("As if spurred on by my last orgasm, the tentacle only becomes even more forceful.")
ShowMessageFace("",0,0,2,65)
ShowMessage("Sucking me inside, the tentacle pumps me even faster.")
ShowMessageFace("",0,0,2,66)
ShowMessage("While pumping, the tentacle squeezes the tip of my penis as if not wanting to let go, forcing great pleasure into my glans.") 
ShowMessageFace("",0,0,2,67)
ShowMessage("When I'm pulled almost all the way out of the tentacle, the suction on my tip is too much to take.")
ShowMessageFace("",0,0,2,68)
ShowMessage("\\n<Luka>Ahhh! It's too much!\nIf you do it like that...!")
ShowMessageFace("",0,0,2,69)
ShowMessage("The stimulation is too intense.")
ShowMessage("If she keeps doing this, I don't think I'll stay sane...")
ShowMessageFace("wormv_fc1",1,0,2,70)
ShowMessage("\\n<Worm Villager>I won't stop... Until I'm satisfied, I'll keep sucking...\nBut don't worry, I won't kill you...")
ShowMessageFace("wormv_fc1",1,0,2,71)
ShowMessage("\\n<Worm Villager>I'm really skilled...")
ShowMessageFace("wormv_fc1",1,0,2,72)
ShowMessage("\\n<Worm Villager>I'll suck you to the border of death and resuscitate you,\nover and over...")
ShowMessageFace("",0,0,2,73)
ShowMessage("\\n<Luka>No way... Ahhh!")
RunCommonEvent(104)
RunCommonEvent(105)
ShowMessageFace("",0,0,2,74)
ShowMessage("I explode inside her tentacle again.")
ShowMessage("But there's still no end in sight...")
ShowMessageFace("",0,0,2,75)
ShowMessage("\\n<Luka>Stop... Please... I'll die...")
ShowMessageFace("wormv_fc1",1,0,2,76)
ShowMessage("\\n<Worm Villager>You won't die with just this little.\nI'll stop at the absolute limit, so don't worry.")
ShowMessageFace("",0,0,2,77)
ShowMessage("\\n<Luka>Ahhhh!!")
ShowMessageFace("",0,0,2,78)
ShowMessage("My body shivers as she continues the attack of pleasure.")
ShowMessageFace("",0,0,2,79)
ShowMessage("The tentacles grips my penis completely, as she gives extra attention to the tip...")
ShowMessageFace("",0,0,2,80)
ShowMessage("\\n<Luka>Ahh! No more...")
RunCommonEvent(104)
PictureDisplay(5,"ev_wormv_h9",0,0,0,0,100,100,255,0)
RunCommonEvent(105)
ShowMessageFace("",0,0,2,81)
ShowMessage("My semen is continually sucked up by the villager.")
ShowMessageFace("",0,0,2,82)
ShowMessage("But she just laughs and doesn't stop for a moment.")
ShowMessageFace("",0,0,2,83)
ShowMessage("She won't ever free me from this...")
ShowMessageFace("",0,0,2,84)
ShowMessage("This hell on earth will continue for the rest of my life...")
ShowMessageFace("",0,0,2,85)
ShowMessage("\\n<Luka>Ah, aaah...")
ShowMessageFace("wormv_fc1",1,0,2,86)
ShowMessage("\\n<Worm Villager>Hehe, I can get even more...")
ShowMessageFace("wormv_fc1",1,0,2,87)
ShowMessage("\\n<Worm Villager>You won't die yet, so don't worry...\nPlease let it out more...")
RunCommonEvent(104)
RunCommonEvent(105)
ShowMessageFace("",0,0,2,88)
ShowMessage("\\n<Luka>Unnngh...")
ShowMessageFace("",0,0,2,89)
ShowMessage("Even though she's saying she won't kill me, I feel my consciousness start to fade.")
ShowMessageFace("",0,0,2,90)
ShowMessage("I fainted, but that was only a short escape.")
221()
PictureClear(5)
246(2)
ShowMessageFace("",0,0,2,91)
ShowMessage("As soon as I wake up, the sucking starts again.")
ShowMessage("There's nothing I can do to escape from this...")
ShowMessageFace("",0,0,2,92)
ShowMessage("As if being sucked to death over and over, my adventure ends here.")
DefineLabel("反省会")
ShowMessageFace("",0,0,2,93)
ShowMessage("......")
221()
242(1)
Wait(120)
355("memory_interruption")
ShowMessageFace("",0,0,2,94)
ShowMessage("You hear Ilias' voice calling out to you...")
ShowMessage("Receive her evaluation?")
ShowChoices(strings("Receive Evaluation","Change Difficulty","Reincarnate"),3)
IfPlayerPicksChoice(0,null)
 241(bytes(0x04,0x08,0x6f,0x3a,0x0d,0x52,0x50,0x47,0x3a,0x3a,0x42,0x47,0x4d,0x08,0x3a,0x0a,0x40,0x6e,0x61,0x6d,0x65,0x49,0x22,0x0a,0x69,0x72,0x69,0x61,0x73,0x06,0x3a,0x06,0x45,0x54,0x3a,0x0c,0x40,0x76,0x6f,0x6c,0x75,0x6d,0x65,0x69,0x5f,0x3a,0x0b,0x40,0x70,0x69,0x74,0x63,0x68,0x69,0x6e))
 PictureDisplay(1,"bg001",0,0,0,0,100,100,255,0)
 222()
 PictureDisplay(5,"80_iriasu_st04",0,0,0,0,100,100,0,0)
 PictureMove(5,null,0,0,0,0,100,100,255,0,30,true)
 ShowMessageFace("iriasu_fc1",3,0,2,95)
 ShowMessage("\\n<Ilias>Losing to a villager... What a miserable Hero.\nDo you really want to be pleasured by monsters that badly?")
 PictureDisplay(5,"80_iriasu_st01",0,0,0,0,100,100,255,0)
 ShowMessageFace("iriasu_fc1",0,0,2,96)
 ShowMessage("\\n<Ilias>The Worm Villager uses a variety of Tentacle skills.\nMoreover, her HP absorption and party-wide Fire attacks are noteworthy.")
 ShowMessageFace("iriasu_fc1",0,0,2,97)
 ShowMessage("\\n<Ilias>Her Fire magic can be sealed with Silence.\nOther status ailments don't work very well.")
 ShowMessageFace("iriasu_fc1",0,0,2,98)
 ShowMessage("\\n<Ilias>Even though she is a former Human, her elemental resistances are the same as other magic creatures.\nStrong against Fire, Ice, and Lightning; weak against Wind, Water and Earth.")
 ShowMessageFace("iriasu_fc1",0,0,2,99)
 ShowMessage("\\n<Ilias>Despite the fact that she is a strong enemy, she always appears alone.\nAttack her weaknesses and make short work of her.")
 PictureDisplay(5,"80_iriasu_st02",0,0,0,0,100,100,255,0)
 ShowMessageFace("iriasu_fc1",1,0,2,100)
 ShowMessage("\\n<Ilias>Now go, oh brave Luka.\nDon't allow any more victims like her to be created.")
 242(1)
 221()
 PictureClear(5)
 PictureClear(1)
 Wait(60)
 0()
IfPlayerPicksChoice(1,null)
 ShowMessageFace("",0,0,2,101)
 ShowMessage("Please choose a difficulty level.")
 RunCommonEvent(110)
 0()
IfPlayerPicksChoice(2,null)
 0()
404()
RunCommonEvent(3000)
0()
