// EVENT 2066
Name "Seduction: Page 65537"

If(0,25,1)
 EndEventProcessing()
 0()
EndIf()
355("$game_troop.lose_event_id = 3066")
ChangeVariable(26,26,0,3,3,1,4)
ChangeVariable(26,26,4,0,10)
ShowMessageFace("page65537_fc1",2,0,2,1)
ShowMessage("\\n<Page 65537>You're quite good... In that case!")
ShowMessageFace("",0,0,2,2)
ShowMessage("Page 65537 starts to concentrate her magical power!")
ChangeSwitch(98,98,0)
ChangeSwitch(96,96,0)
ShowChoices(strings("Be on guard","Attack right away"),1)
IfPlayerPicksChoice(0,"攻撃を控え警戒する")
 ShowMessageFace("",0,0,2,3)
 ShowMessage("\\n<Luka>......")
 ShowMessageFace("page65537_fc1",2,0,2,4)
 ShowMessage("\\n<Page 65537>My eyes shall make you my slave!")
 337(-1,928)
 ShowMessageFace("",0,0,2,5)
 ShowMessage("Page 65537's eyes shine!")
 ShowMessage("But Luka averts his eyes!")
 RunCommonEvent(1999)
 EndEventProcessing()
 0()
IfPlayerPicksChoice(1,"一気に攻撃する")
 ShowMessageFace("",0,0,2,6)
 ShowMessage("\\n<Luka>Now!")
 ShowMessageFace("page65537_fc1",2,0,2,7)
 ShowMessage("\\n<Page 65537>My eyes shall make you my slave!")
 337(-1,928)
 ShowMessageFace("",0,0,2,8)
 ShowMessage("Page 65537's eyes shine!")
 ShowMessage("Luka submits to Page 65537!")
 0()
404()
ShowMessageFace("",0,0,2,9)
ShowMessage("\\n<Luka>Ah, unnngh...")
ShowMessageFace("page65537_fc1",1,0,2,10)
ShowMessage("\\n<Page 65537>Fufu... Now, you can't go against my orders.\nNow, I'll have you humiliated as you lose.")
ShowMessageFace("page65537_fc1",1,0,2,11)
ShowMessage("\\n<Page 65537>Very well... Stroke yourself.")
ShowMessageFace("",0,0,2,12)
ShowMessage("\\n<Luka>Y-Yes...")
ChangeVariable(26,26,3,0,2)
250(bytes(0x04,0x08,0x6f,0x3a,0x0c,0x52,0x50,0x47,0x3a,0x3a,0x53,0x45,0x08,0x3a,0x0a,0x40,0x6e,0x61,0x6d,0x65,0x49,0x22,0x12,0x6d,0x6f,0x6e,0x5f,0x65,0x72,0x6f,0x5f,0x6b,0x6f,0x6b,0x69,0x31,0x06,0x3a,0x06,0x45,0x54,0x3a,0x0b,0x40,0x70,0x69,0x74,0x63,0x68,0x69,0x69,0x3a,0x0c,0x40,0x76,0x6f,0x6c,0x75,0x6d,0x65,0x69,0x69))
311(0,1,1,1,26,true)
ShowMessageFace("",0,0,2,13)
ShowMessage("Luka grabs his penis, and slowly strokes it!\\D")
ShowMessage("Luka takes \\V[26] damage!")
ChangeVariable(27,27,0,3,3,1,2)
If(1,27,0,0,0)
 JumpToLabel("射精1")
 0()
EndIf()
ShowMessageFace("",0,0,2,14)
ShowMessage("\\n<Luka>Unnngh...!")
ShowMessageFace("page65537_fc1",1,0,2,15)
ShowMessage("\\n<Page 65537>Fufu. Is it humiliating?\nBeing forced to masturbate...")
ShowMessageFace("page65537_fc1",1,0,2,16)
ShowMessage("\\n<Page 65537>Come now, don't slow down!")
ShowMessageFace("",0,0,2,17)
ShowMessage("\\n<Luka>Y-Yes...")
250(bytes(0x04,0x08,0x6f,0x3a,0x0c,0x52,0x50,0x47,0x3a,0x3a,0x53,0x45,0x08,0x3a,0x0a,0x40,0x6e,0x61,0x6d,0x65,0x49,0x22,0x12,0x6d,0x6f,0x6e,0x5f,0x65,0x72,0x6f,0x5f,0x6b,0x6f,0x6b,0x69,0x31,0x06,0x3a,0x06,0x45,0x54,0x3a,0x0b,0x40,0x70,0x69,0x74,0x63,0x68,0x69,0x69,0x3a,0x0c,0x40,0x76,0x6f,0x6c,0x75,0x6d,0x65,0x69,0x69))
311(0,1,1,1,26,true)
ShowMessageFace("",0,0,2,18)
ShowMessage("Luka continues to masturbate...\\D")
ShowMessage("Luka takes \\V[26] damage!")
ChangeVariable(27,27,0,3,3,1,2)
If(1,27,0,0,0)
 JumpToLabel("射精1")
 0()
EndIf()
ShowMessageFace("page65537_fc1",1,0,2,19)
ShowMessage("\\n<Page 65537>You've still got more to go.\nPleasure yourself with your own hand.")
ShowMessageFace("",0,0,2,20)
ShowMessage("\\n<Luka>Yes... Unnnhh...")
250(bytes(0x04,0x08,0x6f,0x3a,0x0c,0x52,0x50,0x47,0x3a,0x3a,0x53,0x45,0x08,0x3a,0x0a,0x40,0x6e,0x61,0x6d,0x65,0x49,0x22,0x12,0x6d,0x6f,0x6e,0x5f,0x65,0x72,0x6f,0x5f,0x6b,0x6f,0x6b,0x69,0x31,0x06,0x3a,0x06,0x45,0x54,0x3a,0x0b,0x40,0x70,0x69,0x74,0x63,0x68,0x69,0x69,0x3a,0x0c,0x40,0x76,0x6f,0x6c,0x75,0x6d,0x65,0x69,0x69))
311(0,1,1,1,26,true)
ShowMessageFace("",0,0,2,21)
ShowMessage("Luka continues to masturbate...\\D")
ShowMessage("Luka takes \\V[26] damage!")
ChangeVariable(27,27,0,3,3,1,2)
If(1,27,0,0,0)
 JumpToLabel("射精1")
 0()
EndIf()
ShowMessageFace("",0,0,2,22)
ShowMessage("\\n<Luka>Auuu... Almost...")
ShowMessageFace("page65537_fc1",1,0,2,23)
ShowMessage("\\n<Page 65537>Are you almost finished? Don't let go now.\nContinue pleasuring yourself.")
ShowMessageFace("",0,0,2,24)
ShowMessage("\\n<Luka>Y-Yes... Ahhh...")
250(bytes(0x04,0x08,0x6f,0x3a,0x0c,0x52,0x50,0x47,0x3a,0x3a,0x53,0x45,0x08,0x3a,0x0a,0x40,0x6e,0x61,0x6d,0x65,0x49,0x22,0x12,0x6d,0x6f,0x6e,0x5f,0x65,0x72,0x6f,0x5f,0x6b,0x6f,0x6b,0x69,0x31,0x06,0x3a,0x06,0x45,0x54,0x3a,0x0b,0x40,0x70,0x69,0x74,0x63,0x68,0x69,0x69,0x3a,0x0c,0x40,0x76,0x6f,0x6c,0x75,0x6d,0x65,0x69,0x69))
311(0,1,1,1,26,true)
ShowMessageFace("",0,0,2,25)
ShowMessage("Luka continues to masturbate...\\D")
ShowMessage("Luka takes \\V[26] damage!")
ChangeVariable(27,27,0,3,3,1,2)
If(1,27,0,0,0)
 JumpToLabel("射精1")
 0()
EndIf()
ShowMessageFace("",0,0,2,26)
ShowMessage("\\n<Luka>Unnngh...Coming...!")
ShowMessageFace("page65537_fc1",1,0,2,27)
ShowMessage("\\n<Page 65537>So you're at your end. Finish yourself off.\nSqueeze out your semen with your own hands.")
ShowMessageFace("",0,0,2,28)
ShowMessage("\\n<Luka>Yes...Unnngh...")
250(bytes(0x04,0x08,0x6f,0x3a,0x0c,0x52,0x50,0x47,0x3a,0x3a,0x53,0x45,0x08,0x3a,0x0a,0x40,0x6e,0x61,0x6d,0x65,0x49,0x22,0x12,0x6d,0x6f,0x6e,0x5f,0x65,0x72,0x6f,0x5f,0x6b,0x6f,0x6b,0x69,0x31,0x06,0x3a,0x06,0x45,0x54,0x3a,0x0b,0x40,0x70,0x69,0x74,0x63,0x68,0x69,0x69,0x3a,0x0c,0x40,0x76,0x6f,0x6c,0x75,0x6d,0x65,0x69,0x69))
311(0,1,1,1,26,true)
ShowMessageFace("",0,0,2,29)
ShowMessage("Luka strokes himself faster!\\D")
ShowMessage("Luka takes \\V[26] damage!")
ChangeVariable(27,27,0,3,3,1,2)
If(1,27,0,0,0)
 JumpToLabel("射精1")
 0()
EndIf()
DefineLabel("射精1")
ShowMessageFace("",0,0,2,30)
ShowMessage("\\n<Luka>Oh no, I'm coming... Aaah...")
RunCommonEvent(104)
RunCommonEvent(105)
ShowMessageFace("",0,0,2,31)
ShowMessage("As commanded, I continue stroking myself, until I come.")
ShowMessage("My semen shoots onto Page 65537's skirt, staining it white.")
ShowMessageFace("page65537_fc1",1,0,2,32)
ShowMessage("\\n<Page 65537>How do you feel, having finished yourself off?\nQuite a humiliating finish, wasn't it? Fufufu.")
RunCommonEvent(2000)
EndEventProcessing()
0()
