﻿// EVENT 0552
Name "RC: Frederica"

If(0,2367,1)
 If(1,1099,0,3,0)
  ShowMessageFace("frederika_fc1",0,0,2,1)
  ShowMessage("\\n<Frederica>")
  ShowMessage("クロム、友達少ない……")
  ShowMessage("一緒にごはん食べてあげて……")
  ShowMessageFace("chrom_fc2",5,0,2,2)
  ShowMessage("\\n<Chrome>")
  ShowMessage("少なくないわい！")
  ShowMessage("ゾンビ友達なら、いっぱいいるぞ！")
  0()
 EndIf()
 If(1,1099,0,3,5)
  ShowMessageFace("frederika_fc1",0,0,2,3)
  ShowMessage("\\n<Frederica>")
  ShowMessage("クロム、ここ数日風呂入ってない……")
  ShowMessage("クロムを洗濯したいから、手伝ってほしい……")
  0()
 EndIf()
 DefineLabel("メイン")
 If(1,1099,0,2,2)
  355("ex_choice_add(\"クロムを洗濯する(advances time)\",1,")
  655("\"v[1098] >= 5\",0)")
  655("ex_choice_add(\"Consult regarding the phenomenon\",2,")
  655("\"s[2341]\",0)")
  0()
 EndIf()
 If(1,1099,0,3,0)
  355("ex_choice_add(\"Eat together (advances time)\",1,")
  655("\"v[1098] >= 5\",0)")
  655("ex_choice_add(\"Consult regarding the phenomenon\",2,")
  655("\"s[2341]\",0)")
  0()
 EndIf()
 If(1,1099,0,4,0)
  355("ex_choice_add(\"クロムを洗濯する(advances time)\",1,")
  655("\"v[1098] >= 5\",0)")
  655("ex_choice_add(\"Consult regarding the phenomenon\",2,")
  655("\"s[2341]\",0)")
  0()
 EndIf()
 0()
EndIf()
355("ex_choice_add(\"Ask about any regrets\",3,")
655("\"s[2342]\",0)")
655("ex_choice_add(\"Ask about tools that can loop time\",4,")
655("\"s[2343]\",0)")
655("ex_choice_add(\"Ask about the pizza order\",5,")
655("\"s[2345]\",0)")
355("ex_choice_add(\"Ask about the mysterious makina\",6,")
655("\"s[2365]\",0)")
655("ex_choice_add(\"Ask about items needed for our plan\",7,")
655("\"s[2364]\",0)")
655("ex_choice_add(\"Invite to the tea party\",8,")
655("\"s[2378]\",0)")
655("ex_choice_add(\"Leave\",10)")
355("ex_choice_show(0,11,[0,0])")
If(1,9,0,1,0)
 If(1,1099,0,3,0)
  221()
  205(58,bytes(0x04,0x08,0x6f,0x3a,0x13,0x52,0x50,0x47,0x3a,0x3a,0x4d,0x6f,0x76,0x65,0x52,0x6f,0x75,0x74,0x65,0x09,0x3a,0x0c,0x40,0x72,0x65,0x70,0x65,0x61,0x74,0x46,0x3a,0x0f,0x40,0x73,0x6b,0x69,0x70,0x70,0x61,0x62,0x6c,0x65,0x46,0x3a,0x0a,0x40,0x77,0x61,0x69,0x74,0x54,0x3a,0x0a,0x40,0x6c,0x69,0x73,0x74,0x5b,0x07,0x6f,0x3a,0x15,0x52,0x50,0x47,0x3a,0x3a,0x4d,0x6f,0x76,0x65,0x43,0x6f,0x6d,0x6d,0x61,0x6e,0x64,0x07,0x3a,0x0a,0x40,0x63,0x6f,0x64,0x65,0x69,0x15,0x3a,0x10,0x40,0x70,0x61,0x72,0x61,0x6d,0x65,0x74,0x65,0x72,0x73,0x5b,0x00,0x6f,0x3b,0x0a,0x07,0x3b,0x0b,0x69,0x00,0x3b,0x0c,0x5b,0x00))
  TeleportPlayer(0,78,46,18,8,2)
  222()
  ShowMessageFace("chrom_fc2",1,0,2,4)
  ShowMessage("\\n<Chrome>")
  ShowMessage("仕事の後の食事は、心まで満たされるのう……")
  ShowMessageFace("frederika_fc1",0,0,2,5)
  ShowMessage("\\n<Frederica>")
  ShowMessage("クロム、野菜を食べろ……")
  ShowMessageFace("chrom_fc2",5,0,2,6)
  ShowMessage("\\n<Chrome>")
  ShowMessage("食事中まで、うるさい奴じゃ……")
  ShowMessageFace("frederika_fc1",0,0,2,7)
  ShowMessage("\\n<Frederica>")
  ShowMessage("クロム、風呂入ったか……？")
  ShowMessageFace("chrom_fc2",5,0,2,8)
  ShowMessage("\\n<Chrome>")
  ShowMessage("なぜ今、風呂の話をする！？")
  ShowMessageFace("ruka_fc1",0,0,2,9)
  ShowMessage("\\n<Luka>")
  ShowMessage("仲がいいなぁ……")
  ShowMessageFace("",0,0,2,10)
  ShowMessage("クロム達と食事をして時間を過ごした……")
  RunCommonEvent(540)
  EndEventProcessing()
  0()
 EndIf()
 If(1,1099,0,3,5)
  221()
  205(16,bytes(0x04,0x08,0x6f,0x3a,0x13,0x52,0x50,0x47,0x3a,0x3a,0x4d,0x6f,0x76,0x65,0x52,0x6f,0x75,0x74,0x65,0x09,0x3a,0x0c,0x40,0x72,0x65,0x70,0x65,0x61,0x74,0x46,0x3a,0x0f,0x40,0x73,0x6b,0x69,0x70,0x70,0x61,0x62,0x6c,0x65,0x46,0x3a,0x0a,0x40,0x77,0x61,0x69,0x74,0x54,0x3a,0x0a,0x40,0x6c,0x69,0x73,0x74,0x5b,0x07,0x6f,0x3a,0x15,0x52,0x50,0x47,0x3a,0x3a,0x4d,0x6f,0x76,0x65,0x43,0x6f,0x6d,0x6d,0x61,0x6e,0x64,0x07,0x3a,0x0a,0x40,0x63,0x6f,0x64,0x65,0x69,0x16,0x3a,0x10,0x40,0x70,0x61,0x72,0x61,0x6d,0x65,0x74,0x65,0x72,0x73,0x5b,0x00,0x6f,0x3b,0x0a,0x07,0x3b,0x0b,0x69,0x00,0x3b,0x0c,0x5b,0x00))
  TeleportPlayer(0,92,9,7,6,2)
  222()
  ShowMessageFace("chrom_fc2",5,0,2,11)
  ShowMessage("\\n<Chrome>")
  ShowMessage("むっ？　お前ら、何のつもりじゃ……？")
  ShowMessageFace("frederika_fc1",0,0,2,12)
  ShowMessage("\\n<Frederica>")
  ShowMessage("クロム、洗濯する……")
  ShowMessageFace("chrom_fc1",6,0,2,13)
  ShowMessage("\\n<Chrome>")
  ShowMessage("やめるのじゃー！　うわー！！")
  221()
  ShowMessageFace("",0,0,2,14)
  ShowMessage("強制的にクロムを洗濯した……")
  222()
  ShowMessageFace("chrom_fc1",6,0,2,15)
  ShowMessage("\\n<Chrome>")
  ShowMessage("うっ、うっ……")
  ShowMessage("汚されたのじゃ……")
  ShowMessageFace("frederika_fc1",0,0,2,16)
  ShowMessage("\\n<Frederica>")
  ShowMessage("むしろ清めた……")
  ShowMessageFace("",0,0,2,17)
  ShowMessage("クロムを乾かして、時間を過ごした――")
  If(1,1099,0,4,0)
   RunCommonEvent(5803)
   EndEventProcessing()
   0()
  EndIf()
  RunCommonEvent(540)
  EndEventProcessing()
  0()
 EndIf()
 0()
EndIf()
If(1,9,0,2,0)
 ShowMessageFace("",0,0,2,18)
 ShowMessage("Luka asked for advice regarding the strange phenomenon...")
 ShowMessageFace("frederika_fc1",0,0,2,19)
 ShowMessage("\\n<Frederica>")
 ShowMessage("私では、助けになれない……")
 ShowMessageFace("",0,0,2,20)
 ShowMessage("フレデリカは頼れそうにない……")
 JumpToLabel("メイン")
 0()
EndIf()
If(1,9,0,3,0)
 ShowMessageFace("frederika_fc1",0,0,2,21)
 ShowMessage("\\n<Frederica>")
 ShowMessage("生前の後悔は消えた……")
 ShowMessage("今は、クロムの世話で精一杯……")
 ShowMessageFace("",0,0,2,22)
 ShowMessage("I didn't get any helpful information...")
 JumpToLabel("メイン")
 0()
EndIf()
If(1,9,0,4,0)
 ShowMessageFace("frederika_fc1",0,0,2,23)
 ShowMessage("\\n<Frederica>")
 ShowMessage("知らない……")
 ShowMessageFace("",0,0,2,24)
 ShowMessage("I didn't get any helpful information...")
 JumpToLabel("メイン")
 0()
EndIf()
If(1,9,0,5,0)
 ShowMessageFace("frederika_fc1",0,0,2,25)
 ShowMessage("\\n<Frederica>")
 ShowMessage("私じゃない……")
 ShowMessageFace("",0,0,2,26)
 ShowMessage("It doesn't look like Frederica ordered the pizza...")
 JumpToLabel("メイン")
 0()
EndIf()
If(1,9,0,6,0)
 ShowMessageFace("frederika_fc1",0,0,2,27)
 ShowMessage("\\n<Frederica>")
 ShowMessage("マキナが詳しいように見えるか……？")
 ShowMessageFace("",0,0,2,28)
 ShowMessage("I didn't get any helpful information...")
 JumpToLabel("メイン")
 0()
EndIf()
If(1,9,0,7,0)
 ShowMessageFace("frederika_fc1",0,0,2,29)
 ShowMessage("\\n<Frederica>")
 ShowMessage("ゾンビだから、ボロきれしか持っていない……")
 ShowMessageFace("",0,0,2,30)
 ShowMessage("I didn't get any helpful items...")
 JumpToLabel("メイン")
 0()
EndIf()
If(1,9,0,8,0)
 ShowMessageFace("frederika_fc1",0,0,2,31)
 ShowMessage("\\n<Frederica>")
 ShowMessage("私ではなく、クロムを誘え……")
 ShowMessageFace("",0,0,2,32)
 ShowMessage("Frederica declined the invitation to the tea party...")
 JumpToLabel("メイン")
 0()
EndIf()
EndEventProcessing()
0()
