﻿// EVENT 0506
Name "Collab Chapter 2:妖狐仲間に"

217()
PictureDisplay(5,"80_youkosan_st01",0,0,-200,0,100,100,0,0)
PictureDisplay(6,"80_youkosan_st01",0,0,0,0,100,100,0,0)
PictureDisplay(7,"80_youkosan_st01",0,0,200,0,100,100,0,0)
PictureMove(5,null,0,0,-200,0,100,100,255,0,30,false)
PictureMove(6,null,0,0,0,0,100,100,255,0,30,false)
PictureMove(7,null,0,0,200,0,100,100,255,0,30,true)
ShowMessageFace("youkosan_fc1",2,0,2,1)
ShowMessage("\\n<Drunk Fox>We were recruited by Myusca...\nBut honestly, going this far is disgusting.")
ShowMessageFace("youkosan_fc1",2,0,2,2)
ShowMessage("\\n<Drinking Fox>She said we could attack men all we wanted and drink sake as much as we wanted.\nBut she never said anything about doing such horrible things.")
ShowMessageFace("youkosan_fc1",2,0,2,3)
ShowMessage("\\n<Dream Fox>We are drunkards, yeah. We are Youkai weak to our lust and desires...\nBut still, we would never take a life.")
ShowMessageFace("byakunen_fc1",0,0,2,4)
ShowMessage("\\n<Hakunen>That's right... You like playing pranks, but you're not bad Youkai.")
ShowMessageFace("youkosan_fc1",2,0,2,5)
ShowMessage("\\n<Drunk Fox>To think it would turn out like this...\nWe're a bit bewildered by the magnitude of the situation.")
ShowMessageFace("youkosan_fc1",0,0,2,6)
ShowMessage("\\n<Drinking Fox>So we won't attack you anymore.\nAnd we'll stop helping Myusca!")
ShowMessageFace("youkosan_fc1",0,0,2,7)
ShowMessage("\\n<Dream Fox>Let us know if you have any problems.\nIf there's anything we can do, we will help you.")
ShowMessageFace("kazuya_fc2",0,0,2,8)
ShowMessage("\\n<Kazuya>The problem is that we don't have enough fighting power.\nWill you become our comrades and join us?")
ShowMessageFace("youkosan_fc1",3,0,2,9)
ShowMessage("\\n<Drunk Fox>W-Well, that's a little...")
ShowMessageFace("youkosan_fc1",3,0,2,10)
ShowMessage("\\n<Drinking Fox>The probability we'll have to fight Myusca is high...\nI'd rather not do that...")
ShowMessageFace("youkosan_fc1",2,0,2,11)
ShowMessage("\\n<Dream Fox>...")
ShowMessageFace("youkosan_fc1",1,0,2,12)
ShowMessage("\\n<Dream Fox>...Understood!\nI'll go with you!")
ShowMessageFace("youkosan_fc1",0,0,2,13)
ShowMessage("\\n<Drunk Fox>As expected of Dream Fox, the most reckless fox among our people!")
ShowMessageFace("youkosan_fc1",0,0,2,14)
ShowMessage("\\n<Drinking Fox>Once again, you're going to build another legend!?")
ShowMessageFace("youkosan_fc1",1,0,2,15)
ShowMessage("\\n<Dream Fox>I'm going to show you what a fox is capable of...!")
ShowMessageFace("kazuya_fc4",7,0,2,16)
ShowMessage("\\n<Kazuya>Those three are getting incredibly excited somehow...\nThis tension is not my cup of tea, after all...")
ShowMessageFace("byakunen_fc1",2,0,2,17)
ShowMessage("\\n<Hakunen>Are you sure about that?\nI think it's going to be pretty dangerous...")
ShowMessageFace("youkosan_fc1",0,0,2,18)
ShowMessage("\\n<Dream Fox>Hey, Hakunen...\nWe played tag once, you know.")
ShowMessageFace("byakunen_fc1",2,0,2,19)
ShowMessage("\\n<Hakunen>Is that so...\nSorry, I couldn't distinguish the faces at the time...")
ShowMessageFace("youkosan_fc1",0,0,2,20)
ShowMessage("\\n<Dream Fox>I've heard a lot of rumors about you...\nI thought it would be a great opportunity to go on an adventure with you.")
ShowMessageFace("kazuya_fc2",1,0,2,21)
ShowMessage("\\n<Kazuya>...Thank you, you'll be of great help.\nIt's all thanks to your virtue of character, Hakunen.")
ShowMessageFace("byakunen_fc1",1,0,2,22)
ShowMessage("\\n<Hakunen>N-No...\nSomeone like me still has a long way to go...")
ShowMessageFace("youkosan_fc1",1,0,2,23)
ShowMessage("\\n<Dream Fox>Well then... Please take care of me♪")
PictureClear(5)
PictureClear(6)
PictureClear(7)
205(185,bytes(0x04,0x08,0x6f,0x3a,0x13,0x52,0x50,0x47,0x3a,0x3a,0x4d,0x6f,0x76,0x65,0x52,0x6f,0x75,0x74,0x65,0x09,0x3a,0x0c,0x40,0x72,0x65,0x70,0x65,0x61,0x74,0x46,0x3a,0x0f,0x40,0x73,0x6b,0x69,0x70,0x70,0x61,0x62,0x6c,0x65,0x46,0x3a,0x0a,0x40,0x77,0x61,0x69,0x74,0x54,0x3a,0x0a,0x40,0x6c,0x69,0x73,0x74,0x5b,0x09,0x6f,0x3a,0x15,0x52,0x50,0x47,0x3a,0x3a,0x4d,0x6f,0x76,0x65,0x43,0x6f,0x6d,0x6d,0x61,0x6e,0x64,0x07,0x3a,0x0a,0x40,0x63,0x6f,0x64,0x65,0x69,0x2a,0x3a,0x10,0x40,0x70,0x61,0x72,0x61,0x6d,0x65,0x74,0x65,0x72,0x73,0x5b,0x00,0x6f,0x3b,0x0a,0x07,0x3b,0x0b,0x69,0x0f,0x3b,0x0c,0x5b,0x00,0x6f,0x3b,0x0a,0x07,0x3b,0x0b,0x69,0x2c,0x3b,0x0c,0x5b,0x00,0x6f,0x3b,0x0a,0x07,0x3b,0x0b,0x69,0x00,0x3b,0x0c,0x5b,0x00))
355("add_temp_actors(813)")
249(bytes(0x04,0x08,0x6f,0x3a,0x0c,0x52,0x50,0x47,0x3a,0x3a,0x4d,0x45,0x08,0x3a,0x0a,0x40,0x6e,0x61,0x6d,0x65,0x49,0x22,0x0c,0x66,0x61,0x6e,0x66,0x61,0x6c,0x65,0x06,0x3a,0x06,0x45,0x54,0x3a,0x0b,0x40,0x70,0x69,0x74,0x63,0x68,0x69,0x69,0x3a,0x0c,0x40,0x76,0x6f,0x6c,0x75,0x6d,0x65,0x69,0x69))
ShowMessageFace("",0,0,2,24)
ShowMessage("Dream Fox has joined the party!")
Wait(60)
ShowMessageFace("lanpass_fc2",0,0,2,25)
ShowMessage("\\n<Lampas>I'm glad to have more companions♪")
ShowMessageFace("kazuya_fc2",2,0,2,26)
ShowMessage("\\n<Kazuya>Now we're four...\nThe biggest challenge will be Myusca, after all...")
ShowMessageFace("",0,0,2,27)
ShowMessage("Myusca is extraordinary as a demon, both in strength and greed.\nIt might not be nice to say, but she isn't someone we can beat just because we've got one more member.")
ShowMessageFace("byakunen_fc1",2,0,2,28)
ShowMessage("\\n<Hakunen>Is escaping outside without being noticed the only way, after all?")
ShowMessageFace("kazuya_fc2",0,0,2,29)
ShowMessage("\\n<Kazuya>Indeed, it's the best thing to do...\nBut it may be difficult depending on the situation...")
ShowMessageFace("",0,0,2,30)
ShowMessage("Myusca has no intention of letting us escape.\nI can tell from her words.")
ShowMessageFace("byakunen_fc1",0,0,2,31)
ShowMessage("\\n<Hakunen>Um, before we leave...\nI would like to pray for the deceased over there.")
ShowMessageFace("kazuya_fc2",0,0,2,32)
ShowMessage("\\n<Kazuya>Yeah, we can't just leave the bodies like that.\nI'll help.")
221()
ShowMessageFace("",0,0,2,33)
ShowMessage("Although it couldn't be helped because there was nothing we could have done against a monster like that...\nIt weighs heavily on my heart that I couldn't help those people even though they were in front of me.")
ShowMessageFace("",0,0,2,34)
ShowMessage("Unless we get out of here, we can't bury them...\nAt the very least, I'll do what I can to help.")
ChangeVariable(1202,1202,0,0,26)
TeleportPlayer(0,858,13,181,8,2)
222()
ShowMessageFace("",0,0,2,35)
ShowMessage("We carried the bodies to the beds and covered them with the sheets.\nThat's all we could do.")
ShowMessageFace("kazuya_fc2",0,0,2,36)
ShowMessage("\\n<Kazuya>Let's go.\nWe'll join forces and get out of here alive.")
ShowMessageFace("byakunen_fc1",0,0,2,37)
ShowMessage("\\n<Hakunen>Yes... I will accompany you!")
ShowMessageFace("youkosan_fc1",0,0,2,38)
ShowMessage("\\n<Dream Fox>I'll do my best as well♪")
ShowMessageFace("lanpass_fc2",0,0,2,39)
ShowMessage("\\n<Lampas>Wanna lick my drops to cheer you up?")
ShowMessageFace("",0,0,2,40)
ShowMessage("The exit is not far away...\nI can feel it.")
ShowMessageFace("",0,0,2,41)
ShowMessage("We're almost there.\nBut the wall separating us from it seem large.")
314(0,0)
EndEventProcessing()
0()
