// EVENT 4281
Name "Mini Crab Girl"

If(0,25,1)
 221()
 PictureClear(5)
 PictureClear(6)
 ShowMessageFace("",0,0,2,0)
 ShowMessage("......")
 242(2)
 Wait(120)
 241(bytes(0x04,0x08,0x6f,0x3a,0x0d,0x52,0x50,0x47,0x3a,0x3a,0x42,0x47,0x4d,0x08,0x3a,0x0a,0x40,0x6e,0x61,0x6d,0x65,0x49,0x22,0x0c,0x63,0x61,0x73,0x74,0x6c,0x65,0x36,0x06,0x3a,0x06,0x45,0x54,0x3a,0x0c,0x40,0x76,0x6f,0x6c,0x75,0x6d,0x65,0x69,0x69,0x3a,0x0b,0x40,0x70,0x69,0x74,0x63,0x68,0x69,0x69))
 EndEventProcessing()
 0()
EndIf()
PictureDisplay(5,"80_minikani_st01",0,0,0,0,100,100,255,0)
ShowMessageFace("minikani_fc1",0,0,2,1)
ShowMessage("\\n<Amy>Eh? You want me to wash your penis?")
ShowMessageFace("",0,0,2,2)
ShowMessage("\\n<Luka>P-please...")
ShowMessageFace("minikani_fc1",0,0,2,3)
ShowMessage("\\n<Amy>Ehehe, Well then...")
ShowMessageFace("",0,0,2,4)
ShowMessage("Amy forces open my legs with her claws.")
ShowMessage("I'm bound with my legs spread wide.")
ShowMessageFace("",0,0,2,5)
ShowMessage("Bubbles start to foam out from Amy's body.")
ShowMessage("Scooping up the bubbles, she smiles.")
PictureDisplay(5,"80_minikani_st02",0,0,0,0,100,100,255,0)
ShowMessageFace("minikani_fc1",1,0,2,6)
ShowMessage("\\n<Amy>I'll wash you clean, then.\nIt feels really good, but you have to endure it~♪")
ShowMessageFace("",0,0,2,7)
ShowMessage("Amy's hands, full of bubbles, reach out to my penis.")
ShowMessage("I can only look on with a feeling of expectation...")
ShowMessageFace("",0,0,2,8)
ShowMessage("\\n<Luka>Ah, aaah...")
241(bytes(0x04,0x08,0x6f,0x3a,0x0d,0x52,0x50,0x47,0x3a,0x3a,0x42,0x47,0x4d,0x08,0x3a,0x0a,0x40,0x6e,0x61,0x6d,0x65,0x49,0x22,0x09,0x65,0x72,0x6f,0x31,0x06,0x3a,0x06,0x45,0x54,0x3a,0x0c,0x40,0x76,0x6f,0x6c,0x75,0x6d,0x65,0x69,0x69,0x3a,0x0b,0x40,0x70,0x69,0x74,0x63,0x68,0x69,0x69))
245(bytes(0x04,0x08,0x6f,0x3a,0x0d,0x52,0x50,0x47,0x3a,0x3a,0x42,0x47,0x53,0x08,0x3a,0x0a,0x40,0x6e,0x61,0x6d,0x65,0x49,0x22,0x15,0x6d,0x6f,0x6e,0x5f,0x68,0x73,0x65,0x61,0x6e,0x32,0x33,0x5f,0x77,0x61,0x73,0x68,0x06,0x3a,0x06,0x45,0x54,0x3a,0x0c,0x40,0x76,0x6f,0x6c,0x75,0x6d,0x65,0x69,0x55,0x3a,0x0b,0x40,0x70,0x69,0x74,0x63,0x68,0x69,0x69))
PictureDisplay(5,"ev_minikani_h1",0,0,0,0,100,100,0,0)
PictureMove(5,null,0,0,0,0,100,100,255,0,30,true)
ShowMessageFace("",0,0,2,9)
ShowMessage("Her foam covered hand grabs hold of my penis.")
ShowMessage("Her right hand grabs my glans, as her left holds my shaft.")
ShowMessageFace("",0,0,2,10)
ShowMessage("I feel the strange feeling of the bubbles...")
ShowMessage("Even just being held, I can't hold back a sigh.")
ShowMessageFace("minikani_fc1",1,0,2,11)
ShowMessage("\\n<Amy>Every man comes as I wash their penis.\nI wonder how long you'll last~?")
ShowMessageFace("minikani_fc1",1,0,2,12)
ShowMessage("\\n<Amy>I think you'll come super fast myself.\nEven though I haven't started yet, you already look like you're in bliss♪")
ShowMessageFace("",0,0,2,13)
ShowMessage("\\n<Luka>N...no way... Nnngh...")
ShowMessageFace("minikani_fc1",1,0,2,14)
ShowMessage("\\n<Amy>Now to start washing it~♪")
ShowMessageFace("",0,0,2,15)
ShowMessage("Both of Amy's hands start to move.")
ShowMessage("The sweet washing motions, with her hands filled with foaming bubbles.")
ShowMessageFace("",0,0,2,16)
ShowMessage("Her left hand slowly moves up and down my shaft.")
ShowMessage("The slimy-feeling bubbles are rubbed into it.")
ShowMessageFace("",0,0,2,17)
ShowMessage("Her right hand is wrapped around my glans.")
ShowMessage("Rubbing the bubbles into my glans, she moves her hand in a turning motion.")
ShowMessageFace("",0,0,2,18)
ShowMessage("\\n<Luka>Ah... Ooooh...!")
ShowMessageFace("minikani_fc1",1,0,2,19)
ShowMessage("\\n<Amy>Ahaha, are you already moaning?\nYou'll definitely come soon, then♪")
ShowMessageFace("",0,0,2,20)
ShowMessage("While giggling, Amy's hands continue to rub me.")
ShowMessage("Her sweet hand movements feel too good...")
ShowMessageFace("",0,0,2,21)
ShowMessage("Her left hand continues stroking my shaft.")
ShowMessage("Sometimes her fingers even trail around underneath the neck of my penis.")
ShowMessageFace("",0,0,2,22)
ShowMessage("Her right hand continues rubbing my glans at the same time.")
ShowMessage("Covered with bubbles, each turn brings about a jerk of my waist.")
ShowMessageFace("",0,0,2,23)
ShowMessage("\\n<Luka>Th-that feels good...Nnngh...")
ShowMessageFace("",0,0,2,24)
ShowMessage("Feeling too much pleasure, more and more energy drains from me.")
ShowMessage("Amy's penis-washing is almost like washing away my heart itself...")
ShowMessageFace("minikani_fc1",1,0,2,25)
ShowMessage("\\n<Amy>I can see you losing your strength...\nI'm still in the middle of washing, but are you already going to go pew pew?")
ShowMessageFace("minikani_fc1",1,0,2,26)
ShowMessage("\\n<Amy>You're a boy, so you need to endure a bit longer♪\nHora, hora, hooora...♪")
ShowMessageFace("",0,0,2,27)
ShowMessage("Her right hand massages my glans.")
ShowMessage("It's enough to force any man to come at once...")
ShowMessageFace("",0,0,2,28)
ShowMessage("Strength fades from my waist as a sweet feeling fills me.")
ShowMessage("A white ache runs through my body as I relax.")
ShowMessageFace("",0,0,2,29)
ShowMessage("\\n<Luka>Ah, aaah...Oh no, I'm coming...")
ShowMessageFace("minikani_fc1",1,0,2,30)
ShowMessage("\\n<Amy>Aree? Already?\nAre you going to pee all over my hands~?")
ShowMessageFace("",0,0,2,31)
ShowMessage("Amy looks at me, desperate to hold back, and giggles.")
ShowMessage("Despite saying that, she's obviously trying to force me to come...")
ShowMessageFace("minikani_fc1",1,0,2,32)
ShowMessage("\\n<Amy>Hooora, come~♪")
ShowMessageFace("",0,0,2,33)
ShowMessage("\\n<Luka>Ah, aaaah...!!")
ShowMessageFace("",0,0,2,34)
ShowMessage("Her right hand squeezes my glans.")
ShowMessage("It's enough to send me instantly over the edge.")
RunCommonEvent(104)
PictureDisplay(5,"ev_minikani_h2",0,0,0,0,100,100,255,0)
RunCommonEvent(105)
ShowMessageFace("",0,0,2,35)
ShowMessage("\\n<Luka>Nnngh...")
ShowMessageFace("",0,0,2,36)
ShowMessage("Covered in bubbles, my semen fires straight into the air.")
ShowMessage("I've totally surrendered to Amy's hands...")
ShowMessageFace("",0,0,2,37)
ShowMessage("I came as she was washing my penis...")
ShowMessage("I feel ashamed of myself as a man.")
PictureDisplay(5,"ev_minikani_h3",0,0,0,0,100,100,255,0)
ShowMessageFace("minikani_fc1",1,0,2,38)
ShowMessage("\\n<Amy>Awww, you came so quickly...\nYou're a pretty quick shot~♪")
ShowMessageFace("minikani_fc1",1,0,2,39)
ShowMessage("\\n<Amy>I can't properly wash a penis that comes this quickly.\nI'll need to give this leaking penis some training~♪")
ShowMessageFace("",0,0,2,40)
ShowMessage("\\n<Luka>N...no way... Aaaah...!!")
ShowMessageFace("",0,0,2,41)
ShowMessage("Amy starts to wash my penis again.")
ShowMessage("But it's even more aggressive than it was before.")
ShowMessageFace("",0,0,2,42)
ShowMessage("She thoroughly rubs my glans, back muscle and all over my tip.")
ShowMessage("Every sensitive part is covered in bubbles and scrubbed.")
ShowMessageFace("",0,0,2,43)
ShowMessage("Her bubbly fingers trace around the neck of my penis.")
ShowMessage("My body trembles against my will as she attacks me.")
ShowMessageFace("",0,0,2,44)
ShowMessage("\\n<Luka>Nnngh... Aaaah...!!")
ShowMessageFace("minikani_fc1",1,0,2,45)
ShowMessage("\\n<Amy>Since you come so fast, you're going to come again, aren't you?\nI'll make you come again with this glans torture~♪")
ShowMessageFace("",0,0,2,46)
ShowMessage("A ring of her thumb and index finger strokes my glans up and down.")
ShowMessage("With the added feeling of her bubbles, it's too much to take.")
ShowMessageFace("",0,0,2,47)
ShowMessage("\\n<Luka>Ah, aaaah...!!")
RunCommonEvent(104)
PictureDisplay(5,"ev_minikani_h4",0,0,0,0,100,100,255,0)
RunCommonEvent(105)
ShowMessageFace("",0,0,2,48)
ShowMessage("I'm lead to another fast ejaculation.")
ShowMessage("My semen shoots out, covering Amy's hands and bubbles.")
ShowMessageFace("minikani_fc1",1,0,2,49)
ShowMessage("\\n<Amy>Aha, you came again...♪\nThis leaking penis needs more scrubbing~♪")
ShowMessageFace("",0,0,2,50)
ShowMessage("\\n<Luka>Aiyee...! Ah, aaaaaah!!")
ShowMessageFace("",0,0,2,51)
ShowMessage("Even though my ejaculation isn't over yet...")
ShowMessage("Amy continues to scrub me!")
ShowMessageFace("",0,0,2,52)
ShowMessage("My glans is kneaded with her bubbles.")
ShowMessage("The washing pleasure is absolutely grueling.")
ShowMessageFace("",0,0,2,53)
ShowMessage("My penis almost twitches in fear as her skilled hands massage it.")
ShowMessage("It's an abuse of pleasure to a man as he ejaculates...")
ShowMessageFace("minikani_fc1",1,0,2,54)
ShowMessage("\\n<Amy>It feels incredible when someone does this as you come, right?\nI won't hold back~♪ Scrub scrub~♪")
ShowMessageFace("",0,0,2,55)
ShowMessage("\\n<Luka>S-Stop... Hyaaa!!")
RunCommonEvent(104)
RunCommonEvent(105)
ShowMessageFace("",0,0,2,56)
ShowMessage("More semen erupts from my penis as she scrubs it.")
ShowMessage("Due to the forced ejaculation, the rhythm of its pulsing is completely out of synch.")
ShowMessageFace("",0,0,2,57)
ShowMessage("\\n<Luka>Hyaah! Aaaaaah!!")
ShowMessageFace("",0,0,2,58)
ShowMessage("My body jumps and writhes in crazed pleasure.")
ShowMessage("But with my lower body bound, this washing hell only continues.")
ShowMessageFace("",0,0,2,59)
ShowMessage("My glans is scrubbed with her bubble-covered hand.")
ShowMessage("Even if I ejaculate, this forced pleasure won't end...")
ShowMessageFace("",0,0,2,60)
ShowMessage("\\n<Luka>Stop, stop...!\nAh, aaaaaah!!")
ShowMessageFace("minikani_fc1",1,0,2,61)
ShowMessage("\\n<Amy>Ahaha, I won't stop even if you cry~♪\nHoora, let's see you come again~♪")
RunCommonEvent(104)
RunCommonEvent(105)
ShowMessageFace("",0,0,2,62)
ShowMessage("The abuse of my penis continues even during this ejaculation.")
ShowMessage("The forced washing doesn't slow down, even as my penis is pulsing in her hands.")
ShowMessageFace("",0,0,2,63)
ShowMessage("\\n<Luka>No, stop already...! Hyaaa...!!")
ShowMessageFace("",0,0,2,64)
ShowMessage("Screaming, my semen shoots out as I writhe.")
ShowMessage("But holding me down, Amy only giggles.")
ShowMessageFace("minikani_fc1",1,0,2,65)
ShowMessage("\\n<Amy>Ahaha, what a weak penis♪\nHow many times are you going to come before this washing is over...?")
ShowMessageFace("minikani_fc1",1,0,2,66)
ShowMessage("\\n<Amy>You know you won't get me pregnant by coming all over my bubbles, right?\nBut with your body trying so hard, I feel kind of sorry for your sperm...♪")
ShowMessageFace("",0,0,2,67)
ShowMessage("\\n<Luka>Aiyeee...! Aaaah...!!")
ShowMessageFace("",0,0,2,68)
ShowMessage("She continues massaging my pulsing penis...")
ShowMessage("Her bubble covered fingers carefully toy with me...")
RunCommonEvent(104)
RunCommonEvent(105)
ShowMessageFace("",0,0,2,69)
ShowMessage("\\n<Luka>Hyaaa...! Aaaaaah!!")
ShowMessageFace("",0,0,2,70)
ShowMessage("I come on her hands yet again.")
ShowMessage("Every sensitive spot is rubbed and scrubbed...")
246(2)
RunCommonEvent(104)
RunCommonEvent(105)
ShowMessageFace("",0,0,2,71)
ShowMessage("\\n<Luka>Ah... Aaah...")
ShowMessageFace("",0,0,2,72)
ShowMessage("By the time she stops washing me, I'm left empty of strength and semen.")
ShowMessage("Left so weak, my body can barely manage to tremble.")
PictureDisplay(5,"ev_minikani_h3",0,0,0,0,100,100,255,0)
ShowMessageFace("minikani_fc1",1,0,2,73)
ShowMessage("\\n<Amy>I'm finished washing at last...♪")
ShowMessageFace("minikani_fc1",1,0,2,74)
ShowMessage("\\n<Amy>Hey, how many times did you come...?\nI stopped counting halfway through...")
ShowMessageFace("",0,0,2,75)
ShowMessage("Showing off the mix of bubbles and semen, Amy laughs.")
ShowMessage("I was squeezed dry by those hands...")
ShowMessageFace("minikani_fc1",1,0,2,76)
ShowMessage("\\n<Amy>I'll gladly wash your penis clean whenever you want.\nTry to endure longer, next time...♪")
ShowMessageFace("",0,0,2,77)
ShowMessage("\\n<Luka>......")
ShowMessageFace("",0,0,2,78)
ShowMessage("Unable to reply, I feel myself going unconscious.")
ShowMessage("The repeated forced ejaculations were too harsh on my body...")
221()
PictureClear(5)
ShowMessageFace("",0,0,2,79)
ShowMessage("......")
242(2)
Wait(120)
241(bytes(0x04,0x08,0x6f,0x3a,0x0d,0x52,0x50,0x47,0x3a,0x3a,0x42,0x47,0x4d,0x08,0x3a,0x0a,0x40,0x6e,0x61,0x6d,0x65,0x49,0x22,0x0c,0x63,0x61,0x73,0x74,0x6c,0x65,0x36,0x06,0x3a,0x06,0x45,0x54,0x3a,0x0c,0x40,0x76,0x6f,0x6c,0x75,0x6d,0x65,0x69,0x69,0x3a,0x0b,0x40,0x70,0x69,0x74,0x63,0x68,0x69,0x69))
0()
