﻿// EVENT 3188
Name "Nekomata"

PictureDisplay(5,"80_nekomata_st02",0,0,0,0,100,100,0,0)
PictureMove(5,null,0,0,0,0,100,100,255,0,30,true)
241(bytes(0x04,0x08,0x6f,0x3a,0x0d,0x52,0x50,0x47,0x3a,0x3a,0x42,0x47,0x4d,0x08,0x3a,0x0a,0x40,0x6e,0x61,0x6d,0x65,0x49,0x22,0x09,0x65,0x72,0x6f,0x31,0x06,0x3a,0x06,0x45,0x54,0x3a,0x0c,0x40,0x76,0x6f,0x6c,0x75,0x6d,0x65,0x69,0x69,0x3a,0x0b,0x40,0x70,0x69,0x74,0x63,0x68,0x69,0x69))
ShowMessageFace("",0,0,2,1)
ShowMessage("\\n<Luka>Nngh...")
ShowMessageFace("nekomata_fc1",3,0,2,2)
ShowMessage("\\n<Nekomata>Unya! ♪")
PictureDisplay(5,"ev_nekomata_h1",0,0,0,0,100,100,255,0)
ShowMessageFace("",0,0,2,3)
ShowMessage("The Nekomata climbs on top of my exhausted body.")
ShowMessageFace("",0,0,2,4)
ShowMessage("Her bushy hair rubs against me, slightly tickling me.\nJust the sensation of her hair against my skin feels too good to resist.")
ShowMessageFace("",0,0,2,5)
ShowMessage("\\n<Luka>Wh...what are you doing?!")
ShowMessageFace("nekomata_fc1",3,0,2,6)
ShowMessage("\\n<Nekomata>Funya! ♪")
ShowMessageFace("",0,0,2,7)
ShowMessage("The Nekomata lets out a sweet mew, her face flushed deep red. It seems like she's in heat...")
ShowMessageFace("",0,0,2,8)
ShowMessage("Wait! She can't be...trying to make me get her pregnant?!")
ShowMessageFace("",0,0,2,9)
ShowMessage("\\n<Luka>N...no! Wait!")
ShowMessageFace("",0,0,2,10)
ShowMessage("But the Nekomata drops her hips down at once.")
245(bytes(0x04,0x08,0x6f,0x3a,0x0d,0x52,0x50,0x47,0x3a,0x3a,0x42,0x47,0x53,0x08,0x3a,0x0a,0x40,0x6e,0x61,0x6d,0x65,0x49,0x22,0x1e,0x6d,0x6f,0x6e,0x5f,0x68,0x73,0x65,0x61,0x6e,0x30,0x31,0x5f,0x69,0x6e,0x6e,0x65,0x72,0x77,0x6f,0x72,0x6b,0x73,0x5f,0x61,0x31,0x06,0x3a,0x06,0x45,0x54,0x3a,0x0c,0x40,0x76,0x6f,0x6c,0x75,0x6d,0x65,0x69,0x55,0x3a,0x0b,0x40,0x70,0x69,0x74,0x63,0x68,0x69,0x69))
PictureDisplay(5,"ev_nekomata_h2",0,0,0,0,100,100,255,0)
ShowMessageFace("",0,0,2,11)
ShowMessage("And quickly swallows my thing into her.")
ShowMessageFace("",0,0,2,12)
ShowMessage("\\n<Luka>Ahhhh!")
ShowMessageFace("",0,0,2,13)
ShowMessage("I'm forced into her hot pussy, with the rough vagina walls filling me with a sweet friction.")
ShowMessageFace("",0,0,2,14)
ShowMessage("But more than anything, I can feel the small bumps lining her pussy. The closer I get to her womb, the more bumps there are.")
ShowMessageFace("",0,0,2,15)
ShowMessage("Surprised at the bizarre sensation, I let out a cry.")
ShowMessageFace("",0,0,2,16)
ShowMessage("\\n<Luka>Ahh... I...incredible...")
ShowMessageFace("nekomata_fc1",3,0,2,17)
ShowMessage("\\n<Nekomata>Unya! ♪")
ShowMessageFace("",0,0,2,18)
ShowMessage("With a happy cry, the Nekomata starts to slowly move her hips.")
ShowMessageFace("",0,0,2,19)
ShowMessage("Left to right, she slowly moves her body, causing the bumps to rub all over my penis. Pleasure rushes through my body, bringing me to a pathetically quick orgasm.")
ShowMessageFace("",0,0,2,20)
ShowMessage("\\n<Luka>Ah... I'm coming...!")
ShowMessageFace("nekomata_fc1",3,0,2,21)
ShowMessage("\\n<Nekomata>Funya?!")
RunCommonEvent(104)
PictureDisplay(5,"ev_nekomata_h3",0,0,0,0,100,100,255,0)
RunCommonEvent(105)
ShowMessageFace("",0,0,2,22)
ShowMessage("\\n<Luka>Ahh... I came...")
ShowMessageFace("",0,0,2,23)
ShowMessage("After only a few moments, I was forced to come inside her... Horrified at already potentially impregnating her, my body starts to shake.")
ShowMessageFace("",0,0,2,24)
ShowMessage("But the Nekomata looks unsatisfied, and quickly resumes her movements,  desiring to continue mating.")
ShowMessageFace("nekomata_fc1",3,0,2,25)
ShowMessage("\\n<Nekomata>Unyaaa...")
PictureDisplay(5,"ev_nekomata_h4",0,0,0,0,100,100,255,0)
ShowMessageFace("",0,0,2,26)
ShowMessage("The Nekomata tightens her pussy around my penis, as if locking me in place inside her.")
ShowMessageFace("",0,0,2,27)
ShowMessage("\\n<Luka>What is this...?! Ahh!")
245(bytes(0x04,0x08,0x6f,0x3a,0x0d,0x52,0x50,0x47,0x3a,0x3a,0x42,0x47,0x53,0x08,0x3a,0x0a,0x40,0x6e,0x61,0x6d,0x65,0x49,0x22,0x1e,0x6d,0x6f,0x6e,0x5f,0x68,0x73,0x65,0x61,0x6e,0x30,0x38,0x5f,0x69,0x6e,0x6e,0x65,0x72,0x77,0x6f,0x72,0x6b,0x73,0x5f,0x61,0x38,0x06,0x3a,0x06,0x45,0x54,0x3a,0x0c,0x40,0x76,0x6f,0x6c,0x75,0x6d,0x65,0x69,0x55,0x3a,0x0b,0x40,0x70,0x69,0x74,0x63,0x68,0x69,0x69))
ShowMessageFace("",0,0,2,28)
ShowMessage("Suddenly I feel something start to move inside of her.\nA rough, wet thing starts to move up and down my penis.")
ShowMessageFace("",0,0,2,29)
ShowMessage("The slippery sensation caresses my penis.\nIt's as if it was her tongue...")
ShowMessageFace("nekomata_fc1",3,0,2,30)
ShowMessage("\\n<Nekomata>Unya...♪")
ShowMessageFace("",0,0,2,31)
ShowMessage("\\n<Luka>Ah! Ahhh!")
ShowMessageFace("",0,0,2,32)
ShowMessage("Locked in place by the soft bumps clamping down on my penis, I wriggle underneath the Nekomata as the rough tongue licks every inch of my penis inside her.")
ShowMessageFace("",0,0,2,33)
ShowMessage("The tongue starts to circle the tip of my penis, then starts to gently poke at the urethral opening.")
ShowMessageFace("",0,0,2,34)
ShowMessage("As she licks on my urethral opening, her rough tongue also glides all over my glans...")
ShowMessageFace("",0,0,2,35)
ShowMessage("I tremble in pleasure-filled agony as the bizarre tongue-like thing pokes at my most sensitive spot.")
ShowMessageFace("",0,0,2,36)
ShowMessage("\\n<Luka>Ahh! D...don't lick the tip...!")
ShowMessageFace("nekomata_fc1",3,0,2,37)
ShowMessage("\\n<Nekomata>Unya...♪")
ShowMessageFace("",0,0,2,38)
ShowMessage("The Nekomata smiles, clearly having fun toying with me.")
ShowMessageFace("",0,0,2,39)
ShowMessage("Her rough tongue continues to lick my penis, tasting every inch of me inside her. Licking and licking my entire penis...")
ShowMessageFace("",0,0,2,40)
ShowMessage("Unable to take the torture any longer, I give in, allowing myself to be filled by the intense ecstasy from this inhuman pussy.")
ShowMessageFace("",0,0,2,41)
ShowMessage("\\n<Luka>I'm coming again! Ahh!")
RunCommonEvent(104)
PictureDisplay(5,"ev_nekomata_h5",0,0,0,0,100,100,255,0)
RunCommonEvent(105)
ShowMessageFace("",0,0,2,42)
ShowMessage("\\n<Luka>Unnngh...")
ShowMessageFace("",0,0,2,43)
ShowMessage("As I came inside of her, the relentless tongue continued to lick the tip of my penis. Each spurt of semen was followed by a lick of her rough tongue.")
ShowMessageFace("nekomata_fc1",3,0,2,44)
ShowMessage("\\n<Nekomata>...Unya♪")
ShowMessageFace("",0,0,2,45)
ShowMessage("After my orgasm finished, her rough tongue wraps itself around my penis. Her slippery and rough tongue rhythmically stimulates my penis.")
ShowMessageFace("",0,0,2,46)
ShowMessage("Wrapped around me, her tongue starts to play with my penis again, as if it was a mouse she caught.")
ShowMessageFace("",0,0,2,47)
ShowMessage("\\n<Luka>Ahh! Ahhh!")
ShowMessageFace("nekomata_fc1",3,0,2,48)
ShowMessage("\\n<Nekomata>Unya...♪")
ShowMessageFace("",0,0,2,49)
ShowMessage("The Nekomata plays with my penis inside her vagina. With her wild instincts running rampant, the Nekomata shows a satisfying face.")
ShowMessageFace("",0,0,2,50)
ShowMessage("The sensation of her fleshy tongue entangled on my penis inside her vagina brings me close to another orgasm. Unable to do anything, I give in to my body's desires, and surrender to her.")
RunCommonEvent(104)
RunCommonEvent(105)
ShowMessageFace("",0,0,2,51)
ShowMessage("\\n<Luka>Hnnaaa...")
ShowMessageFace("",0,0,2,52)
ShowMessage("I sigh as I shoot more of my seed into her waiting pussy.\nJust how many more times is she going to mate with me...?")
ShowMessageFace("nekomata_fc1",3,0,2,53)
ShowMessage("\\n<Nekomata>Funyaa...♪")
ShowMessageFace("",0,0,2,54)
ShowMessage("\\n<Luka>Auu... Stop already...")
ShowMessageFace("",0,0,2,55)
ShowMessage("Her pussy tightens around me, squeezing out the last drops of semen. The tongue carefully licks the tip of my penis inside her, quickly lapping up each drop.")
ShowMessageFace("",0,0,2,56)
ShowMessage("Her vagina is meant to break any man, unable to endure the sensations. Powerless before her, I quickly orgasm again, giving more semen to this cat burglar.")
ShowMessageFace("",0,0,2,57)
ShowMessage("\\n<Luka>Aaaaah...!!")
RunCommonEvent(104)
RunCommonEvent(105)
ShowMessageFace("nekomata_fc1",3,0,2,58)
ShowMessage("\\n<Nekomata>Unya! ♪")
ShowMessageFace("",0,0,2,59)
ShowMessage("Still wanting to mate more, the Nekomata doesn't let me go. She forces me to orgasm over and over again, until I eventually faint.")
221()
PictureClear(5)
246(2)
ShowMessageFace("",0,0,2,60)
ShowMessage("When I came to, I was abandoned on the side of the road.\nAfter coming so many times, I had fainted.")
ShowMessageFace("",0,0,2,61)
ShowMessage("After that, she released me...")
PictureDisplay(1,"bg086",0,0,0,0,100,100,255,0)
PictureDisplay(5,"ev_nekomata_h1",0,0,0,0,100,100,255,0)
222()
ShowMessageFace("nekomata_fc1",3,0,2,62)
ShowMessage("\\n<Nekomata>Unyaa...♪")
ShowMessageFace("",0,0,2,63)
ShowMessage("\\n<Luka>Huaaa...\nYou're so warm... It feels so good...")
ShowMessageFace("",0,0,2,64)
ShowMessage("But I was completely addicted to that inhuman pleasure. Drowning in the pleasure gained from breaking the taboo, I continue to mate with the Nekomata in this uninhabited area.")
RunCommonEvent(104)
RunCommonEvent(105)
ShowMessageFace("",0,0,2,65)
ShowMessage("\\n<Luka>Unnngh...")
ShowMessageFace("",0,0,2,66)
ShowMessage("I'm completely happy doing nothing but giving my seed to this Nekomata. I don't care about that adventure any longer, I just want to mate with her...")
ShowMessageFace("",0,0,2,67)
ShowMessage("......")
221()
PictureClear(5)
PictureClear(6)
242(1)
Wait(120)
355("memory_interruption")
ShowMessageFace("",0,0,2,68)
ShowMessage("You hear Ilias' voice calling out to you...\nReceive her evaluation?")
ShowChoices(strings("Receive Evaluation","Change Difficulty","Reincarnate"),3)
IfPlayerPicksChoice(0,"Receive Evaluation")
 241(bytes(0x04,0x08,0x6f,0x3a,0x0d,0x52,0x50,0x47,0x3a,0x3a,0x42,0x47,0x4d,0x08,0x3a,0x0a,0x40,0x6e,0x61,0x6d,0x65,0x49,0x22,0x0a,0x69,0x72,0x69,0x61,0x73,0x06,0x3a,0x06,0x45,0x54,0x3a,0x0c,0x40,0x76,0x6f,0x6c,0x75,0x6d,0x65,0x69,0x5f,0x3a,0x0b,0x40,0x70,0x69,0x74,0x63,0x68,0x69,0x6e))
 PictureDisplay(1,"bg001",0,0,0,0,100,100,255,0)
 222()
 PictureDisplay(5,"80_iriasu_st04",0,0,0,0,100,100,0,0)
 PictureMove(5,null,0,0,0,0,100,100,255,0,30,true)
 ShowMessageFace("iriasu_fc1",3,0,2,69)
 ShowMessage("\\n<Ilias>Beaten by a bizarre little cat... How pitiful.\nDo you really get that much enjoyment out of betraying my expectations?")
 PictureDisplay(5,"80_iriasu_st01",0,0,0,0,100,100,255,0)
 ShowMessageFace("iriasu_fc1",0,0,2,70)
 ShowMessage("\\n<Ilias>The Nekomata is very agile and uses martial arts skills. Don't be fooled by her docile appearance, she can beat you up.")
 ShowMessageFace("iriasu_fc1",0,0,2,71)
 ShowMessage("\\n<Ilias>Because she is a beast-type enemy, pleasure attacks are highly effective. On top of that, she's susceptible to various status effects, so defeating her should be easy.")
 PictureDisplay(5,"80_iriasu_st02",0,0,0,0,100,100,255,0)
 ShowMessageFace("iriasu_fc1",1,0,2,72)
 ShowMessage("\\n<Ilias>Now go, oh brave Luka.\nErase any existence of that bizarre beast.")
 242(1)
 221()
 PictureClear(5)
 PictureClear(1)
 Wait(60)
 0()
IfPlayerPicksChoice(1,"Change Difficulty")
 ShowMessageFace("",0,0,2,73)
 ShowMessage("Please choose a difficulty level.")
 RunCommonEvent(110)
 0()
IfPlayerPicksChoice(2,"Reincarnate")
 0()
404()
RunCommonEvent(3000)
0()
