// EVENT 2051
Name "Seduction: Morrigan"

If(0,25,1)
 EndEventProcessing()
 0()
EndIf()
355("$game_troop.lose_event_id = 3051")
ChangeVariable(26,26,0,3,3,1,4)
ChangeVariable(26,26,4,0,10)
ShowMessageFace("morrigan_fc1",0,0,2,1)
ShowMessage("\\n<Morrigan>Well aren't you something else.\nWell then, how about this!?")
355("battler_graphic_hide")
PictureDisplay(5,"ev_morrigan_ha1",0,0,0,0,100,100,255,0)
ShowMessageFace("",0,0,2,2)
ShowMessage("Magic shackles bind Luka's arms and legs!")
ShowMessage("In that position, his penis is exposed!")
ShowMessageFace("",0,0,2,3)
ShowMessage("\\n<Luka>G-Get off...!")
ShowMessageFace("morrigan_fc1",0,0,2,4)
ShowMessage("\\n<Morrigan>Oho, calm down there.\nIf you're a good boy, I'll do something amazing.")
ShowMessageFace("morrigan_fc1",0,0,2,5)
ShowMessage("\\n<Morrigan>With my aura, I'll make you feel incredible.\nAny man would come in an instant.")
ShowMessageFace("morrigan_fc1",0,0,2,6)
ShowMessage("\\n<Morrigan>Well? Want to give it a try?\nComing in the throes of unmatched pleasure?")
ShowMessageFace("",0,0,2,7)
ShowMessage("\\n<Luka>Urhg...!")
ChangeSwitch(98,98,0)
ChangeSwitch(96,96,0)
ShowChoices(strings("Ignore her","Give in to temptation"),1)
IfPlayerPicksChoice(0,"Ignore her")
 ShowMessageFace("",0,0,2,8)
 ShowMessage("Luka resists her temptation!")
 RunCommonEvent(1999)
 EndEventProcessing()
 0()
IfPlayerPicksChoice(1,"誘惑に乗る")
 0()
404()
ShowMessageFace("morrigan_fc1",0,0,2,9)
ShowMessage("\\n<Morrigan>Hahaha, you really want to try it?\nGood, then go crazy in unimaginable pleasure!")
ChangeVariable(26,26,3,0,5)
250(bytes(0x04,0x08,0x6f,0x3a,0x0c,0x52,0x50,0x47,0x3a,0x3a,0x53,0x45,0x08,0x3a,0x0a,0x40,0x6e,0x61,0x6d,0x65,0x49,0x22,0x0e,0x6d,0x6f,0x6e,0x5f,0x73,0x70,0x61,0x72,0x6b,0x06,0x3a,0x06,0x45,0x54,0x3a,0x0b,0x40,0x70,0x69,0x74,0x63,0x68,0x69,0x69,0x3a,0x0c,0x40,0x76,0x6f,0x6c,0x75,0x6d,0x65,0x69,0x69))
PictureDisplay(5,"ev_morrigan_ha2",0,0,0,0,100,100,255,0)
311(0,1,1,1,26,true)
ShowMessageFace("",0,0,2,10)
ShowMessage("Morrigan's aura wraps around Luka's penis!")
ShowMessage("Numbness and intense pleasure overwhelm his body!\\D")
ShowMessage("Luka takes \\V[26] damage!")
ChangeVariable(27,27,0,3,3,1,2)
If(1,27,0,0,0)
 JumpToLabel("射精1")
 0()
EndIf()
ShowMessageFace("",0,0,2,11)
ShowMessage("\\n<Luka>Aaaah!!")
ShowMessageFace("",0,0,2,12)
ShowMessage("Overwhelming pleasure attacks my penis.")
ShowMessage("It's like a current of electricity ran through my body all at once.")
ShowChoices(strings("Struggle","Give in"),1)
IfPlayerPicksChoice(0,"もがく")
 ShowMessageFace("",0,0,2,13)
 ShowMessage("Luka tries to struggle!")
 ShowMessage("But his body is numb, and has no strength!")
 ShowMessageFace("morrigan_fc1",0,0,2,14)
 ShowMessage("\\n<Morrigan>Hahaha, pathetic!\nYou can't do anything but writhe and come now!")
 0()
IfPlayerPicksChoice(1,"身を任せる")
 ShowMessageFace("",0,0,2,15)
 ShowMessage("Luka surrenders to the pleasure...")
 ShowMessageFace("morrigan_fc1",0,0,2,16)
 ShowMessage("\\n<Morrigan>Hahaha, it's the best, isn't it?\nNow squirm and come everywhere!")
 0()
404()
250(bytes(0x04,0x08,0x6f,0x3a,0x0c,0x52,0x50,0x47,0x3a,0x3a,0x53,0x45,0x08,0x3a,0x0a,0x40,0x6e,0x61,0x6d,0x65,0x49,0x22,0x0e,0x6d,0x6f,0x6e,0x5f,0x73,0x70,0x61,0x72,0x6b,0x06,0x3a,0x06,0x45,0x54,0x3a,0x0b,0x40,0x70,0x69,0x74,0x63,0x68,0x69,0x69,0x3a,0x0c,0x40,0x76,0x6f,0x6c,0x75,0x6d,0x65,0x69,0x69))
311(0,1,1,1,26,true)
ShowMessageFace("",0,0,2,17)
ShowMessage("Morrigan's aura forces pleasure into Luka!")
ShowMessage("Along with the ecstasy, the desire to climax runs through Luka!\\D")
ShowMessage("Luka takes \\V[26] damage!")
ChangeVariable(27,27,0,3,3,1,2)
If(1,27,0,0,0)
 JumpToLabel("射精2")
 0()
EndIf()
DefineLabel("射精1")
ShowMessageFace("",0,0,2,18)
ShowMessage("\\n<Luka>W-What is this...! A-Aaaah!!")
RunCommonEvent(104)
PictureDisplay(5,"ev_morrigan_ha3",0,0,0,0,100,100,255,0)
RunCommonEvent(105)
ShowMessageFace("",0,0,2,19)
ShowMessage("The moment her aura touches me, I come.")
ShowMessage("The insane pleasure forced me to an instant climax.")
ShowMessageFace("morrigan_fc1",0,0,2,20)
ShowMessage("\\n<Morrigan>Hahaha, instant kill!\nYou didn't even last five seconds!")
PictureDisplay(5,"ev_morrigan_ha4",0,0,0,0,100,100,255,0)
ShowMessageFace("",0,0,2,21)
ShowMessage("Morrigan's mysterious power forces me to come...")
ShowMessage("My semen has been absorbed by her...")
RunCommonEvent(2000)
EndEventProcessing()
DefineLabel("射精2")
ShowMessageFace("",0,0,2,22)
ShowMessage("\\n<Luka>Hyaaa...! Ah, aaah!!")
RunCommonEvent(104)
PictureDisplay(5,"ev_morrigan_ha3",0,0,0,0,100,100,255,0)
RunCommonEvent(105)
ShowMessageFace("",0,0,2,23)
ShowMessage("Caught in her aura, I come in moments.")
ShowMessage("The insane pleasure forced me to come in no time...")
ShowMessageFace("morrigan_fc1",0,0,2,24)
ShowMessage("\\n<Morrigan>Hahaha, miserable!\nI didn't even touch it directly, and look at how much you came!")
PictureDisplay(5,"ev_morrigan_ha4",0,0,0,0,100,100,255,0)
ShowMessageFace("",0,0,2,25)
ShowMessage("Morrigan's mysterious power forces me to come...")
ShowMessage("My semen has been absorbed by her...")
RunCommonEvent(2000)
EndEventProcessing()
0()
