// EVENT 3000
Name "After Defeat Processing"

SetBattleBGM(bytes(0x04,0x08,0x6f,0x3a,0x0d,0x52,0x50,0x47,0x3a,0x3a,0x42,0x47,0x4d,0x08,0x3a,0x0a,0x40,0x6e,0x61,0x6d,0x65,0x49,0x22,0x0b,0x62,0x61,0x74,0x74,0x6c,0x65,0x06,0x3a,0x06,0x45,0x54,0x3a,0x0c,0x40,0x76,0x6f,0x6c,0x75,0x6d,0x65,0x69,0x69,0x3a,0x0b,0x40,0x70,0x69,0x74,0x63,0x68,0x69,0x69))
355("forced_get_off_vehicle")
ChangeSwitch(31,39,1)
ChangeSwitch(97,97,1)
ChangeSwitch(100,100,0)
ChangeSwitch(22,22,1)
ChangeSwitch(81,81,1)
ChangeSwitch(82,82,1)
ChangeSwitch(83,83,1)
ChangeSwitch(84,84,1)
ChangeSwitch(85,85,1)
ChangeSwitch(86,86,1)
ChangeSwitch(27,27,1)
ChangeSwitch(2333,2333,1)
ChangeVariable(157,157,0,0,0)
RunCommonEvent(11)
314(0,0)
211(1)
If(0,87,0)
 ChangeSwitch(87,87,1)
 ChangeSwitch(100,100,1)
 If(0,28,0)
  ChangeSwitch(23,23,1)
  ChangeVariable(902,902,0,1,908)
  RunCommonEvent(112)
  0()
 EndIf()
 Wait(120)
 216(0)
 355("forced_transfer(484,14,10)")
 355("release_temp_actors")
 355("$game_map.screen.clear")
 EndEventProcessing()
 0()
EndIf()
If(0,41,0)
 RunCommonEvent(902)
 216(0)
 355("forced_transfer(644,18,15)")
 355("release_temp_actors")
 355("$game_map.screen.clear")
 EndEventProcessing()
 0()
EndIf()
If(0,8,1)
 355("forced_transfer(154,18,52)")
 216(1)
 0()
EndIf()
355("release_temp_actors")
355("$game_map.screen.clear")
0()
