// EVENT 4277
Name "Fairy 2"

If(0,25,1)
 221()
 PictureClear(5)
 PictureClear(6)
 ShowMessageFace("",0,0,2,0)
 ShowMessage("......")
 242(2)
 Wait(120)
 241(bytes(0x04,0x08,0x6f,0x3a,0x0d,0x52,0x50,0x47,0x3a,0x3a,0x42,0x47,0x4d,0x08,0x3a,0x0a,0x40,0x6e,0x61,0x6d,0x65,0x49,0x22,0x0c,0x63,0x61,0x73,0x74,0x6c,0x65,0x36,0x06,0x3a,0x06,0x45,0x54,0x3a,0x0c,0x40,0x76,0x6f,0x6c,0x75,0x6d,0x65,0x69,0x69,0x3a,0x0b,0x40,0x70,0x69,0x74,0x63,0x68,0x69,0x69))
 EndEventProcessing()
 0()
EndIf()
PictureDisplay(5,"80_fairy_st03",0,0,0,0,100,100,255,0)
ShowMessageFace("fairy_fc1",2,0,2,1)
ShowMessage("\\n<Fell>Eh? You want to play with me?")
ShowMessageFace("",0,0,2,2)
ShowMessage("\\n<Luka>Y...Yes... Please...")
PictureDisplay(5,"80_fairy_st02",0,0,0,0,100,100,255,0)
ShowMessageFace("fairy_fc1",1,0,2,3)
ShowMessage("\\n<Fell>Ok, then let's play a lot♪")
ShowMessageFace("",0,0,2,4)
ShowMessage("I follow her to her room...")
221()
PictureDisplay(1,"bg195",0,0,0,0,100,100,255,0)
PictureDisplay(5,"80_fairy_st02",0,0,0,0,100,100,255,0)
222()
241(bytes(0x04,0x08,0x6f,0x3a,0x0d,0x52,0x50,0x47,0x3a,0x3a,0x42,0x47,0x4d,0x08,0x3a,0x0a,0x40,0x6e,0x61,0x6d,0x65,0x49,0x22,0x09,0x65,0x72,0x6f,0x31,0x06,0x3a,0x06,0x45,0x54,0x3a,0x0c,0x40,0x76,0x6f,0x6c,0x75,0x6d,0x65,0x69,0x69,0x3a,0x0b,0x40,0x70,0x69,0x74,0x63,0x68,0x69,0x69))
ShowMessageFace("",0,0,2,5)
ShowMessage("After entering her room, I strip off my pants.")
ShowMessage("Fell flies toward me, now naked.")
ShowMessageFace("fairy_fc1",1,0,2,6)
ShowMessage("\\n<Fell>Ehehe... I'll hug it tightly! ♪")
ShowMessageFace("",0,0,2,7)
ShowMessage("\\n<Luka>Aaah...")
ShowMessageFace("",0,0,2,8)
ShowMessage("Fell flies toward my penis.")
245(bytes(0x04,0x08,0x6f,0x3a,0x0d,0x52,0x50,0x47,0x3a,0x3a,0x42,0x47,0x53,0x08,0x3a,0x0a,0x40,0x6e,0x61,0x6d,0x65,0x49,0x22,0x17,0x6d,0x6f,0x6e,0x5f,0x68,0x73,0x65,0x61,0x6e,0x31,0x37,0x5f,0x73,0x69,0x67,0x6f,0x6b,0x69,0x06,0x3a,0x06,0x45,0x54,0x3a,0x0c,0x40,0x76,0x6f,0x6c,0x75,0x6d,0x65,0x69,0x55,0x3a,0x0b,0x40,0x70,0x69,0x74,0x63,0x68,0x69,0x69))
PictureDisplay(6,"ev_fairy_ct11",0,0,0,0,100,100,255,0)
ShowMessageFace("",0,0,2,9)
ShowMessage("She clings to my penis!")
ShowMessageFace("",0,0,2,10)
ShowMessage("\\n<Luka>Aaah...!!")
ShowMessageFace("",0,0,2,11)
ShowMessage("Her tiny body adheres to my erect penis.")
ShowMessage("Hugging me with all her strength, she's attached to me.")
ShowMessageFace("",0,0,2,12)
ShowMessage("At the same time, both of her small hands start to rub me.")
ShowMessage("She even uses her tongue to lick my glans.")
ShowMessageFace("fairy_fc1",1,0,2,13)
ShowMessage("\\n<Fell>Ehehe... Does it feel good?\nShoot out all your white stuff like this♪")
ShowMessageFace("",0,0,2,14)
ShowMessage("\\n<Luka>Unnngh...")
ShowMessageFace("",0,0,2,15)
ShowMessage("Fell laughs and rubs her tiny body against my penis.")
ShowMessage("With her entire body hugging me, I feel every inch of her.")
ShowMessageFace("",0,0,2,16)
ShowMessage("Both of her small hands knead my glans.")
ShowMessage("Rubbing me, sometimes her tiny fingers play with the neck of my penis.")
ShowMessageFace("",0,0,2,17)
ShowMessage("She's obviously trying to force me to come...")
ShowMessageFace("",0,0,2,18)
ShowMessage("\\n<Luka>Aaah... That feels good...")
ShowMessageFace("fairy_fc1",1,0,2,19)
ShowMessage("\\n<Fell>Ehehe, I'm teasing your penis~♪")
ShowMessageFace("",0,0,2,20)
ShowMessage("She's touching all of my weakest points, forcing pleasure into me.")
ShowMessage("Rubbing her fingers against my glans, I feel like I could come any moment.")
ShowMessageFace("",0,0,2,21)
ShowMessage("Tasting that weak pleasure, I feel my waist go numb.")
ShowMessage("Giving in, I give myself over to the ecstasy of her tiny body.")
ShowMessageFace("",0,0,2,22)
ShowMessage("\\n<Luka>N-noooo...! I can't do this...!")
ShowMessageFace("",0,0,2,23)
ShowMessage("But at the last moment, I hold back.")
ShowMessage("If I come now, I'll drown Fell's tiny body in my semen.")
ShowMessageFace("",0,0,2,24)
ShowMessage("\\n<Luka>I-If I come, you'll be covered...")
ShowMessageFace("",0,0,2,25)
ShowMessage("But it's too late.")
ShowMessage("Fell's touch has already brought me right to the edge.")
ShowMessageFace("fairy_fc1",1,0,2,26)
ShowMessage("\\n<Fell>It's pointless to hold back~♪\nEveryone comes when I do it like this♪")
ShowMessageFace("",0,0,2,27)
ShowMessage("\\n<Luka>Unnngh...!")
ShowMessageFace("",0,0,2,28)
ShowMessage("Being told my concern is pointless makes me feel both pleasure and humiliation.")
ShowMessage("Toying with my penis like that, she's in control of what I do...")
ShowMessageFace("fairy_fc1",1,0,2,29)
ShowMessage("\\n<Fell>Ehehe, your penis is twitching! ♪\nPew pew out your white pee! ♪")
ShowMessageFace("",0,0,2,30)
ShowMessage("\\n<Luka>Ah, aaaah...!!")
ShowMessageFace("",0,0,2,31)
ShowMessage("Despite trying to resist, I finally surrender.")
ShowMessage("An electric current of ecstasy runs through me as I give myself over.")
246(2)
RunCommonEvent(104)
PictureDisplay(6,"ev_fairy_ct12",0,0,0,0,100,100,255,0)
RunCommonEvent(105)
ShowMessageFace("fairy_fc1",1,0,2,32)
ShowMessage("\\n<Fell>Ehehe~♪ It's shooting everywhere!~♪")
ShowMessageFace("",0,0,2,33)
ShowMessage("\\n<Luka>Aaaaah...")
PictureDisplay(6,"ev_fairy_ct13",0,0,0,0,100,100,255,0)
ShowMessageFace("",0,0,2,34)
ShowMessage("My semen shoots out, and lands on Fell.")
ShowMessage("Her tiny body is covered in my semen...")
ShowMessageFace("fairy_fc1",1,0,2,35)
ShowMessage("\\n<Fell>You came so much, did it feel good?")
ShowMessageFace("",0,0,2,36)
ShowMessage("\\n<Luka>......")
ShowMessageFace("",0,0,2,37)
ShowMessage("Fell's tiny body is drenched in semen.")
ShowMessage("Looking at it, I feel a mix of immorality and guilt...")
221()
PictureClear(5)
ShowMessageFace("",0,0,2,38)
ShowMessage("......")
242(2)
Wait(120)
241(bytes(0x04,0x08,0x6f,0x3a,0x0d,0x52,0x50,0x47,0x3a,0x3a,0x42,0x47,0x4d,0x08,0x3a,0x0a,0x40,0x6e,0x61,0x6d,0x65,0x49,0x22,0x0c,0x63,0x61,0x73,0x74,0x6c,0x65,0x36,0x06,0x3a,0x06,0x45,0x54,0x3a,0x0c,0x40,0x76,0x6f,0x6c,0x75,0x6d,0x65,0x69,0x69,0x3a,0x0b,0x40,0x70,0x69,0x74,0x63,0x68,0x69,0x69))
0()
