﻿// EVENT 0546
Name "Loop: Myusca Stairway Encounter"

ShowSpeechBalloon(-1,1,false)
Wait(30)
ShowMessageFace("myuska_fc1",2,0,2,1)
ShowMessage("\\n<Myusca>Huh...?")
ShowMessageFace("ruka_fc1",0,0,2,2)
ShowMessage("\\n<Luka>Uwah...?!")
ShowMessageFace("",0,0,2,3)
ShowMessage("I encounter Myusca just as I'm going down the stairs. Not good, what do I do...?")
DefineLabel("選択")
355("ex_choice_add(\"Fight\",1)")
655("ex_choice_add(\"Run away\",2)")
655("ex_choice_add(\"Use the firecracker\",3,\"s[2420]\",0)")
655("ex_choice_add(\"Use the caltrops\",4,\"s[2421]\",0)")
655("ex_choice_add(\"Use the grenade\",5,\"s[2422]\",0)")
655("ex_choice_add(\"Use the charm of binding\",6,\"s[2423]\",0)")
655("ex_choice_add(\"Use Raquel's phlogiston\",7,\"s[2381]\",0)")
655("ex_choice_add(\"Use the Labyrinth Book\",8,\"s[2371]\",0)")
355("ex_choice_show(0,11,[0,0])")
If(1,9,0,1,0)
 ShowMessageFace("ruka_fc1",0,0,2,4)
 ShowMessage("\\n<Luka>Kuh, I've got no choice but to fight!！")
 ShowMessageFace("",0,0,2,5)
 ShowMessage("I take up my sword--")
 355("display_skill_name(\"Demon Eyes of Ecstasy\")")
 Wait(15)
 250(bytes(0x04,0x08,0x6f,0x3a,0x0c,0x52,0x50,0x47,0x3a,0x3a,0x53,0x45,0x08,0x3a,0x0a,0x40,0x6e,0x61,0x6d,0x65,0x49,0x22,0x0e,0x6d,0x6f,0x6e,0x5f,0x66,0x6c,0x61,0x73,0x68,0x06,0x3a,0x06,0x45,0x54,0x3a,0x0b,0x40,0x70,0x69,0x74,0x63,0x68,0x69,0x69,0x3a,0x0c,0x40,0x76,0x6f,0x6c,0x75,0x6d,0x65,0x69,0x69))
 224(bytes(0x04,0x08,0x75,0x3a,0x0a,0x43,0x6f,0x6c,0x6f,0x72,0x25,0x00,0x00,0x00,0x00,0x00,0xe0,0x6f,0x40,0x00,0x00,0x00,0x00,0x00,0x80,0x69,0x40,0x00,0x00,0x00,0x00,0x00,0xe0,0x6f,0x40,0x00,0x00,0x00,0x00,0x00,0xe0,0x6f,0x40),60,true)
 Wait(15)
 355("clear_skill_name")
 ShowMessageFace("ruka_fc1",0,0,2,6)
 ShowMessage("\\n<Luka>Ah, aaah...")
 ShowMessageFace("",0,0,2,7)
 ShowMessage("A sweet feeling gradually spreads throughout my entire body. My strength leaves my body and I drop my sword...")
 JumpToLabel("結果")
 0()
EndIf()
If(1,9,0,2,0)
 ShowMessageFace("ruka_fc1",0,0,2,8)
 ShowMessage("\\n<Luka>This is bad, I have to run...!")
 ShowMessageFace("",0,0,2,9)
 ShowMessage("Just as I was about to turn around--")
 355("display_skill_name(\"Demon Eyes of Ecstasy\")")
 Wait(15)
 250(bytes(0x04,0x08,0x6f,0x3a,0x0c,0x52,0x50,0x47,0x3a,0x3a,0x53,0x45,0x08,0x3a,0x0a,0x40,0x6e,0x61,0x6d,0x65,0x49,0x22,0x0e,0x6d,0x6f,0x6e,0x5f,0x66,0x6c,0x61,0x73,0x68,0x06,0x3a,0x06,0x45,0x54,0x3a,0x0b,0x40,0x70,0x69,0x74,0x63,0x68,0x69,0x69,0x3a,0x0c,0x40,0x76,0x6f,0x6c,0x75,0x6d,0x65,0x69,0x69))
 224(bytes(0x04,0x08,0x75,0x3a,0x0a,0x43,0x6f,0x6c,0x6f,0x72,0x25,0x00,0x00,0x00,0x00,0x00,0xe0,0x6f,0x40,0x00,0x00,0x00,0x00,0x00,0x80,0x69,0x40,0x00,0x00,0x00,0x00,0x00,0xe0,0x6f,0x40,0x00,0x00,0x00,0x00,0x00,0xe0,0x6f,0x40),60,true)
 Wait(15)
 355("clear_skill_name")
 ShowMessageFace("ruka_fc1",0,0,2,10)
 ShowMessage("\\n<Luka>Ah, aaah...")
 ShowMessageFace("",0,0,2,11)
 ShowMessage("A sweet feeling gradually spreads throughout my entire body. My strength leaves my body and I can't even run away...")
 JumpToLabel("結果")
 0()
EndIf()
If(1,9,0,3,0)
 250(bytes(0x04,0x08,0x6f,0x3a,0x0c,0x52,0x50,0x47,0x3a,0x3a,0x53,0x45,0x08,0x3a,0x0a,0x40,0x6e,0x61,0x6d,0x65,0x49,0x22,0x0d,0x62,0x61,0x6b,0x75,0x74,0x69,0x6b,0x75,0x06,0x3a,0x06,0x45,0x54,0x3a,0x0b,0x40,0x70,0x69,0x74,0x63,0x68,0x69,0x69,0x3a,0x0c,0x40,0x76,0x6f,0x6c,0x75,0x6d,0x65,0x69,0x55))
 ShowMessageFace("",0,0,2,12)
 ShowMessage("Luka threw the firecracker at Myusca!")
 ShowMessageFace("myuska_fc1",0,0,2,13)
 ShowMessage("\\n<Myusca>What's this, fireworks?\nIf you've still got more, how about letting me play with them?")
 JumpToLabel("魔眼")
 0()
EndIf()
If(1,9,0,4,0)
 250(bytes(0x04,0x08,0x6f,0x3a,0x0c,0x52,0x50,0x47,0x3a,0x3a,0x53,0x45,0x08,0x3a,0x0a,0x40,0x6e,0x61,0x6d,0x65,0x49,0x22,0x0a,0x57,0x69,0x6e,0x64,0x37,0x06,0x3a,0x06,0x45,0x54,0x3a,0x0b,0x40,0x70,0x69,0x74,0x63,0x68,0x69,0x69,0x3a,0x0c,0x40,0x76,0x6f,0x6c,0x75,0x6d,0x65,0x69,0x55))
 ShowMessageFace("",0,0,2,14)
 ShowMessage("Luka scattered the caltrops!")
 ShowMessageFace("myuska_fc1",0,0,2,15)
 ShowMessage("\\n<Myusca>Wow, are these what you call \"caltrops\"?\n*giggle*...I'm just going to crush these.")
 JumpToLabel("魔眼")
 0()
EndIf()
If(1,9,0,5,0)
 212(16,505,false)
 ShowMessageFace("",0,0,2,16)
 ShowMessage("Luka threw the hand grenade at Myusca!")
 ShowMessageFace("myuska_fc1",2,0,2,17)
 ShowMessage("\\n<Myusca>Come ooon, don't make such a mess.\nYou're being a nuisance...so I'll just eat you quickly.")
 JumpToLabel("魔眼")
 0()
EndIf()
If(1,9,0,6,0)
 212(16,35,false)
 ShowMessageFace("",0,0,2,18)
 ShowMessage("Luka used the charm of binding!")
 ShowMessageFace("myuska_fc1",2,0,2,19)
 ShowMessage("\\n<Myusca>What's this...?\nIt tingles a little, but is that all there is to it?")
 JumpToLabel("魔眼")
 0()
EndIf()
If(1,9,0,7,0)
 212(16,736,false)
 ShowMessageFace("",0,0,2,20)
 ShowMessage("Luka threw Raquel's Phlogiston at Myusca!")
 ShowMessageFace("myuska_fc1",2,0,2,21)
 ShowMessage("\\n<Myusca>Come ooon, don't make such a mess.\nYou're being a nuisance...so I'll just eat you quickly.。")
 JumpToLabel("魔眼")
 0()
EndIf()
If(1,9,0,8,0)
 250(bytes(0x04,0x08,0x6f,0x3a,0x0c,0x52,0x50,0x47,0x3a,0x3a,0x53,0x45,0x08,0x3a,0x0a,0x40,0x6e,0x61,0x6d,0x65,0x49,0x22,0x0a,0x42,0x6f,0x6f,0x6b,0x32,0x06,0x3a,0x06,0x45,0x54,0x3a,0x0b,0x40,0x70,0x69,0x74,0x63,0x68,0x69,0x69,0x3a,0x0c,0x40,0x76,0x6f,0x6c,0x75,0x6d,0x65,0x69,0x55))
 ShowMessageFace("",0,0,2,22)
 ShowMessage("Luka opened the Labyrinth Book!")
 ShowMessageFace("myuska_fc1",2,0,2,23)
 ShowMessage("\\n<Myusca>What's this book--")
 Wait(30)
 212(16,542,false)
 Wait(60)
 205(16,bytes(0x04,0x08,0x6f,0x3a,0x13,0x52,0x50,0x47,0x3a,0x3a,0x4d,0x6f,0x76,0x65,0x52,0x6f,0x75,0x74,0x65,0x09,0x3a,0x0c,0x40,0x72,0x65,0x70,0x65,0x61,0x74,0x46,0x3a,0x0f,0x40,0x73,0x6b,0x69,0x70,0x70,0x61,0x62,0x6c,0x65,0x46,0x3a,0x0a,0x40,0x77,0x61,0x69,0x74,0x54,0x3a,0x0a,0x40,0x6c,0x69,0x73,0x74,0x5b,0x07,0x6f,0x3a,0x15,0x52,0x50,0x47,0x3a,0x3a,0x4d,0x6f,0x76,0x65,0x43,0x6f,0x6d,0x6d,0x61,0x6e,0x64,0x07,0x3a,0x0a,0x40,0x63,0x6f,0x64,0x65,0x69,0x2c,0x3a,0x10,0x40,0x70,0x61,0x72,0x61,0x6d,0x65,0x74,0x65,0x72,0x73,0x5b,0x00,0x6f,0x3b,0x0a,0x07,0x3b,0x0b,0x69,0x00,0x3b,0x0c,0x5b,0x00))
 Wait(60)
 ShowMessageFace("ruka_fc1",0,0,2,24)
 ShowMessage("\\n<Luka>Did that work...?")
 Wait(30)
 212(16,542,false)
 Wait(60)
 205(16,bytes(0x04,0x08,0x6f,0x3a,0x13,0x52,0x50,0x47,0x3a,0x3a,0x4d,0x6f,0x76,0x65,0x52,0x6f,0x75,0x74,0x65,0x09,0x3a,0x0c,0x40,0x72,0x65,0x70,0x65,0x61,0x74,0x46,0x3a,0x0f,0x40,0x73,0x6b,0x69,0x70,0x70,0x61,0x62,0x6c,0x65,0x46,0x3a,0x0a,0x40,0x77,0x61,0x69,0x74,0x54,0x3a,0x0a,0x40,0x6c,0x69,0x73,0x74,0x5b,0x07,0x6f,0x3a,0x15,0x52,0x50,0x47,0x3a,0x3a,0x4d,0x6f,0x76,0x65,0x43,0x6f,0x6d,0x6d,0x61,0x6e,0x64,0x07,0x3a,0x0a,0x40,0x63,0x6f,0x64,0x65,0x69,0x2d,0x3a,0x10,0x40,0x70,0x61,0x72,0x61,0x6d,0x65,0x74,0x65,0x72,0x73,0x5b,0x00,0x6f,0x3b,0x0a,0x07,0x3b,0x0b,0x69,0x00,0x3b,0x0c,0x5b,0x00))
 Wait(60)
 ShowMessageFace("myuska_fc1",0,0,2,25)
 ShowMessage("\\n<Myusca>Ahaa... Going through that would've been too much trouble, so I just demolished it all♪ Now it's my turn...to play with you♡")
 JumpToLabel("魔眼")
 0()
EndIf()
JumpToLabel("選択")
DefineLabel("魔眼")
355("display_skill_name(\"Demon Eyes of Ecstasy\")")
Wait(15)
250(bytes(0x04,0x08,0x6f,0x3a,0x0c,0x52,0x50,0x47,0x3a,0x3a,0x53,0x45,0x08,0x3a,0x0a,0x40,0x6e,0x61,0x6d,0x65,0x49,0x22,0x0e,0x6d,0x6f,0x6e,0x5f,0x66,0x6c,0x61,0x73,0x68,0x06,0x3a,0x06,0x45,0x54,0x3a,0x0b,0x40,0x70,0x69,0x74,0x63,0x68,0x69,0x69,0x3a,0x0c,0x40,0x76,0x6f,0x6c,0x75,0x6d,0x65,0x69,0x69))
224(bytes(0x04,0x08,0x75,0x3a,0x0a,0x43,0x6f,0x6c,0x6f,0x72,0x25,0x00,0x00,0x00,0x00,0x00,0xe0,0x6f,0x40,0x00,0x00,0x00,0x00,0x00,0x80,0x69,0x40,0x00,0x00,0x00,0x00,0x00,0xe0,0x6f,0x40,0x00,0x00,0x00,0x00,0x00,0xe0,0x6f,0x40),60,true)
Wait(15)
355("clear_skill_name")
ShowMessageFace("ruka_fc1",0,0,2,26)
ShowMessage("\\n<Luka>Ah, aaah...")
ShowMessageFace("",0,0,2,27)
ShowMessage("A sweet feeling gradually spreads throughout my entire body. My strength leaves my body and I can no longer stand...")
DefineLabel("結果")
ShowMessageFace("myuska_fc1",0,0,2,28)
ShowMessage("\\n<Myusca>You're a burglar too--no, I suppose you're not.\nAre you even human to begin with?")
ShowMessageFace("myuska_fc1",1,0,2,29)
ShowMessage("\\n<Myusca>Are you someone from another world summoned by that magic circle? I've always wanted to try that kind of food...♡")
ShowMessageFace("",0,0,2,30)
ShowMessage("Myusca drags me by my weakened hand...\nAnd takes me to her room.")
221()
Wait(60)
TeleportPlayer(0,153,12,26,4,2)
222()
ChangeSwitch(2405,2405,0)
RunCommonEvent(5781)
EndEventProcessing()
0()
