// EVENT 3311
Name "Walraune"

PictureDisplay(5,"80_walraune_st02",0,0,0,0,100,100,0,0)
PictureMove(5,null,0,0,0,0,100,100,255,0,30,true)
241(bytes(0x04,0x08,0x6f,0x3a,0x0d,0x52,0x50,0x47,0x3a,0x3a,0x42,0x47,0x4d,0x08,0x3a,0x0a,0x40,0x6e,0x61,0x6d,0x65,0x49,0x22,0x09,0x65,0x72,0x6f,0x31,0x06,0x3a,0x06,0x45,0x54,0x3a,0x0c,0x40,0x76,0x6f,0x6c,0x75,0x6d,0x65,0x69,0x69,0x3a,0x0b,0x40,0x70,0x69,0x74,0x63,0x68,0x69,0x69))
ShowMessageFace("",0,0,2,1)
ShowMessage("\\n<Luka>")
ShowMessage("Nngh...")
ShowMessageFace("walraune_fc1",1,0,2,2)
ShowMessage("\\n<Walraune>")
ShowMessage("I'll suck out all of your semen.")
ShowMessage("Just miserably writhe as you go mad in pleasure...")
250(bytes(0x04,0x08,0x6f,0x3a,0x0c,0x52,0x50,0x47,0x3a,0x3a,0x53,0x45,0x08,0x3a,0x0a,0x40,0x6e,0x61,0x6d,0x65,0x49,0x22,0x16,0x6d,0x6f,0x6e,0x5f,0x65,0x72,0x6f,0x5f,0x6d,0x61,0x6b,0x69,0x74,0x75,0x6b,0x69,0x33,0x06,0x3a,0x06,0x45,0x54,0x3a,0x0b,0x40,0x70,0x69,0x74,0x63,0x68,0x69,0x69,0x3a,0x0c,0x40,0x76,0x6f,0x6c,0x75,0x6d,0x65,0x69,0x69))
ShowMessageFace("",0,0,2,3)
ShowMessage("Petals wrap around my body, completely sealing off my movement.")
ShowMessageFace("",0,0,2,4)
ShowMessage("After only a moment, only my head is left not surrounded.")
ShowMessage("With all the ivy around my body, I can't move an inch as Walraune's head buries in my groin.")
245(bytes(0x04,0x08,0x6f,0x3a,0x0d,0x52,0x50,0x47,0x3a,0x3a,0x42,0x47,0x53,0x08,0x3a,0x0a,0x40,0x6e,0x61,0x6d,0x65,0x49,0x22,0x10,0x6d,0x6f,0x6e,0x5f,0x68,0x76,0x6f,0x69,0x63,0x65,0x31,0x06,0x3a,0x06,0x45,0x54,0x3a,0x0c,0x40,0x76,0x6f,0x6c,0x75,0x6d,0x65,0x69,0x55,0x3a,0x0b,0x40,0x70,0x69,0x74,0x63,0x68,0x69,0x69))
PictureDisplay(5,"ev_walraune_h1",0,0,0,0,100,100,255,0)
ShowMessageFace("",0,0,2,5)
ShowMessage("Like that, she sucks my penis into her mouth!")
ShowMessageFace("",0,0,2,6)
ShowMessage("\\n<Luka>")
ShowMessage("Unnngh...!")
ShowMessageFace("",0,0,2,7)
ShowMessage("The warm feeling of her mouth spreads through my body.")
ShowMessage("Before I can stop myself, a moan leaks out.")
ShowMessageFace("walraune_fc1",1,0,2,8)
ShowMessage("\\n<Walraune>")
ShowMessage("Hehe... What a pathetic voice.")
ShowMessage("Nnn... *Lick*")
ShowMessageFace("",0,0,2,9)
ShowMessage("Her seductive tongue crawls all over my penis.")
ShowMessage("Licking the tip and around my glans, I'm left stunned by the intense pleasure.")
ShowMessageFace("",0,0,2,10)
ShowMessage("Her slightly rough tongue almost tickles...")
ShowMessage("The saliva from her mouth covers my penis, and starts to drip.")
ShowMessageFace("",0,0,2,11)
ShowMessage("The sweet pleasure makes it feel like my penis could melt in her mouth.")
ShowMessageFace("",0,0,2,12)
ShowMessage("\\n<Luka>")
ShowMessage("Hnnaaa...")
ShowMessageFace("walraune_fc1",1,0,2,13)
ShowMessage("\\n<Walraune>")
ShowMessage("Nnn... *Suck* *Lick*")
ShowMessageFace("",0,0,2,14)
ShowMessage("Walraune continues using her tongue and lips to give me an intense blowjob.")
ShowMessageFace("",0,0,2,15)
ShowMessage("She uses her lips to rub against the neck under my glans, as her tongue rubs all over the tip.")
ShowMessageFace("",0,0,2,16)
ShowMessage("\\n<Luka>")
ShowMessage("Nnngh...")
ShowMessageFace("",0,0,2,17)
ShowMessage("Gasping from her intense oral skills, I unconsciously try to pull my waist back to escape.")
ShowMessageFace("walraune_fc1",1,0,2,18)
ShowMessage("\\n<Walraune>")
ShowMessage("Mmm... Do you think you can escape?")
ShowMessageFace("",0,0,2,19)
ShowMessage("Even if I try to pull back, I'm too tightly bound to escape.")
ShowMessage("I can only hang here, taking her oral skills without being able to defend.")
ShowMessageFace("",0,0,2,20)
ShowMessage("As her quick tongue continues licking me, a sweet ache spreads through my body.")
ShowMessage("After a few more moments, all I can focus on is her tongue.")
ShowMessageFace("",0,0,2,21)
ShowMessage("\\n<Luka>")
ShowMessage("Ah... Ahhhhh...")
ShowMessage("It feels good...")
ShowMessageFace("",0,0,2,22)
ShowMessage("I relax my body, accepting the pleasure.")
ShowMessage("Instead of fighting it, I give myself over, wanting to surrender to that ecstasy.")
ShowMessageFace("walraune_fc1",1,0,2,23)
ShowMessage("\\n<Walraune>")
ShowMessage("Surrendering so soon? How easy...")
ShowMessage("Then hurry up and come!")
ShowMessageFace("walraune_fc1",1,0,2,24)
ShowMessage("\\n<Walraune>")
ShowMessage("Nnn... *Lick*")
ShowMessageFace("",0,0,2,25)
ShowMessage("Sensing me relax, Walraune moves to finish me off.")
ShowMessage("Her tongue movements suddenly get far more intense.")
ShowMessageFace("",0,0,2,26)
ShowMessage("The tip of her tongue moves from my urethral opening down my back muscle.")
ShowMessageFace("",0,0,2,27)
ShowMessage("Driven to the cliff, the slightest touch will set me off inside her mouth.")
ShowMessageFace("",0,0,2,28)
ShowMessage("\\n<Luka>")
ShowMessage("Ahh... I...Incredible...")
ShowMessage("I'm coming...!")
ShowMessageFace("walraune_fc1",1,0,2,29)
ShowMessage("\\n<Walraune>")
ShowMessage("*Suck* *Lick*")
ShowMessageFace("",0,0,2,30)
ShowMessage("Pushed over my limit, I yell as I erupt inside her mouth.")
RunCommonEvent(104)
PictureDisplay(5,"ev_walraune_h2",0,0,0,0,100,100,255,0)
RunCommonEvent(105)
ShowMessageFace("walraune_fc1",1,0,2,31)
ShowMessage("\\n<Walraune>")
ShowMessage("Nnn... *Suck*")
ShowMessageFace("",0,0,2,32)
ShowMessage("The moment I ejaculate, I feel a suction on my penis.")
ShowMessage("Making a seal with her lips, Walraune sucks down my semen as I come inside her mouth.")
ShowMessageFace("",0,0,2,33)
ShowMessage("\\n<Luka>")
ShowMessage("D...Don't suck... Ahh...")
ShowMessageFace("",0,0,2,34)
ShowMessage("It almost feels like she's sucking the semen straight out of my penis.")
ShowMessageFace("",0,0,2,35)
ShowMessage("She doesn't stop sucking until after my ejaculation is over.")
ShowMessage("Sucked dry, it feels like my body could melt away in ecstasy.")
ShowMessageFace("",0,0,2,36)
ShowMessage("\\n<Luka>")
ShowMessage("Ah... Haa...")
ShowMessageFace("walraune_fc1",1,0,2,37)
ShowMessage("\\n<Walraune>")
ShowMessage("Did it feel so good that you can't even think?")
ShowMessage("Normally I'd suck you dry until you died...")
ShowMessageFace("walraune_fc1",1,0,2,38)
ShowMessage("\\n<Walraune>")
ShowMessage("But your semen is very high quality.")
ShowMessage("I'll keep you with me forever as a pet.")
ShowMessageFace("",0,0,2,39)
ShowMessage("\\n<Luka>")
ShowMessage("No way... Uwa!")
ShowMessageFace("walraune_fc1",1,0,2,40)
ShowMessage("\\n<Walraune>")
ShowMessage("You have no right to refuse. Your semen belongs to me.")
ShowMessage("Nnn... *Suck*")
245(bytes(0x04,0x08,0x6f,0x3a,0x0d,0x52,0x50,0x47,0x3a,0x3a,0x42,0x47,0x53,0x08,0x3a,0x0a,0x40,0x6e,0x61,0x6d,0x65,0x49,0x22,0x10,0x6d,0x6f,0x6e,0x5f,0x68,0x76,0x6f,0x69,0x63,0x65,0x32,0x06,0x3a,0x06,0x45,0x54,0x3a,0x0c,0x40,0x76,0x6f,0x6c,0x75,0x6d,0x65,0x69,0x55,0x3a,0x0b,0x40,0x70,0x69,0x74,0x63,0x68,0x69,0x69))
ShowMessageFace("",0,0,2,41)
ShowMessage("Sucking my penis deep inside her mouth, Walraune starts to move.")
ShowMessageFace("",0,0,2,42)
ShowMessage("Pushing her head back and forth, she presses down with her lips as she moves.")
ShowMessage("The neck of my glans catches on her lips as she pulls her head back, licking me all the while.")
ShowMessageFace("",0,0,2,43)
ShowMessage("\\n<Luka>")
ShowMessage("Ahh... That's amazing...")
ShowMessageFace("walraune_fc1",1,0,2,44)
ShowMessage("\\n<Walraune>")
ShowMessage("*Suck* *Suck*")
ShowMessageFace("",0,0,2,45)
ShowMessage("Her tongue licks quickly as she pumps me, bringing me close to another ejaculation.")
ShowMessageFace("",0,0,2,46)
ShowMessage("Helpless in her hold, I can only moan as her blowjob continues getting more and more intense.")
ShowMessageFace("",0,0,2,47)
ShowMessage("\\n<Luka>")
ShowMessage("Haa... I'm going to come...")
ShowMessageFace("walraune_fc1",1,0,2,48)
ShowMessage("\\n<Walraune>")
ShowMessage("Disappointing...")
ShowMessage("You can't endure any more of my fellatio?")
ShowMessageFace("walraune_fc1",1,0,2,49)
ShowMessage("\\n<Walraune>")
ShowMessage("Then I'll make you finish.")
ShowMessageFace("walraune_fc1",1,0,2,50)
ShowMessage("\\n<Walraune>")
ShowMessage("Be sure to spit it all out in my mouth... Nnnn *Suck* *Lick*")
ShowMessageFace("",0,0,2,51)
ShowMessage("Walraune suddenly increases her speed, trying to finish me off at once.")
ShowMessageFace("",0,0,2,52)
ShowMessage("Her tongue darts all over my glans, bringing me over the edge just as fast as she said she would.")
ShowMessageFace("",0,0,2,53)
ShowMessage("\\n<Luka>")
ShowMessage("So good... I'm coming!")
ShowMessage("Ahhh!")
RunCommonEvent(104)
PictureDisplay(5,"ev_walraune_h3",0,0,0,0,100,100,255,0)
RunCommonEvent(105)
ShowMessageFace("walraune_fc1",1,0,2,54)
ShowMessage("\\n<Walraune>")
ShowMessage("Nnnn... *Suck* *Suck*")
ShowMessageFace("",0,0,2,55)
ShowMessage("\\n<Luka>")
ShowMessage("Haa... Don't suck...!")
ShowMessageFace("",0,0,2,56)
ShowMessage("As soon as I came, Walraune sealed her lips and started sucking down my semen again.")
ShowMessageFace("walraune_fc1",1,0,2,57)
ShowMessage("\\n<Walraune>")
ShowMessage("Nnn... You came a lot...")
ShowMessage("*Suck*")
ShowMessageFace("",0,0,2,58)
ShowMessage("And without a rest, she resumes her head movements.")
ShowMessageFace("",0,0,2,59)
ShowMessage("Writhing helplessly, I can only moan as her tongue attacks my sensitive penis.")
ShowMessageFace("",0,0,2,60)
ShowMessage("\\n<Luka>")
ShowMessage("Ahh... No more...")
ShowMessageFace("",0,0,2,61)
ShowMessage("I feel my lower body start to ache again, as I feel another climax coming.")
ShowMessageFace("walraune_fc1",1,0,2,62)
ShowMessage("\\n<Walraune>")
ShowMessage("*Suck* Mmm... Your reactions have slowed a little.")
ShowMessage("Is it because I made you come too much, that a light stimulus won't make you come again?")
ShowMessageFace("walraune_fc1",1,0,2,63)
ShowMessage("\\n<Walraune>")
ShowMessage("Hehe... Then I'll suck it out forcibly.")
ShowMessage("Writhe in agony from my oral techniques!")
ShowMessageFace("",0,0,2,64)
ShowMessage("\\n<Luka>")
ShowMessage("Ha...! Ahhh!")
ShowMessageFace("",0,0,2,65)
ShowMessage("Walraune seals her lips around the base of my penis, and starts to suck like a vacuum.")
ShowMessageFace("",0,0,2,66)
ShowMessage("The intense stimulation forces me to scream as the desire to ejaculate bubbles up in moments.")
ShowMessageFace("",0,0,2,67)
ShowMessage("\\n<Luka>")
ShowMessage("No... I can't... Endure this...!")
ShowMessageFace("walraune_fc1",1,0,2,68)
ShowMessage("\\n<Walraune>")
ShowMessage("Who said you were allowed to endure it?")
ShowMessage("Hurry up and come...")
ShowMessageFace("walraune_fc1",1,0,2,69)
ShowMessage("\\n<Walraune>")
ShowMessage("*Suck* *Suck*")
ShowMessageFace("",0,0,2,70)
ShowMessage("\\n<Luka>")
ShowMessage("Hyaaaaa!!")
RunCommonEvent(104)
PictureDisplay(5,"ev_walraune_h4",0,0,0,0,100,100,255,0)
RunCommonEvent(105)
ShowMessageFace("",0,0,2,71)
ShowMessage("Her intense vacuum quickly sucks out my semen.")
ShowMessage("Rather than spurting into her mouth, it feels more like the semen is sucked straight out of my penis.")
ShowMessageFace("",0,0,2,72)
ShowMessage("\\n<Luka>")
ShowMessage("Ah...!")
ShowMessageFace("walraune_fc1",1,0,2,73)
ShowMessage("\\n<Walraune>")
ShowMessage("*Suck*")
ShowMessageFace("",0,0,2,74)
ShowMessage("My penis continues pulsing in her mouth, the intense vacuum not letting the flow of semen stop.")
ShowMessage("After what seems like an eternity, the ejaculation ends.")
ShowMessageFace("",0,0,2,75)
ShowMessage("Feeling incredibly weak, I fall back in her bind, the echo of ecstasy bouncing around my body.")
246(1)
ShowMessageFace("",0,0,2,76)
ShowMessage("\\n<Luka>")
ShowMessage("Ah... I can't come... Any more...")
ShowMessageFace("walraune_fc1",1,0,2,77)
ShowMessage("\\n<Walraune>")
ShowMessage("Your balls can't produce faster than I can suck...")
ShowMessage("I'll give you a short rest.")
ShowMessageFace("walraune_fc1",1,0,2,78)
ShowMessage("\\n<Walraune>")
ShowMessage("As soon as you produce more, I'll suck it all back out.")
ShowMessage("Hehehe... Look forward to it.")
ShowMessageFace("",0,0,2,79)
ShowMessage("\\n<Luka>")
ShowMessage("Th...that...")
ShowMessageFace("",0,0,2,80)
ShowMessage("Thus, I live the rest of my life bound in Walraune's petals.")
ShowMessageFace("",0,0,2,81)
ShowMessage("My existence serves only for her to suck out my semen all day.")
ShowMessage("A miserable fate for a human...")
221()
PictureClear(5)
PictureClear(6)
ShowMessageFace("",0,0,2,82)
ShowMessage("......")
221()
242(1)
Wait(120)
355("memory_interruption")
ShowMessageFace("",0,0,2,83)
ShowMessage("You hear Ilias' voice calling out to you...")
ShowMessage("Receive her evaluation?")
ShowChoices(strings("Receive Evaluation","Change Difficulty","Reincarnate"),3)
IfPlayerPicksChoice(0,"Receive Evaluation")
 241(bytes(0x04,0x08,0x6f,0x3a,0x0d,0x52,0x50,0x47,0x3a,0x3a,0x42,0x47,0x4d,0x08,0x3a,0x0a,0x40,0x6e,0x61,0x6d,0x65,0x49,0x22,0x0a,0x69,0x72,0x69,0x61,0x73,0x06,0x3a,0x06,0x45,0x54,0x3a,0x0c,0x40,0x76,0x6f,0x6c,0x75,0x6d,0x65,0x69,0x5f,0x3a,0x0b,0x40,0x70,0x69,0x74,0x63,0x68,0x69,0x6e))
 PictureDisplay(1,"bg001",0,0,0,0,100,100,255,0)
 222()
 PictureDisplay(5,"80_iriasu_st04",0,0,0,0,100,100,0,0)
 PictureMove(5,null,0,0,0,0,100,100,255,0,30,true)
 ShowMessageFace("iriasu_fc1",3,0,2,84)
 ShowMessage("\\n<Ilias>")
 ShowMessage("Why is she called Walraune? Because she's a bad (warui) Alraune.")
 ShowMessage("What horrible naming sense...")
 PictureDisplay(5,"80_iriasu_st01",0,0,0,0,100,100,255,0)
 ShowMessageFace("iriasu_fc1",0,0,2,85)
 ShowMessage("\\n<Ilias>")
 ShowMessage("Walraune heavily relies on the use of status ailments.")
 ShowMessage("If you drag out the battle, you may end up with your party in tatters.")
 ShowMessageFace("iriasu_fc1",0,0,2,86)
 ShowMessage("\\n<Ilias>")
 ShowMessage("Because she is a plant monster, she's weak against Bio and Fire attacks.")
 ShowMessage("Silence and Petrify work against her so make use of those.")
 PictureDisplay(5,"80_iriasu_st02",0,0,0,0,100,100,255,0)
 ShowMessageFace("iriasu_fc1",1,0,2,87)
 ShowMessage("\\n<Ilias>")
 ShowMessage("Now go, oh Brave Luka.")
 ShowMessage("No matter what kind of Alraune it is, destroy them with your sword.")
 242(1)
 221()
 PictureClear(5)
 PictureClear(1)
 Wait(60)
 0()
IfPlayerPicksChoice(1,"Change Difficulty")
 ShowMessageFace("",0,0,2,88)
 ShowMessage("Please choose a difficulty level.")
 RunCommonEvent(110)
 0()
IfPlayerPicksChoice(2,"Reincarnate")
 0()
404()
RunCommonEvent(3000)
0()
