// EVENT 2335
Name "Seduction: Enenra"

355("$game_troop.lose_event_id = 3335")
ChangeVariable(26,26,0,3,3,1,4)
ChangeVariable(26,26,4,0,10)
ShowMessageFace("enenra_fc1",1,0,2,1)
ShowMessage("\\n<Enenra>")
ShowMessage("What an energetic human!")
ShowMessage("Very interesting, I yield to you!")
355("battler_graphic_hide")
PictureDisplay(5,"ev_enenra_hb1",0,0,0,0,100,100,255,0)
ShowMessageFace("",0,0,2,2)
ShowMessage("Enenra jumps forward, pressing Luka's penis against her vagina!")
ShowMessageFace("enenra_fc1",1,0,2,3)
ShowMessage("\\n<Enenra>")
ShowMessage("Don't you want to stick it in me?")
ShowMessage("If you stop fighting me, I'll let you put it in...")
ChangeSwitch(98,98,0)
ChangeSwitch(96,96,0)
ShowChoices(strings("Struggle","Let her continue"),1)
IfPlayerPicksChoice(0,null)
 ShowMessageFace("",0,0,2,4)
 ShowMessage("But Luka struggles, and breaks free!")
 RunCommonEvent(1999)
 EndEventProcessing()
 0()
IfPlayerPicksChoice(1,null)
 0()
404()
ShowMessageFace("enenra_fc1",1,0,2,5)
ShowMessage("\\n<Enenra>")
ShowMessage("Kuku, so you want to put it in?")
ShowMessage("Hmm, now what should I do...?")
ChangeVariable(26,26,3,0,3)
250(bytes(0x04,0x08,0x6f,0x3a,0x0c,0x52,0x50,0x47,0x3a,0x3a,0x53,0x45,0x08,0x3a,0x0a,0x40,0x6e,0x61,0x6d,0x65,0x49,0x22,0x12,0x6d,0x6f,0x6e,0x5f,0x65,0x72,0x6f,0x5f,0x6b,0x6f,0x6b,0x69,0x31,0x06,0x3a,0x06,0x45,0x54,0x3a,0x0b,0x40,0x70,0x69,0x74,0x63,0x68,0x69,0x69,0x3a,0x0c,0x40,0x76,0x6f,0x6c,0x75,0x6d,0x65,0x69,0x69))
311(0,1,1,1,26,true)
ShowMessageFace("",0,0,2,6)
ShowMessage("Enenra grinds her hips against Luka!")
ShowMessage("His penis rubs against her entrance without going in!\\D")
ShowMessage("Luka takes \\V[26] damage!")
ChangeVariable(27,27,0,3,3,1,2)
If(1,27,0,0,0)
 JumpToLabel("射精1")
 0()
EndIf()
ShowMessageFace("enenra_fc1",1,0,2,7)
ShowMessage("\\n<Enenra>")
ShowMessage("Let's see...")
ShowMessage("If you can endure this for a bit, I'll let you put it in.")
250(bytes(0x04,0x08,0x6f,0x3a,0x0c,0x52,0x50,0x47,0x3a,0x3a,0x53,0x45,0x08,0x3a,0x0a,0x40,0x6e,0x61,0x6d,0x65,0x49,0x22,0x12,0x6d,0x6f,0x6e,0x5f,0x65,0x72,0x6f,0x5f,0x6b,0x6f,0x6b,0x69,0x31,0x06,0x3a,0x06,0x45,0x54,0x3a,0x0b,0x40,0x70,0x69,0x74,0x63,0x68,0x69,0x69,0x3a,0x0c,0x40,0x76,0x6f,0x6c,0x75,0x6d,0x65,0x69,0x69))
311(0,1,1,1,26,true)
ShowMessageFace("",0,0,2,8)
ShowMessage("Enenra continues rubbing herself against Luka!")
ShowMessage("His penis is massaged by her small body!\\D")
ShowMessage("Luka takes \\V[26] damage!")
ChangeVariable(27,27,0,3,3,1,2)
If(1,27,0,0,0)
 JumpToLabel("射精1")
 0()
EndIf()
ShowMessageFace("enenra_fc1",1,0,2,9)
ShowMessage("\\n<Enenra>")
ShowMessage("Hore, hore...")
ShowMessage("If you want to stick it in, endure it!")
250(bytes(0x04,0x08,0x6f,0x3a,0x0c,0x52,0x50,0x47,0x3a,0x3a,0x53,0x45,0x08,0x3a,0x0a,0x40,0x6e,0x61,0x6d,0x65,0x49,0x22,0x12,0x6d,0x6f,0x6e,0x5f,0x65,0x72,0x6f,0x5f,0x6b,0x6f,0x6b,0x69,0x31,0x06,0x3a,0x06,0x45,0x54,0x3a,0x0b,0x40,0x70,0x69,0x74,0x63,0x68,0x69,0x69,0x3a,0x0c,0x40,0x76,0x6f,0x6c,0x75,0x6d,0x65,0x69,0x69))
311(0,1,1,1,26,true)
ShowMessageFace("",0,0,2,10)
ShowMessage("Enenra wiggles her hips seductively!")
ShowMessage("The slow motions stimulate Luka!\\D")
ShowMessage("Luka takes \\V[26] damage!")
ChangeVariable(27,27,0,3,3,1,2)
If(1,27,0,0,0)
 JumpToLabel("射精1")
 0()
EndIf()
ShowMessageFace("enenra_fc1",1,0,2,11)
ShowMessage("\\n<Enenra>")
ShowMessage("Kuku, you look like you want to come.")
ShowMessage("Let's see you shoot your white stuff all over!")
250(bytes(0x04,0x08,0x6f,0x3a,0x0c,0x52,0x50,0x47,0x3a,0x3a,0x53,0x45,0x08,0x3a,0x0a,0x40,0x6e,0x61,0x6d,0x65,0x49,0x22,0x12,0x6d,0x6f,0x6e,0x5f,0x65,0x72,0x6f,0x5f,0x6b,0x6f,0x6b,0x69,0x31,0x06,0x3a,0x06,0x45,0x54,0x3a,0x0b,0x40,0x70,0x69,0x74,0x63,0x68,0x69,0x69,0x3a,0x0c,0x40,0x76,0x6f,0x6c,0x75,0x6d,0x65,0x69,0x69))
311(0,1,1,1,26,true)
ShowMessageFace("",0,0,2,12)
ShowMessage("Enenra presses her vagina harder against Luka's penis!")
ShowMessage("Pressed down by her body, Luka climaxes!\\D")
ShowMessage("Luka takes \\V[26] damage!")
ChangeVariable(27,27,0,3,3,1,2)
If(1,27,0,0,0)
 JumpToLabel("射精1")
 0()
EndIf()
DefineLabel("射精1")
ShowMessageFace("",0,0,2,13)
ShowMessage("\\n<Luka>No, coming... Ahhh!")
RunCommonEvent(104)
PictureDisplay(5,"ev_enenra_hb2",0,0,0,0,100,100,255,0)
RunCommonEvent(105)
ShowMessageFace("",0,0,2,14)
ShowMessage("Coming, my semen shoots all over.")
ShowMessage("Unable to endure it, I came without even being inside her yet...")
ShowMessageFace("enenra_fc1",1,0,2,15)
ShowMessage("\\n<Enenra>")
ShowMessage("Haha, you came before you stuck it in!")
ShowMessage("Too bad for you! Kukuku...")
RunCommonEvent(2000)
EndEventProcessing()
0()
