﻿// EVENT 5838
Name "R Astaroth"

If(0,443,0)
 PictureDisplay(5,"80_astaroth_st01b",0,0,0,0,100,100,255,0)
 0()
EndIf()
242(1)
250(bytes(0x04,0x08,0x6f,0x3a,0x0c,0x52,0x50,0x47,0x3a,0x3a,0x53,0x45,0x08,0x3a,0x0a,0x40,0x6e,0x61,0x6d,0x65,0x49,0x22,0x0a,0x7a,0x69,0x68,0x6f,0x75,0x06,0x3a,0x06,0x45,0x54,0x3a,0x0b,0x40,0x70,0x69,0x74,0x63,0x68,0x69,0x69,0x3a,0x0c,0x40,0x76,0x6f,0x6c,0x75,0x6d,0x65,0x69,0x55))
Wait(60)
ShowMessageFace("",0,0,2,1)
ShowMessage("At that moment, the five o'clock bell rings in the castle.")
241(bytes(0x04,0x08,0x6f,0x3a,0x0d,0x52,0x50,0x47,0x3a,0x3a,0x42,0x47,0x4d,0x08,0x3a,0x0a,0x40,0x6e,0x61,0x6d,0x65,0x49,0x22,0x09,0x65,0x72,0x6f,0x31,0x06,0x3a,0x06,0x45,0x54,0x3a,0x0c,0x40,0x76,0x6f,0x6c,0x75,0x6d,0x65,0x69,0x69,0x3a,0x0b,0x40,0x70,0x69,0x74,0x63,0x68,0x69,0x69))
ShowMessageFace("astaroth_fc1",0,0,2,2)
ShowMessage("\\n<Astaroth>I gave you a lot of information...\nYou have to give me a compensation in return now.")
ShowMessageFace("",0,0,2,3)
ShowMessage("\\n<Luka>Huh? A compensation...?")
ShowMessageFace("",0,0,2,4)
ShowMessage("Astaroth is smiling, but there is a cruel glint in her eyes.\nThose aren't the eyes of one looking at their companion, but their prey.")
ShowMessageFace("astaroth_fc1",0,0,2,5)
ShowMessage("\\n<Astaroth>This is what I mean by that.\nDry up as you enjoy the finest of pleasures...")
ShowMessageFace("",0,0,2,6)
ShowMessage("Astaroth climbs on top of me.\nShe pushes my meat rod against her own genitals with skillful movements....")
ShowMessageFace("",0,0,2,7)
ShowMessage("\\n<Luka>Eeek, s-stop...!")
ShowMessageFace("",0,0,2,8)
ShowMessage("Once you are raped by a Succubus, she will suck out your life energy until you die.\nOn top of that, the one I'm dealing with is a great legendary Succubus.")
ShowMessageFace("",0,0,2,9)
ShowMessage("Astaroth presses her waist down on my crotch...\nTo me, it looks like the blade of an executioner looming over my neck.")
ShowMessageFace("",0,0,2,10)
ShowMessage("\\n<Luka>I-I don't want to... Aaaaaaaah...!")
ShowMessageFace("astaroth_fc1",0,0,2,11)
ShowMessage("\\n<Astaroth>Resistance is futile. Give up...")
ShowMessageFace("",0,0,2,12)
ShowMessage("The entrance of her man-eating pussy is touching my glans.\nAstaroth drops her hips in one fluid motion...")
245(bytes(0x04,0x08,0x6f,0x3a,0x0d,0x52,0x50,0x47,0x3a,0x3a,0x42,0x47,0x53,0x08,0x3a,0x0a,0x40,0x6e,0x61,0x6d,0x65,0x49,0x22,0x1e,0x6d,0x6f,0x6e,0x5f,0x68,0x73,0x65,0x61,0x6e,0x30,0x38,0x5f,0x69,0x6e,0x6e,0x65,0x72,0x77,0x6f,0x72,0x6b,0x73,0x5f,0x61,0x38,0x06,0x3a,0x06,0x45,0x54,0x3a,0x0c,0x40,0x76,0x6f,0x6c,0x75,0x6d,0x65,0x69,0x55,0x3a,0x0b,0x40,0x70,0x69,0x74,0x63,0x68,0x69,0x69))
PictureDisplay(5,"ev_astaroth_hf1",0,0,0,0,100,100,0,0)
PictureMove(5,null,0,0,0,0,100,100,255,0,30,true)
ShowMessageFace("",0,0,2,13)
ShowMessage("\\n<Luka>Ah... Aaaaaaaaah...!")
ShowMessageFace("",0,0,2,14)
ShowMessage("My dick sinks into Astaroth's vagina.\nHer hot, wet and soft flesh sweetly and gently wraps around my penis.")
ShowMessageFace("",0,0,2,15)
ShowMessage("Her vaginal walls undulate like waves, massaging my manhood.\nThen, the inside of her pussy slowly narrows, giving a sweet sense of pressure...")
ShowMessageFace("",0,0,2,16)
ShowMessage("\\n<Luka>Ugh... Aaaaaaah...!")
ShowMessageFace("",0,0,2,17)
ShowMessage("It's not a violent pleasure, but rather a tender, gentle one.\nHer flesh pot sweetly twists around me like it wants to seduce and turn me into a slave to it.")
ShowMessageFace("",0,0,2,18)
ShowMessage("And yet, I can't shake this feeling of impending doom.\nThis flesh pot is a devilish vessel that consumes men's life energy...")
ShowMessageFace("",0,0,2,19)
ShowMessage("\\n<Luka>Ugh...")
ShowMessageFace("astaroth_fc1",0,0,2,20)
ShowMessage("\\n<Astaroth>Fufu, you seem to be enjoying yourself...")
ShowMessageFace("",0,0,2,21)
ShowMessage("Astaroth looks down at my face, which is relaxed with pleasure.\nShe hasn't moved her hips much,  she isn't even going hard on me.")
ShowMessageFace("",0,0,2,22)
ShowMessage("Nevertheless, the movements of her rippling flesh are extraordinary.\nJust being inside her like this makes me want to come...")
ShowMessageFace("",0,0,2,23)
ShowMessage("\\n<Luka>I-it feels good... Aaaaah...")
ShowMessageFace("astaroth_fc1",0,0,2,24)
ShowMessage("\\n<Astaroth>I'm not moving my hips or making it tighter inside...\nAnd yet, you seem to be feeling it quite a lot.")
ShowMessageFace("astaroth_fc1",0,0,2,25)
ShowMessage("\\n<Astaroth>I know it might sound a bit cruel...but I don't have time to play with you.\nTaste a Succubus' technique and ascend to heaven.")
ShowMessageFace("",0,0,2,26)
ShowMessage("\\n<Luka>Aah... No...")
PictureDisplay(5,"ev_astaroth_hg1",0,0,0,0,100,100,255,0)
ShowMessageFace("",0,0,2,27)
ShowMessage("Astaroth's body emits a soft red glow.\nAt the same time, the inside of her flesh pot begins to seductively contract...")
ShowMessageFace("astaroth_fc1",0,0,2,28)
ShowMessage("\\n<Astaroth>Energy Drain... The technique a Succubus uses to squeeze a man's energy dry.\nAnd you, too, will fall prey to my devilish pussy.")
ShowMessageFace("",0,0,2,29)
ShowMessage("\\n<Luka>Ah... Aaaaaaaah...!")
ShowMessageFace("",0,0,2,30)
ShowMessage("It feels like my penis is slowly going numb.\nHer cervix is sucking on my glans inside her sweet flesh pot.")
ShowMessageFace("",0,0,2,31)
ShowMessage("She's currently sucking out my energy.\nEach time she does this, her vagina sweetly tightens up, giving me a melting sensation of pleasure.")
ShowMessageFace("",0,0,2,32)
ShowMessage("\\n<Luka>Aaaaaah...! A-amaziiing...!")
ShowMessageFace("",0,0,2,33)
ShowMessage("The intense pleasure makes my body shudder.\nI writhe in heavenly pleasure as Astaroth rapes me.")
ShowMessageFace("",0,0,2,34)
ShowMessage("\\n<Luka>I-it's moving inside... Aaaaah, it's sucking on meee...!")
ShowMessageFace("astaroth_fc1",0,0,2,35)
ShowMessage("\\n<Astaroth>Fufu, that's the feeling of having your energy squeezed out of you.\nAnd if I move my hips like this...")
PictureDisplay(5,"ev_astaroth_hg2",0,0,0,0,100,100,255,0)
ShowMessageFace("",0,0,2,36)
ShowMessage("\\n<Luka>Ah... Aaaaaaaaaah!!")
ShowMessageFace("",0,0,2,37)
ShowMessage("Suddenly, Astaroth starts moving her waist up and down!\nShe violently stimulates me as her ass bounces on my body...")
ShowMessageFace("",0,0,2,38)
ShowMessage("\\n<Luka>T-this is... Stooop...!\nAh... Aaaaaaaah!!")
ShowMessageFace("",0,0,2,39)
ShowMessage("She intensely bucks her hips, stroking my penis inside her flesh pot.\nHer slippery walls of flesh entwining themselves around my glans make me feel so good I can't even move.")
ShowMessageFace("",0,0,2,40)
ShowMessage("In addition to that, the Energy Drain's sucking sensation sweetly numbs my entire body.\nA feeling of release arises as I slowly melt in the pleasure...")
ShowMessageFace("",0,0,2,41)
ShowMessage("\\n<Luka>I'm coming... I'm comiiing...!\nAaaaaaaaaaaah!!")
ShowMessageFace("",0,0,2,42)
ShowMessage("If I come in her pussy at this point, she will suck me dry until I die.\nEven though I know that, I can't suppress the feeling of release...")
RunCommonEvent(104)
PictureDisplay(5,"ev_astaroth_hg3",0,0,0,0,100,100,255,0)
RunCommonEvent(105)
ShowMessageFace("",0,0,2,43)
ShowMessage("\\n<Luka>Ugggh...!")
ShowMessageFace("",0,0,2,44)
ShowMessage("I miserably offer up my semen to Astaroth's vagina.\nHer devilish pussy, one that sucks out men's essence, is devouring the semen I spurt out inside...")
ShowMessageFace("",0,0,2,45)
ShowMessage("\\n<Luka>Ah... Ah, aaaaaah...!")
ShowMessageFace("",0,0,2,46)
ShowMessage("Gulp, gulp... Her pussy tightens up and drinks my life energy.\nMy whole body shudders as I writhe in the ruinous pleasure of being robbed of my energy.")
ShowMessageFace("astaroth_fc1",0,0,2,47)
ShowMessage("\\n<Astaroth>Fufu, it was an instant kill.\nHaving your energy sucked out of you by a Succubus is the greatest pleasure of all, isn't it...?")
ShowMessageFace("",0,0,2,48)
ShowMessage("\\n<Luka>Ugh, ah... Aaaaaah...")
ShowMessageFace("",0,0,2,49)
ShowMessage("Astaroth continues to move her hips as she looks down at me with dominant eyes.\nShe mercilessly teases me even after an orgasm.")
ShowMessageFace("",0,0,2,50)
ShowMessage("Her flesh pots keeps sucking on me, slowly consuming my life energy.\nThe vaginal walls rub against my penis, causing me to shudder with intense pleasure.")
ShowMessageFace("",0,0,2,51)
ShowMessage("\\n<Luka>N-no more... stop...")
ShowMessageFace("astaroth_fc1",0,0,2,52)
ShowMessage("\\n<Astaroth>What are you talking about? Your last ejaculation was a free gift.\nDidn't you want to taste heaven at least once before dying?")
ShowMessageFace("",0,0,2,53)
ShowMessage("Astaroth moves her hips, looking down at me...\nShe shoots me an evil-looking grin.")
ShowMessageFace("astaroth_fc1",0,0,2,54)
ShowMessage("\\n<Astaroth>Heaven is over, it will be a hell of pleasure from here on out.\nI'm going to mercilessly suck you dry with a serious Energy Drain.")
ShowMessageFace("",0,0,2,55)
ShowMessage("\\n<Luka>D-don't... Ah, hiyaaaaaaa!!")
PictureDisplay(5,"ev_astaroth_hg4",0,0,0,0,100,100,255,0)
ShowMessageFace("",0,0,2,56)
ShowMessage("Astaroth's body is enveloped in an aura, and the real sucking begins.\nHer flesh pot squirms and contracts, relentlessly clamping down on my penis.")
ShowMessageFace("",0,0,2,57)
ShowMessage("\\n<Luka>Ah...! Ah, aaaaaaaaaah!!")
ShowMessageFace("",0,0,2,58)
ShowMessage("A pleasure similar to a lightning bolt rushes through my body.\nMy body convulses as my manhood immediately starts to react...")
RunCommonEvent(104)
PictureDisplay(5,"ev_astaroth_hg5",0,0,0,0,100,100,255,0)
RunCommonEvent(105)
ShowMessageFace("",0,0,2,59)
ShowMessage("Astaroth's pussy is filled with semen.\nHer soft flesh squirms and contracts, sucking up the semen I release.")
ShowMessageFace("",0,0,2,60)
ShowMessage("It's like she's squeezing it out from the root.\nThe devilish vagina of this Succubus is going to devour my life...")
PictureDisplay(5,"ev_astaroth_hg6",0,0,0,0,100,100,255,0)
ShowMessageFace("astaroth_fc1",0,0,2,61)
ShowMessage("\\n<Astaroth>Fufufu... You can tell I'm draining your energy, can't you?\nDon't hesitate to offer me more of your semen inside my pussy...")
ShowMessageFace("",0,0,2,62)
ShowMessage("\\n<Luka>Dooont...! Ah, aaaaaah!")
ShowMessageFace("",0,0,2,63)
ShowMessage("Her flesh pot crazily contracts and tightens around me.\nHer rippling flesh makes my penis rejoice with delight as she drives me into a corner without mercy...")
RunCommonEvent(104)
RunCommonEvent(105)
ShowMessageFace("",0,0,2,64)
ShowMessage("\\n<Luka>Aaaaaaaah!!")
ShowMessageFace("",0,0,2,65)
ShowMessage("In no time at all, I am forced into a series of ejaculations.\nI spurt it out as Astaroth rides my twitching body.")
ShowMessageFace("",0,0,2,66)
ShowMessage("It is exactly as Astaroth said, a hell of pleasure.\nThe pleasure of having my manhood ravaged is so intense, it feels like it's consuming my entire body.")
ShowMessageFace("",0,0,2,67)
ShowMessage("\\n<Luka>Ahhh... S-stop it already...!\nNo... Ah, aaaaaaah...!")
ShowMessageFace("astaroth_fc1",1,0,2,68)
ShowMessage("\\n<Astaroth>No... I will take everything from you and send you on your way to heaven.\nCome on, I'll go harder...!")
ShowMessageFace("",0,0,2,69)
ShowMessage("\\n<Luka>Agh... Ah, hiyaaaaaaaa!!")
PictureDisplay(5,"ev_astaroth_hg7",0,0,0,0,100,100,255,0)
ShowMessageFace("",0,0,2,70)
ShowMessage("Astaroth's sucking becomes more and more intense.\nShe is ruthless and unforgiving as she milks my semen out with her devilish pussy.")
ShowMessageFace("",0,0,2,71)
ShowMessage("And what I get in return is pleasure far too intense.\nThe pleasure burning away my pleasure nerves is hell itself.")
ShowMessageFace("",0,0,2,72)
ShowMessage("\\n<Luka>Agh, Ughgh... Ah, aghghgh...!!")
ShowMessageFace("",0,0,2,73)
ShowMessage("I writhe in a hell of pleasure as Astaroth rides me...\nMy penis takes the full brunt of her abuse inside her flesh pot.")
ShowMessageFace("",0,0,2,74)
ShowMessage("The violent contractions of her inner walls immediately trigger an urge to ejaculate...\nHer cervic drinks the semen directly from the glans...")
RunCommonEvent(104)
RunCommonEvent(105)
ShowMessageFace("",0,0,2,75)
ShowMessage("\\n<Luka>Ah...! Ah, aaaaaah...!")
ShowMessageFace("",0,0,2,76)
ShowMessage("Semen gushes out ans is offered to Astaroth's flesh pot.\nMoreover, my penis's throbbing goes on and on, never seeming to end.")
ShowMessageFace("",0,0,2,77)
ShowMessage("\\n<Luka>Hiyaaaa... What's this, I can't stooop...")
ShowMessageFace("astaroth_fc1",1,0,2,78)
ShowMessage("\\n<Astaroth>Fufu, it's like you have incontinence.\nNow that you're in this state... There is no saving you anymore.")
ShowMessageFace("",0,0,2,79)
ShowMessage("\\n<Luka>This can't be... Agh, aaaaaaah...!")
RunCommonEvent(104)
RunCommonEvent(105)
ShowMessageFace("",0,0,2,80)
ShowMessage("Each time my penis pulses, the intense pleasure sweetly makes my entire meat rod go numb.\nThe throbbing continues without end, and Astaroth's vagina continues to overflow with semen.")
ShowMessageFace("",0,0,2,81)
ShowMessage("The more I let it out, the more life energy is taken away.\nI become gradually weaker as I am exposed to the pleasure that rushes through my entire body...")
ShowMessageFace("",0,0,2,82)
ShowMessage("\\n<Luka>I-I'm going to die... Help...! Aghaaaaah...!!")
ShowMessageFace("astaroth_fc1",1,0,2,83)
ShowMessage("\\n<Astaroth>I told you so, it's over for you.\nYour body has become so weak that it can't even twitch anymore, right?")
ShowMessageFace("",0,0,2,84)
ShowMessage("\\n<Luka>Ugh... Aaaaaah, ugggh...!")
RunCommonEvent(104)
RunCommonEvent(105)
ShowMessageFace("",0,0,2,85)
ShowMessage("My penis has turned into an organ that just keeps spitting out semen.\nIt continues to flow into Astaroth's vagina like urine.")
ShowMessageFace("",0,0,2,86)
ShowMessage("The endless, endless hell of having my semen squeezed out by Astaroth...\nI can't move my body, I can't even writhe anymore.")
ShowMessageFace("",0,0,2,87)
ShowMessage("\\n<Luka>No... Ah, aaaaaah...!")
RunCommonEvent(104)
RunCommonEvent(105)
ShowMessageFace("",0,0,2,88)
ShowMessage("Despite my despair and sorrow, I continue to release semen.\nMy manhood rejoices as I keep dedicating semen to Astaroth's devilish pussy.")
ShowMessageFace("astaroth_fc1",1,0,2,89)
ShowMessage("\\n<Astaroth>Your life is flowing into me...\nCan you see how your body is drying up...?")
ShowMessageFace("",0,0,2,90)
ShowMessage("\\n<Luka>Ugggh...")
RunCommonEvent(104)
RunCommonEvent(105)
ShowMessageFace("",0,0,2,91)
ShowMessage("At the end of those continuous ejaculations, my body is completely exhausted and weak.\nA sweet ecstasy spreads over me as my consciousness fades away...")
ShowMessageFace("astaroth_fc1",1,0,2,92)
ShowMessage("\\n<Astaroth>Now, go ahead and perish inside me.\nLet me drink up your semen...okay?")
ShowMessageFace("",0,0,2,93)
ShowMessage("\\n<Luka>a... ah...")
RunCommonEvent(104)
RunCommonEvent(105)
ShowMessageFace("",0,0,2,94)
ShowMessage("I flood Astaroth's pussy with a huge amount of semen...\nMy consciousness sweetly melts away...")
246(2)
RunCommonEvent(104)
RunCommonEvent(105)
ShowMessageFace("",0,0,2,95)
ShowMessage("\\n<Luka>............")
ShowMessageFace("",0,0,2,96)
ShowMessage("Thus, I was drained to death by Astaroth.\nMy consciousness had disappeared in the pleasure, only my dried-up corpse remained...")
ShowMessageFace("astaroth_fc1",1,0,2,97)
ShowMessage("\\n<Astaroth>Fufu... Your semen was delicious.\nThank you for the meal...")
221()
PictureClear(5)
PictureClear(6)
242(1)
246(1)
ShowMessageFace("",0,0,2,98)
ShowMessage("・・・・・・・・")
221()
Wait(120)
If(0,443,0)
 EndEventProcessing()
 0()
EndIf()
RunCommonEvent(541)
0()
