﻿


EVENT   1
 PAGE   1
  250(bytes(0x04,0x08,0x6f,0x3a,0x0c,0x52,0x50,0x47,0x3a,0x3a,0x53,0x45,0x08,0x3a,0x0a,0x40,0x6e,0x61,0x6d,0x65,0x49,0x22,0x09,0x4d,0x6f,0x76,0x65,0x06,0x3a,0x06,0x45,0x54,0x3a,0x0b,0x40,0x70,0x69,0x74,0x63,0x68,0x69,0x69,0x3a,0x0c,0x40,0x76,0x6f,0x6c,0x75,0x6d,0x65,0x69,0x55))
  TeleportPlayer(0,96,9,10,0,0)
  0()



EVENT   2
 PAGE   1
  250(bytes(0x04,0x08,0x6f,0x3a,0x0c,0x52,0x50,0x47,0x3a,0x3a,0x53,0x45,0x08,0x3a,0x0a,0x40,0x6e,0x61,0x6d,0x65,0x49,0x22,0x09,0x4d,0x6f,0x76,0x65,0x06,0x3a,0x06,0x45,0x54,0x3a,0x0b,0x40,0x70,0x69,0x74,0x63,0x68,0x69,0x69,0x3a,0x0c,0x40,0x76,0x6f,0x6c,0x75,0x6d,0x65,0x69,0x55))
  TeleportPlayer(0,91,4,47,2,0)
  If(1,1111,0,2,0)
   If(1,1098,0,11,0)
    ShowMessageFace("ruka_fc1",0,0,2,1)
    ShowMessage("\\n<Luka>")
    ShowMessage("この家から脱出しないと……")
    ShowMessage("でも、どうすればいいんだ？")
    ShowMessageFace("",0,0,2,2)
    ShowMessage("玄関に向かい、脱出路を確保するか――")
    ShowMessage("だが、そんな簡単に正面から出られるものなのか？")
    ShowMessageFace("",0,0,2,3)
    ShowMessage("この家の情報は、まったくない。")
    ShowMessage("結局、よく分からないまま探索するしかないのだ。")
    ShowMessageFace("",0,0,2,4)
    ShowMessage("しかも、ぐずぐずしていたらピザ屋が来てしまう。")
    ShowMessage("とにかく迅速に、脱出の準備を進めないと――")
    EndEventProcessing()
    0()
   Else()
    ShowMessageFace("ruka_fc1",0,0,2,5)
    ShowMessage("\\n<Luka>")
    ShowMessage("この家から脱出するためには……")
    ShowMessage("確か、黒い宝石っていうのが必要だったな。")
    ShowMessageFace("",0,0,2,6)
    ShowMessage("その宝石はヴィヌムの部屋にあるという。")
    ShowMessage("かなりの危険を伴うが、取りに行かなければならない。")
    ShowMessageFace("",0,0,2,7)
    ShowMessage("しかも、ぐずぐずしていたらピザ屋が来てしまう。")
    ShowMessage("とにかく迅速に、脱出の準備を進めないと――")
    EndEventProcessing()
    0()
   EndIf()
   0()
  EndIf()
  0()



EVENT   3
 PAGE   1
  0()
