﻿


EVENT   9
 PAGE   1
  250(bytes(0x04,0x08,0x6f,0x3a,0x0c,0x52,0x50,0x47,0x3a,0x3a,0x53,0x45,0x08,0x3a,0x0a,0x40,0x6e,0x61,0x6d,0x65,0x49,0x22,0x09,0x4d,0x6f,0x76,0x65,0x06,0x3a,0x06,0x45,0x54,0x3a,0x0b,0x40,0x70,0x69,0x74,0x63,0x68,0x69,0x69,0x3a,0x0c,0x40,0x76,0x6f,0x6c,0x75,0x6d,0x65,0x69,0x55))
  TeleportPlayer(0,91,30,32,0,0)
  0()



EVENT   10
 PAGE   1
  250(bytes(0x04,0x08,0x6f,0x3a,0x0c,0x52,0x50,0x47,0x3a,0x3a,0x53,0x45,0x08,0x3a,0x0a,0x40,0x6e,0x61,0x6d,0x65,0x49,0x22,0x09,0x4d,0x6f,0x76,0x65,0x06,0x3a,0x06,0x45,0x54,0x3a,0x0b,0x40,0x70,0x69,0x74,0x63,0x68,0x69,0x69,0x3a,0x0c,0x40,0x76,0x6f,0x6c,0x75,0x6d,0x65,0x69,0x55))
  TeleportPlayer(0,91,30,32,0,0)
  0()



EVENT   1
 PAGE   1
  If(1,1111,0,3,0)
   If(0,2387,0)
    ShowMessageFace("nemea_fc2",2,0,2,1)
    ShowMessage("\\n<ネメア>")
    ShowMessage("あらあら、ウィンドウがこんなに……")
    ShowMessage("困ったわね……")
    ShowMessageFace("",0,0,2,2)
    ShowMessage("ネメアは、ウィルスに冒されたPCに気を取られている。")
    ShowMessage("これでしばらく足止め出来そうだ――")
    205(-1,bytes(0x04,0x08,0x6f,0x3a,0x13,0x52,0x50,0x47,0x3a,0x3a,0x4d,0x6f,0x76,0x65,0x52,0x6f,0x75,0x74,0x65,0x09,0x3a,0x0c,0x40,0x72,0x65,0x70,0x65,0x61,0x74,0x46,0x3a,0x0f,0x40,0x73,0x6b,0x69,0x70,0x70,0x61,0x62,0x6c,0x65,0x46,0x3a,0x0a,0x40,0x77,0x61,0x69,0x74,0x54,0x3a,0x0a,0x40,0x6c,0x69,0x73,0x74,0x5b,0x07,0x6f,0x3a,0x15,0x52,0x50,0x47,0x3a,0x3a,0x4d,0x6f,0x76,0x65,0x43,0x6f,0x6d,0x6d,0x61,0x6e,0x64,0x07,0x3a,0x0a,0x40,0x63,0x6f,0x64,0x65,0x69,0x08,0x3a,0x10,0x40,0x70,0x61,0x72,0x61,0x6d,0x65,0x74,0x65,0x72,0x73,0x5b,0x00,0x6f,0x3b,0x0a,0x07,0x3b,0x0b,0x69,0x00,0x3b,0x0c,0x5b,0x00))
    EndEventProcessing()
    0()
   EndIf()
   0()
  EndIf()
  250(bytes(0x04,0x08,0x6f,0x3a,0x0c,0x52,0x50,0x47,0x3a,0x3a,0x53,0x45,0x08,0x3a,0x0a,0x40,0x6e,0x61,0x6d,0x65,0x49,0x22,0x09,0x4d,0x6f,0x76,0x65,0x06,0x3a,0x06,0x45,0x54,0x3a,0x0b,0x40,0x70,0x69,0x74,0x63,0x68,0x69,0x69,0x3a,0x0c,0x40,0x76,0x6f,0x6c,0x75,0x6d,0x65,0x69,0x55))
  TeleportPlayer(0,153,14,47,0,0)
  If(1,1111,0,1,0)
   205(14,bytes(0x04,0x08,0x6f,0x3a,0x13,0x52,0x50,0x47,0x3a,0x3a,0x4d,0x6f,0x76,0x65,0x52,0x6f,0x75,0x74,0x65,0x09,0x3a,0x0c,0x40,0x72,0x65,0x70,0x65,0x61,0x74,0x46,0x3a,0x0f,0x40,0x73,0x6b,0x69,0x70,0x70,0x61,0x62,0x6c,0x65,0x46,0x3a,0x0a,0x40,0x77,0x61,0x69,0x74,0x54,0x3a,0x0a,0x40,0x6c,0x69,0x73,0x74,0x5b,0x07,0x6f,0x3a,0x15,0x52,0x50,0x47,0x3a,0x3a,0x4d,0x6f,0x76,0x65,0x43,0x6f,0x6d,0x6d,0x61,0x6e,0x64,0x07,0x3a,0x0a,0x40,0x63,0x6f,0x64,0x65,0x69,0x17,0x3a,0x10,0x40,0x70,0x61,0x72,0x61,0x6d,0x65,0x74,0x65,0x72,0x73,0x5b,0x00,0x6f,0x3b,0x0a,0x07,0x3b,0x0b,0x69,0x00,0x3b,0x0c,0x5b,0x00))
   ShowSpeechBalloon(-1,1,false)
   ShowMessageFace("nemea_fc2",2,0,2,3)
   ShowMessage("\\n<ネメア>")
   ShowMessage("……あら？")
   ShowMessageFace("ruka_fc1",0,0,2,4)
   ShowMessage("\\n<Luka>")
   ShowMessage("ネ……ネメア！？")
   ShowMessageFace("",0,0,2,5)
   ShowMessage("まずい、部屋にはネメアがいた――")
   ShowMessage("どうする？")
   DefineLabel("選択")
   355("ex_choice_add(\"戦う\",1)")
   655("ex_choice_add(\"逃げる\",2)")
   655("ex_choice_add(\"爆竹を使う\",3,\"s[2420]\",0)")
   655("ex_choice_add(\"まきびしを使う\",4,\"s[2421]\",0)")
   655("ex_choice_add(\"手榴弾を使う\",5,\"s[2422]\",0)")
   655("ex_choice_add(\"拘束の呪符を使う\",6,\"s[2423]\",0)")
   655("ex_choice_add(\"ラケルの爆石を使う\",7,\"s[2381]\",0)")
   655("ex_choice_add(\"迷宮の書物を使う\",8,\"s[2371]\",0)")
   355("ex_choice_show(0,11,[0,0])")
   If(1,9,0,1,0)
    ShowMessageFace("ruka_fc1",0,0,2,6)
    ShowMessage("\\n<Luka>")
    ShowMessage("くっ、こうなったら……！")
    ShowMessageFace("",0,0,2,7)
    ShowMessage("僕は、剣を構えたが――")
    355("display_skill_name(\"誘惑の魔眼\")")
    Wait(15)
    250(bytes(0x04,0x08,0x6f,0x3a,0x0c,0x52,0x50,0x47,0x3a,0x3a,0x53,0x45,0x08,0x3a,0x0a,0x40,0x6e,0x61,0x6d,0x65,0x49,0x22,0x0e,0x6d,0x6f,0x6e,0x5f,0x66,0x6c,0x61,0x73,0x68,0x06,0x3a,0x06,0x45,0x54,0x3a,0x0b,0x40,0x70,0x69,0x74,0x63,0x68,0x69,0x69,0x3a,0x0c,0x40,0x76,0x6f,0x6c,0x75,0x6d,0x65,0x69,0x69))
    224(bytes(0x04,0x08,0x75,0x3a,0x0a,0x43,0x6f,0x6c,0x6f,0x72,0x25,0x00,0x00,0x00,0x00,0x00,0xe0,0x6f,0x40,0x00,0x00,0x00,0x00,0x00,0x80,0x69,0x40,0x00,0x00,0x00,0x00,0x00,0xe0,0x6f,0x40,0x00,0x00,0x00,0x00,0x00,0xe0,0x6f,0x40),60,true)
    Wait(15)
    355("clear_skill_name")
    ShowMessageFace("ruka_fc1",0,0,2,8)
    ShowMessage("\\n<Luka>")
    ShowMessage("あ、あぁぁ……")
    ShowMessageFace("",0,0,2,9)
    ShowMessage("誘惑の魔力が、たちまち全身を駆け巡った。")
    ShowMessage("体の力が抜け、剣を落としてしまう――")
    JumpToLabel("結果")
    0()
   EndIf()
   If(1,9,0,2,0)
    ShowMessageFace("ruka_fc1",0,0,2,10)
    ShowMessage("\\n<Luka>")
    ShowMessage("くっ、逃げるしかないか……！")
    ShowMessageFace("",0,0,2,11)
    ShowMessage("僕は、そのまま背を向けようとしたが――")
    355("display_skill_name(\"誘惑の魔眼\")")
    Wait(15)
    250(bytes(0x04,0x08,0x6f,0x3a,0x0c,0x52,0x50,0x47,0x3a,0x3a,0x53,0x45,0x08,0x3a,0x0a,0x40,0x6e,0x61,0x6d,0x65,0x49,0x22,0x0e,0x6d,0x6f,0x6e,0x5f,0x66,0x6c,0x61,0x73,0x68,0x06,0x3a,0x06,0x45,0x54,0x3a,0x0b,0x40,0x70,0x69,0x74,0x63,0x68,0x69,0x69,0x3a,0x0c,0x40,0x76,0x6f,0x6c,0x75,0x6d,0x65,0x69,0x69))
    224(bytes(0x04,0x08,0x75,0x3a,0x0a,0x43,0x6f,0x6c,0x6f,0x72,0x25,0x00,0x00,0x00,0x00,0x00,0xe0,0x6f,0x40,0x00,0x00,0x00,0x00,0x00,0x80,0x69,0x40,0x00,0x00,0x00,0x00,0x00,0xe0,0x6f,0x40,0x00,0x00,0x00,0x00,0x00,0xe0,0x6f,0x40),60,true)
    Wait(15)
    355("clear_skill_name")
    ShowMessageFace("ruka_fc1",0,0,2,12)
    ShowMessage("\\n<Luka>")
    ShowMessage("あ、あぁぁ……")
    ShowMessageFace("",0,0,2,13)
    ShowMessage("誘惑の魔力が、たちまち全身を駆け巡った。")
    ShowMessage("体の力が抜け、逃げることさえできない――")
    JumpToLabel("結果")
    0()
   EndIf()
   If(1,9,0,3,0)
    250(bytes(0x04,0x08,0x6f,0x3a,0x0c,0x52,0x50,0x47,0x3a,0x3a,0x53,0x45,0x08,0x3a,0x0a,0x40,0x6e,0x61,0x6d,0x65,0x49,0x22,0x0d,0x62,0x61,0x6b,0x75,0x74,0x69,0x6b,0x75,0x06,0x3a,0x06,0x45,0x54,0x3a,0x0b,0x40,0x70,0x69,0x74,0x63,0x68,0x69,0x69,0x3a,0x0c,0x40,0x76,0x6f,0x6c,0x75,0x6d,0x65,0x69,0x55))
    ShowMessageFace("",0,0,2,14)
    ShowMessage("ルカは爆竹を投げつけた！")
    ShowMessageFace("nemea_fc2",0,0,2,15)
    ShowMessage("\\n<ネメア>")
    ShowMessage("あら、あなたと似てかわいらしいオモチャね。")
    ShowMessage("でも、うるさくしたら「めっ」よ♪")
    JumpToLabel("魔眼")
    0()
   EndIf()
   If(1,9,0,4,0)
    250(bytes(0x04,0x08,0x6f,0x3a,0x0c,0x52,0x50,0x47,0x3a,0x3a,0x53,0x45,0x08,0x3a,0x0a,0x40,0x6e,0x61,0x6d,0x65,0x49,0x22,0x0a,0x57,0x69,0x6e,0x64,0x37,0x06,0x3a,0x06,0x45,0x54,0x3a,0x0b,0x40,0x70,0x69,0x74,0x63,0x68,0x69,0x69,0x3a,0x0c,0x40,0x76,0x6f,0x6c,0x75,0x6d,0x65,0x69,0x55))
    ShowMessageFace("",0,0,2,16)
    ShowMessage("ルカはまきびしをばら撒いた！")
    ShowMessageFace("nemea_fc2",0,0,2,17)
    ShowMessage("\\n<ネメア>")
    ShowMessage("あらあら、忍者ごっこかしら？")
    ShowMessage("お姉さんが敵役になってあげる……♡")
    JumpToLabel("魔眼")
    0()
   EndIf()
   If(1,9,0,5,0)
    212(14,505,false)
    ShowMessageFace("",0,0,2,18)
    ShowMessage("ルカは手榴弾を投げつけた！")
    ShowMessageFace("nemea_fc2",0,0,2,19)
    ShowMessage("\\n<ネメア>")
    ShowMessage("あらあら、そんな玩具は危ないじゃない……")
    ShowMessage("お姉さんと、もっと楽しい遊びをしましょう♪")
    JumpToLabel("魔眼")
    0()
   EndIf()
   If(1,9,0,6,0)
    212(14,35,false)
    ShowMessageFace("",0,0,2,20)
    ShowMessage("ルカは拘束の呪符を使った！")
    ShowMessageFace("nemea_fc2",0,0,2,21)
    ShowMessage("\\n<ネメア>")
    ShowMessage("あら、お札なんて懐かしい術ねぇ。")
    ShowMessage("でも、私には通用しないわ……")
    JumpToLabel("魔眼")
    0()
   EndIf()
   If(1,9,0,7,0)
    212(14,736,false)
    ShowMessageFace("",0,0,2,22)
    ShowMessage("ルカはラケルの爆石を投げつけた！")
    ShowMessageFace("nemea_fc2",0,0,2,23)
    ShowMessage("\\n<ネメア>")
    ShowMessage("あらあら、そんな玩具は危ないじゃない……")
    ShowMessage("お姉さんと、もっと楽しい遊びをしましょう♪")
    JumpToLabel("魔眼")
    0()
   EndIf()
   If(1,9,0,8,0)
    250(bytes(0x04,0x08,0x6f,0x3a,0x0c,0x52,0x50,0x47,0x3a,0x3a,0x53,0x45,0x08,0x3a,0x0a,0x40,0x6e,0x61,0x6d,0x65,0x49,0x22,0x0a,0x42,0x6f,0x6f,0x6b,0x32,0x06,0x3a,0x06,0x45,0x54,0x3a,0x0b,0x40,0x70,0x69,0x74,0x63,0x68,0x69,0x69,0x3a,0x0c,0x40,0x76,0x6f,0x6c,0x75,0x6d,0x65,0x69,0x55))
    ShowMessageFace("",0,0,2,24)
    ShowMessage("ルカは迷宮の書物を開いた！")
    ShowMessageFace("nemea_fc2",2,0,2,25)
    ShowMessage("\\n<ネメア>")
    ShowMessage("これは、移動術式……？")
    Wait(30)
    212(14,542,false)
    Wait(60)
    205(14,bytes(0x04,0x08,0x6f,0x3a,0x13,0x52,0x50,0x47,0x3a,0x3a,0x4d,0x6f,0x76,0x65,0x52,0x6f,0x75,0x74,0x65,0x09,0x3a,0x0c,0x40,0x72,0x65,0x70,0x65,0x61,0x74,0x46,0x3a,0x0f,0x40,0x73,0x6b,0x69,0x70,0x70,0x61,0x62,0x6c,0x65,0x46,0x3a,0x0a,0x40,0x77,0x61,0x69,0x74,0x54,0x3a,0x0a,0x40,0x6c,0x69,0x73,0x74,0x5b,0x07,0x6f,0x3a,0x15,0x52,0x50,0x47,0x3a,0x3a,0x4d,0x6f,0x76,0x65,0x43,0x6f,0x6d,0x6d,0x61,0x6e,0x64,0x07,0x3a,0x0a,0x40,0x63,0x6f,0x64,0x65,0x69,0x2c,0x3a,0x10,0x40,0x70,0x61,0x72,0x61,0x6d,0x65,0x74,0x65,0x72,0x73,0x5b,0x00,0x6f,0x3b,0x0a,0x07,0x3b,0x0b,0x69,0x00,0x3b,0x0c,0x5b,0x00))
    Wait(60)
    ShowMessageFace("ruka_fc1",0,0,2,26)
    ShowMessage("\\n<Luka>")
    ShowMessage("やったか……？")
    Wait(30)
    212(14,542,false)
    Wait(60)
    205(14,bytes(0x04,0x08,0x6f,0x3a,0x13,0x52,0x50,0x47,0x3a,0x3a,0x4d,0x6f,0x76,0x65,0x52,0x6f,0x75,0x74,0x65,0x09,0x3a,0x0c,0x40,0x72,0x65,0x70,0x65,0x61,0x74,0x46,0x3a,0x0f,0x40,0x73,0x6b,0x69,0x70,0x70,0x61,0x62,0x6c,0x65,0x46,0x3a,0x0a,0x40,0x77,0x61,0x69,0x74,0x54,0x3a,0x0a,0x40,0x6c,0x69,0x73,0x74,0x5b,0x07,0x6f,0x3a,0x15,0x52,0x50,0x47,0x3a,0x3a,0x4d,0x6f,0x76,0x65,0x43,0x6f,0x6d,0x6d,0x61,0x6e,0x64,0x07,0x3a,0x0a,0x40,0x63,0x6f,0x64,0x65,0x69,0x2d,0x3a,0x10,0x40,0x70,0x61,0x72,0x61,0x6d,0x65,0x74,0x65,0x72,0x73,0x5b,0x00,0x6f,0x3b,0x0a,0x07,0x3b,0x0b,0x69,0x00,0x3b,0x0c,0x5b,0x00))
    Wait(60)
    ShowMessageFace("nemea_fc2",0,0,2,27)
    ShowMessage("\\n<ネメア>")
    ShowMessage("うふふ……頭を使うゲームの予定はキャンセルよ。")
    ShowMessage("今はあなたの身体を楽しませて欲しいの……♡")
    JumpToLabel("魔眼")
    0()
   EndIf()
   JumpToLabel("選択")
   DefineLabel("魔眼")
   355("display_skill_name(\"誘惑の魔眼\")")
   Wait(15)
   250(bytes(0x04,0x08,0x6f,0x3a,0x0c,0x52,0x50,0x47,0x3a,0x3a,0x53,0x45,0x08,0x3a,0x0a,0x40,0x6e,0x61,0x6d,0x65,0x49,0x22,0x0e,0x6d,0x6f,0x6e,0x5f,0x66,0x6c,0x61,0x73,0x68,0x06,0x3a,0x06,0x45,0x54,0x3a,0x0b,0x40,0x70,0x69,0x74,0x63,0x68,0x69,0x69,0x3a,0x0c,0x40,0x76,0x6f,0x6c,0x75,0x6d,0x65,0x69,0x69))
   224(bytes(0x04,0x08,0x75,0x3a,0x0a,0x43,0x6f,0x6c,0x6f,0x72,0x25,0x00,0x00,0x00,0x00,0x00,0xe0,0x6f,0x40,0x00,0x00,0x00,0x00,0x00,0x80,0x69,0x40,0x00,0x00,0x00,0x00,0x00,0xe0,0x6f,0x40,0x00,0x00,0x00,0x00,0x00,0xe0,0x6f,0x40),60,true)
   Wait(15)
   355("clear_skill_name")
   ShowMessageFace("",0,0,2,28)
   ShowMessage("\\n<Luka>")
   ShowMessage("あ、あぁぁ……")
   ShowMessageFace("",0,0,2,29)
   ShowMessage("誘惑の魔力が、たちまち全身を駆け巡る。")
   ShowMessage("これでは、もはや抵抗もできない――")
   DefineLabel("結果")
   205(14,bytes(0x04,0x08,0x6f,0x3a,0x13,0x52,0x50,0x47,0x3a,0x3a,0x4d,0x6f,0x76,0x65,0x52,0x6f,0x75,0x74,0x65,0x09,0x3a,0x0c,0x40,0x72,0x65,0x70,0x65,0x61,0x74,0x46,0x3a,0x0f,0x40,0x73,0x6b,0x69,0x70,0x70,0x61,0x62,0x6c,0x65,0x46,0x3a,0x0a,0x40,0x77,0x61,0x69,0x74,0x46,0x3a,0x0a,0x40,0x6c,0x69,0x73,0x74,0x5b,0x0e,0x6f,0x3a,0x15,0x52,0x50,0x47,0x3a,0x3a,0x4d,0x6f,0x76,0x65,0x43,0x6f,0x6d,0x6d,0x61,0x6e,0x64,0x07,0x3a,0x0a,0x40,0x63,0x6f,0x64,0x65,0x69,0x08,0x3a,0x10,0x40,0x70,0x61,0x72,0x61,0x6d,0x65,0x74,0x65,0x72,0x73,0x5b,0x00,0x6f,0x3b,0x0a,0x07,0x3b,0x0b,0x69,0x08,0x3b,0x0c,0x5b,0x00,0x6f,0x3b,0x0a,0x07,0x3b,0x0b,0x69,0x06,0x3b,0x0c,0x5b,0x00,0x6f,0x3b,0x0a,0x07,0x3b,0x0b,0x69,0x06,0x3b,0x0c,0x5b,0x00,0x6f,0x3b,0x0a,0x07,0x3b,0x0b,0x69,0x06,0x3b,0x0c,0x5b,0x00,0x6f,0x3b,0x0a,0x07,0x3b,0x0b,0x69,0x08,0x3b,0x0c,0x5b,0x00,0x6f,0x3b,0x0a,0x07,0x3b,0x0b,0x69,0x08,0x3b,0x0c,0x5b,0x00,0x6f,0x3b,0x0a,0x07,0x3b,0x0b,0x69,0x08,0x3b,0x0c,0x5b,0x00,0x6f,0x3b,0x0a,0x07,0x3b,0x0b,0x69,0x00,0x3b,0x0c,0x5b,0x00))
   ShowMessageFace("nemea_fc2",0,0,2,30)
   ShowMessage("\\n<ネメア>")
   ShowMessage("あらあら……")
   ShowMessage("あの子、ずいぶん可愛い助っ人を呼んだのね。")
   ShowMessageFace("nemea_fc2",0,0,2,31)
   ShowMessage("\\n<ネメア>")
   ShowMessage("それも、この世界の人間じゃない……")
   ShowMessage("もしかして、別の世界の勇者……って所かしら？")
   ShowMessageFace("ruka_fc1",0,0,2,32)
   ShowMessage("\\n<Luka>")
   ShowMessage("く、来るな……！")
   ShowMessageFace("nemea_fc2",5,0,2,33)
   ShowMessage("\\n<ネメア>")
   ShowMessage("でも、ずいぶん誘惑には弱いみたいね。")
   ShowMessage("うふふっ……かわいい子……とっても美味しそう♡")
   ShowMessageFace("ruka_fc1",0,0,2,34)
   ShowMessage("\\n<Luka>")
   ShowMessage("うぅぅっ……")
   ShowMessageFace("",0,0,2,35)
   ShowMessage("体からは力が抜け、抵抗も出来ない。")
   ShowMessage("僕はこのまま、ネメアの餌食にされるしかないのだ――")
   ShowMessageFace("nemea_fc2",1,0,2,36)
   ShowMessage("\\n<ネメア>")
   ShowMessage("さあ、こっちにいらっしゃい。")
   ShowMessageFace("ruka_fc1",0,0,2,37)
   ShowMessage("\\n<Luka>")
   ShowMessage("は……はい……")
   205(-1,bytes(0x04,0x08,0x6f,0x3a,0x13,0x52,0x50,0x47,0x3a,0x3a,0x4d,0x6f,0x76,0x65,0x52,0x6f,0x75,0x74,0x65,0x09,0x3a,0x0c,0x40,0x72,0x65,0x70,0x65,0x61,0x74,0x46,0x3a,0x0f,0x40,0x73,0x6b,0x69,0x70,0x70,0x61,0x62,0x6c,0x65,0x46,0x3a,0x0a,0x40,0x77,0x61,0x69,0x74,0x46,0x3a,0x0a,0x40,0x6c,0x69,0x73,0x74,0x5b,0x09,0x6f,0x3a,0x15,0x52,0x50,0x47,0x3a,0x3a,0x4d,0x6f,0x76,0x65,0x43,0x6f,0x6d,0x6d,0x61,0x6e,0x64,0x07,0x3a,0x0a,0x40,0x63,0x6f,0x64,0x65,0x69,0x07,0x3a,0x10,0x40,0x70,0x61,0x72,0x61,0x6d,0x65,0x74,0x65,0x72,0x73,0x5b,0x00,0x6f,0x3b,0x0a,0x07,0x3b,0x0b,0x69,0x07,0x3b,0x0c,0x5b,0x00,0x6f,0x3b,0x0a,0x07,0x3b,0x0b,0x69,0x07,0x3b,0x0c,0x5b,0x00,0x6f,0x3b,0x0a,0x07,0x3b,0x0b,0x69,0x00,0x3b,0x0c,0x5b,0x00))
   ShowMessageFace("",0,0,2,38)
   ShowMessage("誘惑の魔力に冒された体は、ネメアの命令に従うのみ。")
   ShowMessage("そのまま僕は、部屋の中へと入っていった。")
   ChangeSwitch(2408,2408,0)
   RunCommonEvent(5784)
   EndEventProcessing()
   0()
  EndIf()
  0()



EVENT   6
 PAGE   1
  250(bytes(0x04,0x08,0x6f,0x3a,0x0c,0x52,0x50,0x47,0x3a,0x3a,0x53,0x45,0x08,0x3a,0x0a,0x40,0x6e,0x61,0x6d,0x65,0x49,0x22,0x09,0x4d,0x6f,0x76,0x65,0x06,0x3a,0x06,0x45,0x54,0x3a,0x0b,0x40,0x70,0x69,0x74,0x63,0x68,0x69,0x69,0x3a,0x0c,0x40,0x76,0x6f,0x6c,0x75,0x6d,0x65,0x69,0x55))
  TeleportPlayer(0,153,27,34,0,0)
  0()



EVENT   2
 PAGE   1
  250(bytes(0x04,0x08,0x6f,0x3a,0x0c,0x52,0x50,0x47,0x3a,0x3a,0x53,0x45,0x08,0x3a,0x0a,0x40,0x6e,0x61,0x6d,0x65,0x49,0x22,0x09,0x4d,0x6f,0x76,0x65,0x06,0x3a,0x06,0x45,0x54,0x3a,0x0b,0x40,0x70,0x69,0x74,0x63,0x68,0x69,0x69,0x3a,0x0c,0x40,0x76,0x6f,0x6c,0x75,0x6d,0x65,0x69,0x55))
  TeleportPlayer(0,153,13,26,0,0)
  0()



EVENT   5
 PAGE   1
  250(bytes(0x04,0x08,0x6f,0x3a,0x0c,0x52,0x50,0x47,0x3a,0x3a,0x53,0x45,0x08,0x3a,0x0a,0x40,0x6e,0x61,0x6d,0x65,0x49,0x22,0x09,0x4d,0x6f,0x76,0x65,0x06,0x3a,0x06,0x45,0x54,0x3a,0x0b,0x40,0x70,0x69,0x74,0x63,0x68,0x69,0x69,0x3a,0x0c,0x40,0x76,0x6f,0x6c,0x75,0x6d,0x65,0x69,0x55))
  TeleportPlayer(0,153,27,27,0,0)
  0()



EVENT   7
 PAGE   1
  250(bytes(0x04,0x08,0x6f,0x3a,0x0c,0x52,0x50,0x47,0x3a,0x3a,0x53,0x45,0x08,0x3a,0x0a,0x40,0x6e,0x61,0x6d,0x65,0x49,0x22,0x09,0x4d,0x6f,0x76,0x65,0x06,0x3a,0x06,0x45,0x54,0x3a,0x0b,0x40,0x70,0x69,0x74,0x63,0x68,0x69,0x69,0x3a,0x0c,0x40,0x76,0x6f,0x6c,0x75,0x6d,0x65,0x69,0x55))
  TeleportPlayer(0,153,32,58,0,0)
  0()



EVENT   11
 PAGE   1
  250(bytes(0x04,0x08,0x6f,0x3a,0x0c,0x52,0x50,0x47,0x3a,0x3a,0x53,0x45,0x08,0x3a,0x0a,0x40,0x6e,0x61,0x6d,0x65,0x49,0x22,0x09,0x4d,0x6f,0x76,0x65,0x06,0x3a,0x06,0x45,0x54,0x3a,0x0b,0x40,0x70,0x69,0x74,0x63,0x68,0x69,0x69,0x3a,0x0c,0x40,0x76,0x6f,0x6c,0x75,0x6d,0x65,0x69,0x55))
  TeleportPlayer(0,153,33,10,0,0)
  0()



EVENT   3
 PAGE   1
  ChangeSwitch(32,32,1)
  250(bytes(0x04,0x08,0x6f,0x3a,0x0c,0x52,0x50,0x47,0x3a,0x3a,0x53,0x45,0x08,0x3a,0x0a,0x40,0x6e,0x61,0x6d,0x65,0x49,0x22,0x09,0x4d,0x6f,0x76,0x65,0x06,0x3a,0x06,0x45,0x54,0x3a,0x0b,0x40,0x70,0x69,0x74,0x63,0x68,0x69,0x69,0x3a,0x0c,0x40,0x76,0x6f,0x6c,0x75,0x6d,0x65,0x69,0x55))
  TeleportPlayer(0,153,3,7,0,0)
  If(1,1111,0,1,0)
   ChangeSwitch(2412,2412,0)
   RunCommonEvent(5788)
   EndEventProcessing()
   0()
  EndIf()
  If(1,1111,0,2,0)
   ShowSpeechBalloon(-1,1,false)
   205(-1,bytes(0x04,0x08,0x6f,0x3a,0x13,0x52,0x50,0x47,0x3a,0x3a,0x4d,0x6f,0x76,0x65,0x52,0x6f,0x75,0x74,0x65,0x09,0x3a,0x0c,0x40,0x72,0x65,0x70,0x65,0x61,0x74,0x46,0x3a,0x0f,0x40,0x73,0x6b,0x69,0x70,0x70,0x61,0x62,0x6c,0x65,0x46,0x3a,0x0a,0x40,0x77,0x61,0x69,0x74,0x54,0x3a,0x0a,0x40,0x6c,0x69,0x73,0x74,0x5b,0x07,0x6f,0x3a,0x15,0x52,0x50,0x47,0x3a,0x3a,0x4d,0x6f,0x76,0x65,0x43,0x6f,0x6d,0x6d,0x61,0x6e,0x64,0x07,0x3a,0x0a,0x40,0x63,0x6f,0x64,0x65,0x69,0x15,0x3a,0x10,0x40,0x70,0x61,0x72,0x61,0x6d,0x65,0x74,0x65,0x72,0x73,0x5b,0x00,0x6f,0x3b,0x0a,0x07,0x3b,0x0b,0x69,0x00,0x3b,0x0c,0x5b,0x00))
   205(19,bytes(0x04,0x08,0x6f,0x3a,0x13,0x52,0x50,0x47,0x3a,0x3a,0x4d,0x6f,0x76,0x65,0x52,0x6f,0x75,0x74,0x65,0x09,0x3a,0x0c,0x40,0x72,0x65,0x70,0x65,0x61,0x74,0x46,0x3a,0x0f,0x40,0x73,0x6b,0x69,0x70,0x70,0x61,0x62,0x6c,0x65,0x46,0x3a,0x0a,0x40,0x77,0x61,0x69,0x74,0x54,0x3a,0x0a,0x40,0x6c,0x69,0x73,0x74,0x5b,0x07,0x6f,0x3a,0x15,0x52,0x50,0x47,0x3a,0x3a,0x4d,0x6f,0x76,0x65,0x43,0x6f,0x6d,0x6d,0x61,0x6e,0x64,0x07,0x3a,0x0a,0x40,0x63,0x6f,0x64,0x65,0x69,0x18,0x3a,0x10,0x40,0x70,0x61,0x72,0x61,0x6d,0x65,0x74,0x65,0x72,0x73,0x5b,0x00,0x6f,0x3b,0x0a,0x07,0x3b,0x0b,0x69,0x00,0x3b,0x0c,0x5b,0x00))
   ShowMessageFace("vinum_fc2",2,0,2,1)
   ShowMessage("\\n<ヴィヌム>")
   ShowMessage("……誰じゃ？")
   ShowMessageFace("ruka_fc1",0,0,2,2)
   ShowMessage("\\n<Luka>")
   ShowMessage("ヴィヌム……！")
   ShowMessageFace("",0,0,2,3)
   ShowMessage("やはり、ヴィヌムは部屋にいた。")
   ShowMessage("この場をなんとか乗り切らないと、脱出は不可能だ――")
   ShowMessageFace("vinum_fc2",2,0,2,4)
   ShowMessage("\\n<ヴィヌム>")
   ShowMessage("ほう……そのたたずまい、異世界の戦士か。")
   ShowMessageFace("vinum_fc2",0,0,2,5)
   ShowMessage("\\n<ヴィヌム>")
   ShowMessage("それも、見た目以上の強者……")
   ShowMessage("呼び出したのは、あの小僧じゃな。")
   Wait(30)
   212(19,542,false)
   Wait(60)
   ChangeSwitch(35,35,0)
   Wait(60)
   ShowMessageFace("",0,0,2,6)
   ShowMessage("ヴィヌムはサキュバスの姿となった！")
   ShowMessageFace("vinum_fc1",0,0,2,7)
   ShowMessage("\\n<ヴィヌム>")
   ShowMessage("それで、ここに何の用かのう。")
   ShowMessage("わざわざ儂を討ちにでも来たのかや……？")
   ShowMessageFace("ruka_fc1",0,0,2,8)
   ShowMessage("\\n<Luka>")
   ShowMessage("ぐっ……！")
   ShowMessageFace("",0,0,2,9)
   ShowMessage("きつい状況だが、ここで逃げるわけにはいかない。")
   ShowMessage("目的の品は、ヴィヌムをどうにかしなければ手に入らないのだ。")
   DefineLabel("選択")
   355("ex_choice_add(\"戦う\",1)")
   655("ex_choice_add(\"爆竹を使う\",3,\"s[2420]\",0)")
   655("ex_choice_add(\"まきびしを使う\",4,\"s[2421]\",0)")
   655("ex_choice_add(\"手榴弾を使う\",5,\"s[2422]\",0)")
   655("ex_choice_add(\"拘束の呪符を使う\",6,\"s[2423]\",0)")
   655("ex_choice_add(\"ラケルの爆石を使う\",7,\"s[2381]\",0)")
   655("ex_choice_add(\"迷宮の書物を使う\",8,\"s[2371]\",0)")
   355("ex_choice_show(0,11,[0,0])")
   If(1,9,0,1,0)
    205(-1,bytes(0x04,0x08,0x6f,0x3a,0x13,0x52,0x50,0x47,0x3a,0x3a,0x4d,0x6f,0x76,0x65,0x52,0x6f,0x75,0x74,0x65,0x09,0x3a,0x0c,0x40,0x72,0x65,0x70,0x65,0x61,0x74,0x46,0x3a,0x0f,0x40,0x73,0x6b,0x69,0x70,0x70,0x61,0x62,0x6c,0x65,0x46,0x3a,0x0a,0x40,0x77,0x61,0x69,0x74,0x46,0x3a,0x0a,0x40,0x6c,0x69,0x73,0x74,0x5b,0x08,0x6f,0x3a,0x15,0x52,0x50,0x47,0x3a,0x3a,0x4d,0x6f,0x76,0x65,0x43,0x6f,0x6d,0x6d,0x61,0x6e,0x64,0x07,0x3a,0x0a,0x40,0x63,0x6f,0x64,0x65,0x69,0x08,0x3a,0x10,0x40,0x70,0x61,0x72,0x61,0x6d,0x65,0x74,0x65,0x72,0x73,0x5b,0x00,0x6f,0x3b,0x0a,0x07,0x3b,0x0b,0x69,0x15,0x3b,0x0c,0x5b,0x00,0x6f,0x3b,0x0a,0x07,0x3b,0x0b,0x69,0x00,0x3b,0x0c,0x5b,0x00))
    ShowMessageFace("ruka_fc1",0,0,2,10)
    ShowMessage("\\n<Luka>")
    ShowMessage("やるしかないか……！")
    ShowMessage("僕は勇者ルカ！　行くぞ！")
    ShowMessageFace("",0,0,2,11)
    ShowMessage("僕は、剣を構えた。")
    ShowMessage("そのまま、一気に踏み込もうとしたが――")
    355("display_skill_name(\"脱力の魔眼\")")
    Wait(15)
    250(bytes(0x04,0x08,0x6f,0x3a,0x0c,0x52,0x50,0x47,0x3a,0x3a,0x53,0x45,0x08,0x3a,0x0a,0x40,0x6e,0x61,0x6d,0x65,0x49,0x22,0x0e,0x6d,0x6f,0x6e,0x5f,0x66,0x6c,0x61,0x73,0x68,0x06,0x3a,0x06,0x45,0x54,0x3a,0x0b,0x40,0x70,0x69,0x74,0x63,0x68,0x69,0x69,0x3a,0x0c,0x40,0x76,0x6f,0x6c,0x75,0x6d,0x65,0x69,0x69))
    224(bytes(0x04,0x08,0x75,0x3a,0x0a,0x43,0x6f,0x6c,0x6f,0x72,0x25,0x00,0x00,0x00,0x00,0x00,0xe0,0x6f,0x40,0x00,0x00,0x00,0x00,0x00,0x80,0x69,0x40,0x00,0x00,0x00,0x00,0x00,0xe0,0x6f,0x40,0x00,0x00,0x00,0x00,0x00,0xe0,0x6f,0x40),60,true)
    Wait(15)
    355("clear_skill_name")
    ShowMessageFace("ruka_fc1",0,0,2,12)
    ShowMessage("\\n<Luka>")
    ShowMessage("あ、あぁぁ……")
    ShowMessageFace("",0,0,2,13)
    ShowMessage("魔眼の直撃を受け、体から力が抜けていく。")
    ShowMessage("ヴィヌムを前にして、剣を取り落としてしまった――")
    JumpToLabel("結果")
    0()
   EndIf()
   If(1,9,0,3,0)
    205(-1,bytes(0x04,0x08,0x6f,0x3a,0x13,0x52,0x50,0x47,0x3a,0x3a,0x4d,0x6f,0x76,0x65,0x52,0x6f,0x75,0x74,0x65,0x09,0x3a,0x0c,0x40,0x72,0x65,0x70,0x65,0x61,0x74,0x46,0x3a,0x0f,0x40,0x73,0x6b,0x69,0x70,0x70,0x61,0x62,0x6c,0x65,0x46,0x3a,0x0a,0x40,0x77,0x61,0x69,0x74,0x46,0x3a,0x0a,0x40,0x6c,0x69,0x73,0x74,0x5b,0x08,0x6f,0x3a,0x15,0x52,0x50,0x47,0x3a,0x3a,0x4d,0x6f,0x76,0x65,0x43,0x6f,0x6d,0x6d,0x61,0x6e,0x64,0x07,0x3a,0x0a,0x40,0x63,0x6f,0x64,0x65,0x69,0x08,0x3a,0x10,0x40,0x70,0x61,0x72,0x61,0x6d,0x65,0x74,0x65,0x72,0x73,0x5b,0x00,0x6f,0x3b,0x0a,0x07,0x3b,0x0b,0x69,0x15,0x3b,0x0c,0x5b,0x00,0x6f,0x3b,0x0a,0x07,0x3b,0x0b,0x69,0x00,0x3b,0x0c,0x5b,0x00))
    250(bytes(0x04,0x08,0x6f,0x3a,0x0c,0x52,0x50,0x47,0x3a,0x3a,0x53,0x45,0x08,0x3a,0x0a,0x40,0x6e,0x61,0x6d,0x65,0x49,0x22,0x0d,0x62,0x61,0x6b,0x75,0x74,0x69,0x6b,0x75,0x06,0x3a,0x06,0x45,0x54,0x3a,0x0b,0x40,0x70,0x69,0x74,0x63,0x68,0x69,0x69,0x3a,0x0c,0x40,0x76,0x6f,0x6c,0x75,0x6d,0x65,0x69,0x55))
    ShowMessageFace("",0,0,2,14)
    ShowMessage("ルカは爆竹を投げつけた！")
    ShowMessageFace("vinum_fc2",2,0,2,15)
    ShowMessage("\\n<ヴィヌム>")
    ShowMessage("……なんじゃ、それは。")
    ShowMessage("火遊びのつもりか？")
    JumpToLabel("魔眼")
    0()
   EndIf()
   If(1,9,0,4,0)
    205(-1,bytes(0x04,0x08,0x6f,0x3a,0x13,0x52,0x50,0x47,0x3a,0x3a,0x4d,0x6f,0x76,0x65,0x52,0x6f,0x75,0x74,0x65,0x09,0x3a,0x0c,0x40,0x72,0x65,0x70,0x65,0x61,0x74,0x46,0x3a,0x0f,0x40,0x73,0x6b,0x69,0x70,0x70,0x61,0x62,0x6c,0x65,0x46,0x3a,0x0a,0x40,0x77,0x61,0x69,0x74,0x46,0x3a,0x0a,0x40,0x6c,0x69,0x73,0x74,0x5b,0x08,0x6f,0x3a,0x15,0x52,0x50,0x47,0x3a,0x3a,0x4d,0x6f,0x76,0x65,0x43,0x6f,0x6d,0x6d,0x61,0x6e,0x64,0x07,0x3a,0x0a,0x40,0x63,0x6f,0x64,0x65,0x69,0x08,0x3a,0x10,0x40,0x70,0x61,0x72,0x61,0x6d,0x65,0x74,0x65,0x72,0x73,0x5b,0x00,0x6f,0x3b,0x0a,0x07,0x3b,0x0b,0x69,0x15,0x3b,0x0c,0x5b,0x00,0x6f,0x3b,0x0a,0x07,0x3b,0x0b,0x69,0x00,0x3b,0x0c,0x5b,0x00))
    250(bytes(0x04,0x08,0x6f,0x3a,0x0c,0x52,0x50,0x47,0x3a,0x3a,0x53,0x45,0x08,0x3a,0x0a,0x40,0x6e,0x61,0x6d,0x65,0x49,0x22,0x0a,0x57,0x69,0x6e,0x64,0x37,0x06,0x3a,0x06,0x45,0x54,0x3a,0x0b,0x40,0x70,0x69,0x74,0x63,0x68,0x69,0x69,0x3a,0x0c,0x40,0x76,0x6f,0x6c,0x75,0x6d,0x65,0x69,0x55))
    ShowMessageFace("",0,0,2,16)
    ShowMessage("ルカはまきびしをばら撒いた！")
    ShowMessageFace("vinum_fc2",2,0,2,17)
    ShowMessage("\\n<ヴィヌム>")
    ShowMessage("ゴミなんぞ撒いてどうするつもりじゃ。")
    ShowMessage("全く……期待外れじゃな。")
    JumpToLabel("魔眼")
    0()
   EndIf()
   If(1,9,0,5,0)
    205(-1,bytes(0x04,0x08,0x6f,0x3a,0x13,0x52,0x50,0x47,0x3a,0x3a,0x4d,0x6f,0x76,0x65,0x52,0x6f,0x75,0x74,0x65,0x09,0x3a,0x0c,0x40,0x72,0x65,0x70,0x65,0x61,0x74,0x46,0x3a,0x0f,0x40,0x73,0x6b,0x69,0x70,0x70,0x61,0x62,0x6c,0x65,0x46,0x3a,0x0a,0x40,0x77,0x61,0x69,0x74,0x46,0x3a,0x0a,0x40,0x6c,0x69,0x73,0x74,0x5b,0x08,0x6f,0x3a,0x15,0x52,0x50,0x47,0x3a,0x3a,0x4d,0x6f,0x76,0x65,0x43,0x6f,0x6d,0x6d,0x61,0x6e,0x64,0x07,0x3a,0x0a,0x40,0x63,0x6f,0x64,0x65,0x69,0x08,0x3a,0x10,0x40,0x70,0x61,0x72,0x61,0x6d,0x65,0x74,0x65,0x72,0x73,0x5b,0x00,0x6f,0x3b,0x0a,0x07,0x3b,0x0b,0x69,0x15,0x3b,0x0c,0x5b,0x00,0x6f,0x3b,0x0a,0x07,0x3b,0x0b,0x69,0x00,0x3b,0x0c,0x5b,0x00))
    212(19,505,false)
    ShowMessageFace("",0,0,2,18)
    ShowMessage("ルカは手榴弾を投げつけた！")
    ShowMessageFace("vinum_fc2",2,0,2,19)
    ShowMessage("\\n<ヴィヌム>")
    ShowMessage("そんな戯具で、儂がどうにかなるとでも思ったか？")
    ShowMessage("つくづく、舐められたものじゃな……")
    JumpToLabel("魔眼")
    0()
   EndIf()
   If(1,9,0,6,0)
    205(-1,bytes(0x04,0x08,0x6f,0x3a,0x13,0x52,0x50,0x47,0x3a,0x3a,0x4d,0x6f,0x76,0x65,0x52,0x6f,0x75,0x74,0x65,0x09,0x3a,0x0c,0x40,0x72,0x65,0x70,0x65,0x61,0x74,0x46,0x3a,0x0f,0x40,0x73,0x6b,0x69,0x70,0x70,0x61,0x62,0x6c,0x65,0x46,0x3a,0x0a,0x40,0x77,0x61,0x69,0x74,0x46,0x3a,0x0a,0x40,0x6c,0x69,0x73,0x74,0x5b,0x08,0x6f,0x3a,0x15,0x52,0x50,0x47,0x3a,0x3a,0x4d,0x6f,0x76,0x65,0x43,0x6f,0x6d,0x6d,0x61,0x6e,0x64,0x07,0x3a,0x0a,0x40,0x63,0x6f,0x64,0x65,0x69,0x08,0x3a,0x10,0x40,0x70,0x61,0x72,0x61,0x6d,0x65,0x74,0x65,0x72,0x73,0x5b,0x00,0x6f,0x3b,0x0a,0x07,0x3b,0x0b,0x69,0x15,0x3b,0x0c,0x5b,0x00,0x6f,0x3b,0x0a,0x07,0x3b,0x0b,0x69,0x00,0x3b,0x0c,0x5b,0x00))
    212(19,35,false)
    ShowMessageFace("",0,0,2,20)
    ShowMessage("ルカは拘束の呪符を使った！")
    ShowMessageFace("vinum_fc2",2,0,2,21)
    ShowMessage("\\n<ヴィヌム>")
    ShowMessage("ほう……呪符使いとは意外じゃのう……")
    ShowMessage("じゃが、この程度で儂を縛れると思ったか？")
    JumpToLabel("魔眼")
    0()
   EndIf()
   If(1,9,0,7,0)
    205(-1,bytes(0x04,0x08,0x6f,0x3a,0x13,0x52,0x50,0x47,0x3a,0x3a,0x4d,0x6f,0x76,0x65,0x52,0x6f,0x75,0x74,0x65,0x09,0x3a,0x0c,0x40,0x72,0x65,0x70,0x65,0x61,0x74,0x46,0x3a,0x0f,0x40,0x73,0x6b,0x69,0x70,0x70,0x61,0x62,0x6c,0x65,0x46,0x3a,0x0a,0x40,0x77,0x61,0x69,0x74,0x46,0x3a,0x0a,0x40,0x6c,0x69,0x73,0x74,0x5b,0x08,0x6f,0x3a,0x15,0x52,0x50,0x47,0x3a,0x3a,0x4d,0x6f,0x76,0x65,0x43,0x6f,0x6d,0x6d,0x61,0x6e,0x64,0x07,0x3a,0x0a,0x40,0x63,0x6f,0x64,0x65,0x69,0x08,0x3a,0x10,0x40,0x70,0x61,0x72,0x61,0x6d,0x65,0x74,0x65,0x72,0x73,0x5b,0x00,0x6f,0x3b,0x0a,0x07,0x3b,0x0b,0x69,0x15,0x3b,0x0c,0x5b,0x00,0x6f,0x3b,0x0a,0x07,0x3b,0x0b,0x69,0x00,0x3b,0x0c,0x5b,0x00))
    212(19,736,false)
    ShowMessageFace("",0,0,2,22)
    ShowMessage("ルカはラケルの爆石を投げつけた！")
    ShowMessageFace("vinum_fc2",2,0,2,23)
    ShowMessage("\\n<ヴィヌム>")
    ShowMessage("そんな戯具で、儂がどうにかなるとでも思ったか？")
    ShowMessage("つくづく、舐められたものじゃな……")
    JumpToLabel("魔眼")
    0()
   EndIf()
   If(1,9,0,8,0)
    205(-1,bytes(0x04,0x08,0x6f,0x3a,0x13,0x52,0x50,0x47,0x3a,0x3a,0x4d,0x6f,0x76,0x65,0x52,0x6f,0x75,0x74,0x65,0x09,0x3a,0x0c,0x40,0x72,0x65,0x70,0x65,0x61,0x74,0x46,0x3a,0x0f,0x40,0x73,0x6b,0x69,0x70,0x70,0x61,0x62,0x6c,0x65,0x46,0x3a,0x0a,0x40,0x77,0x61,0x69,0x74,0x46,0x3a,0x0a,0x40,0x6c,0x69,0x73,0x74,0x5b,0x08,0x6f,0x3a,0x15,0x52,0x50,0x47,0x3a,0x3a,0x4d,0x6f,0x76,0x65,0x43,0x6f,0x6d,0x6d,0x61,0x6e,0x64,0x07,0x3a,0x0a,0x40,0x63,0x6f,0x64,0x65,0x69,0x08,0x3a,0x10,0x40,0x70,0x61,0x72,0x61,0x6d,0x65,0x74,0x65,0x72,0x73,0x5b,0x00,0x6f,0x3b,0x0a,0x07,0x3b,0x0b,0x69,0x15,0x3b,0x0c,0x5b,0x00,0x6f,0x3b,0x0a,0x07,0x3b,0x0b,0x69,0x00,0x3b,0x0c,0x5b,0x00))
    ShowMessageFace("ruka_fc1",0,0,2,24)
    ShowMessage("\\n<Luka>")
    ShowMessage("ヴィヌム、これは僕からの……")
    ShowMessage("勇者からの挑戦だ！")
    250(bytes(0x04,0x08,0x6f,0x3a,0x0c,0x52,0x50,0x47,0x3a,0x3a,0x53,0x45,0x08,0x3a,0x0a,0x40,0x6e,0x61,0x6d,0x65,0x49,0x22,0x0a,0x42,0x6f,0x6f,0x6b,0x32,0x06,0x3a,0x06,0x45,0x54,0x3a,0x0b,0x40,0x70,0x69,0x74,0x63,0x68,0x69,0x69,0x3a,0x0c,0x40,0x76,0x6f,0x6c,0x75,0x6d,0x65,0x69,0x55))
    ShowMessageFace("",0,0,2,25)
    ShowMessage("迷宮の書物をヴィヌムに向けて開いた！")
    ShowMessage("本の魔力が、彼女を迷宮空間へと引き込む――")
    ShowMessageFace("vinum_fc1",2,0,2,26)
    ShowMessage("\\n<ヴィヌム>")
    ShowMessage("これは……儂の知らんアイテムじゃな。")
    ShowMessage("異空間転送魔術の類いか……")
    ShowMessageFace("ruka_fc1",0,0,2,27)
    ShowMessage("\\n<Luka>")
    ShowMessage("お前の行く先は、頭脳を試す謎解きの迷宮……")
    ShowMessage("出来るものなら、その知力を使って脱出してみろ！")
    ShowMessageFace("",0,0,2,28)
    ShowMessage("僕は、あえてヴィヌムを挑発した。")
    ShowMessage("彼女なら、謎解きを無視して迷宮を破壊する事も可能――")
    ShowMessageFace("",0,0,2,29)
    ShowMessage("そんな事になれば、足止めにはならない。")
    ShowMessage("少しでも長く、迷宮の中にいてもらわなければ――")
    ShowMessageFace("vinum_fc1",1,0,2,30)
    ShowMessage("\\n<ヴィヌム>")
    ShowMessage("ほう、面白い……")
    ShowMessage("見え透いた挑発だが、退屈していたところよ。")
    ShowMessageFace("vinum_fc1",1,0,2,31)
    ShowMessage("\\n<ヴィヌム>")
    ShowMessage("勇者の挑戦、乗ってやろうぞ。")
    ShowMessage("儂の帰還を待っているがいい……")
    Wait(30)
    212(19,542,false)
    Wait(60)
    205(19,bytes(0x04,0x08,0x6f,0x3a,0x13,0x52,0x50,0x47,0x3a,0x3a,0x4d,0x6f,0x76,0x65,0x52,0x6f,0x75,0x74,0x65,0x09,0x3a,0x0c,0x40,0x72,0x65,0x70,0x65,0x61,0x74,0x46,0x3a,0x0f,0x40,0x73,0x6b,0x69,0x70,0x70,0x61,0x62,0x6c,0x65,0x46,0x3a,0x0a,0x40,0x77,0x61,0x69,0x74,0x54,0x3a,0x0a,0x40,0x6c,0x69,0x73,0x74,0x5b,0x07,0x6f,0x3a,0x15,0x52,0x50,0x47,0x3a,0x3a,0x4d,0x6f,0x76,0x65,0x43,0x6f,0x6d,0x6d,0x61,0x6e,0x64,0x07,0x3a,0x0a,0x40,0x63,0x6f,0x64,0x65,0x69,0x2c,0x3a,0x10,0x40,0x70,0x61,0x72,0x61,0x6d,0x65,0x74,0x65,0x72,0x73,0x5b,0x00,0x6f,0x3b,0x0a,0x07,0x3b,0x0b,0x69,0x00,0x3b,0x0c,0x5b,0x00))
    Wait(60)
    ShowMessageFace("",0,0,2,32)
    ShowMessage("そのままヴィヌムは、本の中に消えていった――")
    ShowMessage("書物に囚われ、迷宮に送り込まれたのだ。")
    ShowMessageFace("ruka_fc1",0,0,2,33)
    ShowMessage("\\n<Luka>")
    ShowMessage("誰が大人しく待ってるもんか……")
    ShowMessage("さあ、黒い宝石とやらを探さないと。")
    ShowMessageFace("",0,0,2,34)
    ShowMessage("急がなければ、ピザ屋がこの家に着いてしまう。")
    ShowMessage("迷宮の書物の足止めも、いつまで持つか分からないのだ。")
    ShowMessageFace("",0,0,2,35)
    ShowMessage("一刻も早く、脱出の鍵となる宝石を見付けなければ。")
    ShowMessage("この部屋にあるのは、間違いないようだが――")
    ChangeSwitch(35,35,1)
    ChangeVariable(1111,1111,0,0,3)
    EndEventProcessing()
    0()
   EndIf()
   JumpToLabel("選択")
   DefineLabel("魔眼")
   355("display_skill_name(\"脱力の魔眼\")")
   Wait(15)
   250(bytes(0x04,0x08,0x6f,0x3a,0x0c,0x52,0x50,0x47,0x3a,0x3a,0x53,0x45,0x08,0x3a,0x0a,0x40,0x6e,0x61,0x6d,0x65,0x49,0x22,0x0e,0x6d,0x6f,0x6e,0x5f,0x66,0x6c,0x61,0x73,0x68,0x06,0x3a,0x06,0x45,0x54,0x3a,0x0b,0x40,0x70,0x69,0x74,0x63,0x68,0x69,0x69,0x3a,0x0c,0x40,0x76,0x6f,0x6c,0x75,0x6d,0x65,0x69,0x69))
   224(bytes(0x04,0x08,0x75,0x3a,0x0a,0x43,0x6f,0x6c,0x6f,0x72,0x25,0x00,0x00,0x00,0x00,0x00,0xe0,0x6f,0x40,0x00,0x00,0x00,0x00,0x00,0x80,0x69,0x40,0x00,0x00,0x00,0x00,0x00,0xe0,0x6f,0x40,0x00,0x00,0x00,0x00,0x00,0xe0,0x6f,0x40),60,true)
   Wait(15)
   355("clear_skill_name")
   ShowMessageFace("ruka_fc1",0,0,2,36)
   ShowMessage("\\n<Luka>")
   ShowMessage("あ、あぁぁ……")
   ShowMessageFace("",0,0,2,37)
   ShowMessage("魔眼の直撃を受け、体から力が抜けていく。")
   ShowMessage("ヴィヌムを前にして、戦意を失ってしまった――")
   DefineLabel("結果")
   ChangeSwitch(2414,2414,0)
   RunCommonEvent(5789)
   EndEventProcessing()
   0()
  EndIf()
  0()



EVENT   4
 PAGE   1
  If(0,2390,1)
   ShowMessageFace("",0,0,2,1)
   ShowMessage("まだ、黒い宝石とやらを見付けていない……")
   ShowMessage("ここから出るのは、目的の品を手に入れてからだ。")
   205(-1,bytes(0x04,0x08,0x6f,0x3a,0x13,0x52,0x50,0x47,0x3a,0x3a,0x4d,0x6f,0x76,0x65,0x52,0x6f,0x75,0x74,0x65,0x09,0x3a,0x0c,0x40,0x72,0x65,0x70,0x65,0x61,0x74,0x46,0x3a,0x0f,0x40,0x73,0x6b,0x69,0x70,0x70,0x61,0x62,0x6c,0x65,0x46,0x3a,0x0a,0x40,0x77,0x61,0x69,0x74,0x54,0x3a,0x0a,0x40,0x6c,0x69,0x73,0x74,0x5b,0x07,0x6f,0x3a,0x15,0x52,0x50,0x47,0x3a,0x3a,0x4d,0x6f,0x76,0x65,0x43,0x6f,0x6d,0x6d,0x61,0x6e,0x64,0x07,0x3a,0x0a,0x40,0x63,0x6f,0x64,0x65,0x69,0x08,0x3a,0x10,0x40,0x70,0x61,0x72,0x61,0x6d,0x65,0x74,0x65,0x72,0x73,0x5b,0x00,0x6f,0x3b,0x0a,0x07,0x3b,0x0b,0x69,0x00,0x3b,0x0c,0x5b,0x00))
   EndEventProcessing()
   0()
  Else()
   If(0,2387,1)
    ChangeSwitch(32,32,0)
    0()
   EndIf()
   250(bytes(0x04,0x08,0x6f,0x3a,0x0c,0x52,0x50,0x47,0x3a,0x3a,0x53,0x45,0x08,0x3a,0x0a,0x40,0x6e,0x61,0x6d,0x65,0x49,0x22,0x09,0x4d,0x6f,0x76,0x65,0x06,0x3a,0x06,0x45,0x54,0x3a,0x0b,0x40,0x70,0x69,0x74,0x63,0x68,0x69,0x69,0x3a,0x0c,0x40,0x76,0x6f,0x6c,0x75,0x6d,0x65,0x69,0x55))
   TeleportPlayer(0,153,28,30,0,0)
   If(0,2387,1)
    205(-1,bytes(0x04,0x08,0x6f,0x3a,0x13,0x52,0x50,0x47,0x3a,0x3a,0x4d,0x6f,0x76,0x65,0x52,0x6f,0x75,0x74,0x65,0x09,0x3a,0x0c,0x40,0x72,0x65,0x70,0x65,0x61,0x74,0x46,0x3a,0x0f,0x40,0x73,0x6b,0x69,0x70,0x70,0x61,0x62,0x6c,0x65,0x46,0x3a,0x0a,0x40,0x77,0x61,0x69,0x74,0x54,0x3a,0x0a,0x40,0x6c,0x69,0x73,0x74,0x5b,0x07,0x6f,0x3a,0x15,0x52,0x50,0x47,0x3a,0x3a,0x4d,0x6f,0x76,0x65,0x43,0x6f,0x6d,0x6d,0x61,0x6e,0x64,0x07,0x3a,0x0a,0x40,0x63,0x6f,0x64,0x65,0x69,0x15,0x3a,0x10,0x40,0x70,0x61,0x72,0x61,0x6d,0x65,0x74,0x65,0x72,0x73,0x5b,0x00,0x6f,0x3b,0x0a,0x07,0x3b,0x0b,0x69,0x00,0x3b,0x0c,0x5b,0x00))
    ShowSpeechBalloon(-1,1,false)
    ShowMessageFace("nemea_fc2",2,0,2,2)
    ShowMessage("\\n<ネメア>")
    ShowMessage("あら……見慣れない子ね。")
    ShowMessageFace("nemea_fc2",0,0,2,3)
    ShowMessage("\\n<ネメア>")
    ShowMessage("もしかして……")
    ShowMessage("あの子がよその世界から、呼び出したのかしら？")
    ShowMessageFace("ruka_fc1",0,0,2,4)
    ShowMessage("\\n<Luka>")
    ShowMessage("くっ……ネメア！")
    ShowMessageFace("",0,0,2,5)
    ShowMessage("まさか、ここでばったり出くわすなんて――")
    DefineLabel("選択")
    355("ex_choice_add(\"戦う\",1)")
    655("ex_choice_add(\"逃げる\",2)")
    655("ex_choice_add(\"爆竹を使う\",3,\"s[2420]\",0)")
    655("ex_choice_add(\"まきびしを使う\",4,\"s[2421]\",0)")
    655("ex_choice_add(\"手榴弾を使う\",5,\"s[2422]\",0)")
    655("ex_choice_add(\"拘束の呪符を使う\",6,\"s[2423]\",0)")
    655("ex_choice_add(\"ラケルの爆石を使う\",7,\"s[2381]\",0)")
    655("ex_choice_add(\"迷宮の書物を使う\",8,\"s[2371]\",0)")
    355("ex_choice_show(0,11,[0,0])")
    If(1,9,0,1,0)
     ShowMessageFace("ruka_fc1",0,0,2,6)
     ShowMessage("\\n<Luka>")
     ShowMessage("こうなったら、いっそ……！")
     ShowMessageFace("",0,0,2,7)
     ShowMessage("僕は、剣を構えたが――")
     355("display_skill_name(\"誘惑の魔眼\")")
     Wait(15)
     250(bytes(0x04,0x08,0x6f,0x3a,0x0c,0x52,0x50,0x47,0x3a,0x3a,0x53,0x45,0x08,0x3a,0x0a,0x40,0x6e,0x61,0x6d,0x65,0x49,0x22,0x0e,0x6d,0x6f,0x6e,0x5f,0x66,0x6c,0x61,0x73,0x68,0x06,0x3a,0x06,0x45,0x54,0x3a,0x0b,0x40,0x70,0x69,0x74,0x63,0x68,0x69,0x69,0x3a,0x0c,0x40,0x76,0x6f,0x6c,0x75,0x6d,0x65,0x69,0x69))
     224(bytes(0x04,0x08,0x75,0x3a,0x0a,0x43,0x6f,0x6c,0x6f,0x72,0x25,0x00,0x00,0x00,0x00,0x00,0xe0,0x6f,0x40,0x00,0x00,0x00,0x00,0x00,0x80,0x69,0x40,0x00,0x00,0x00,0x00,0x00,0xe0,0x6f,0x40,0x00,0x00,0x00,0x00,0x00,0xe0,0x6f,0x40),60,true)
     Wait(15)
     355("clear_skill_name")
     ShowMessageFace("ruka_fc1",0,0,2,8)
     ShowMessage("\\n<Luka>")
     ShowMessage("あ、あぁぁ……")
     ShowMessageFace("",0,0,2,9)
     ShowMessage("誘惑の魔力が、たちまち全身を駆け巡った。")
     ShowMessage("体の力が抜け、剣を落としてしまう――")
     JumpToLabel("結果")
     0()
    EndIf()
    If(1,9,0,2,0)
     ShowMessageFace("ruka_fc1",0,0,2,10)
     ShowMessage("\\n<Luka>")
     ShowMessage("まずい、逃げないと……！")
     ShowMessageFace("",0,0,2,11)
     ShowMessage("僕は、そのまま背を向けようとしたが――")
     355("display_skill_name(\"誘惑の魔眼\")")
     Wait(15)
     250(bytes(0x04,0x08,0x6f,0x3a,0x0c,0x52,0x50,0x47,0x3a,0x3a,0x53,0x45,0x08,0x3a,0x0a,0x40,0x6e,0x61,0x6d,0x65,0x49,0x22,0x0e,0x6d,0x6f,0x6e,0x5f,0x66,0x6c,0x61,0x73,0x68,0x06,0x3a,0x06,0x45,0x54,0x3a,0x0b,0x40,0x70,0x69,0x74,0x63,0x68,0x69,0x69,0x3a,0x0c,0x40,0x76,0x6f,0x6c,0x75,0x6d,0x65,0x69,0x69))
     224(bytes(0x04,0x08,0x75,0x3a,0x0a,0x43,0x6f,0x6c,0x6f,0x72,0x25,0x00,0x00,0x00,0x00,0x00,0xe0,0x6f,0x40,0x00,0x00,0x00,0x00,0x00,0x80,0x69,0x40,0x00,0x00,0x00,0x00,0x00,0xe0,0x6f,0x40,0x00,0x00,0x00,0x00,0x00,0xe0,0x6f,0x40),60,true)
     Wait(15)
     355("clear_skill_name")
     ShowMessageFace("ruka_fc1",0,0,2,12)
     ShowMessage("\\n<Luka>")
     ShowMessage("あ、あぁぁ……")
     ShowMessageFace("",0,0,2,13)
     ShowMessage("誘惑の魔力が、たちまち全身を駆け巡った。")
     ShowMessage("体の力が抜け、逃げることさえできない――")
     JumpToLabel("結果")
     0()
    EndIf()
    If(1,9,0,3,0)
     250(bytes(0x04,0x08,0x6f,0x3a,0x0c,0x52,0x50,0x47,0x3a,0x3a,0x53,0x45,0x08,0x3a,0x0a,0x40,0x6e,0x61,0x6d,0x65,0x49,0x22,0x0d,0x62,0x61,0x6b,0x75,0x74,0x69,0x6b,0x75,0x06,0x3a,0x06,0x45,0x54,0x3a,0x0b,0x40,0x70,0x69,0x74,0x63,0x68,0x69,0x69,0x3a,0x0c,0x40,0x76,0x6f,0x6c,0x75,0x6d,0x65,0x69,0x55))
     ShowMessageFace("",0,0,2,14)
     ShowMessage("ルカは爆竹を投げつけた！")
     ShowMessageFace("nemea_fc2",0,0,2,15)
     ShowMessage("\\n<ネメア>")
     ShowMessage("あら、あなたと似てかわいらしいオモチャね。")
     ShowMessage("でも、うるさくしたら「めっ」よ♪")
     JumpToLabel("魔眼")
     0()
    EndIf()
    If(1,9,0,4,0)
     250(bytes(0x04,0x08,0x6f,0x3a,0x0c,0x52,0x50,0x47,0x3a,0x3a,0x53,0x45,0x08,0x3a,0x0a,0x40,0x6e,0x61,0x6d,0x65,0x49,0x22,0x0a,0x57,0x69,0x6e,0x64,0x37,0x06,0x3a,0x06,0x45,0x54,0x3a,0x0b,0x40,0x70,0x69,0x74,0x63,0x68,0x69,0x69,0x3a,0x0c,0x40,0x76,0x6f,0x6c,0x75,0x6d,0x65,0x69,0x55))
     ShowMessageFace("",0,0,2,16)
     ShowMessage("ルカはまきびしをばら撒いた！")
     ShowMessageFace("nemea_fc2",0,0,2,17)
     ShowMessage("\\n<ネメア>")
     ShowMessage("あらあら、忍者ごっこかしら？")
     ShowMessage("お姉さんが敵役になってあげる……♡")
     JumpToLabel("魔眼")
     0()
    EndIf()
    If(1,9,0,5,0)
     212(22,505,false)
     ShowMessageFace("",0,0,2,18)
     ShowMessage("ルカは手榴弾を投げつけた！")
     ShowMessageFace("nemea_fc2",0,0,2,19)
     ShowMessage("\\n<ネメア>")
     ShowMessage("あらあら、そんな玩具は危ないじゃない……")
     ShowMessage("お姉さんと、もっと楽しい遊びをしましょう♪")
     JumpToLabel("魔眼")
     0()
    EndIf()
    If(1,9,0,6,0)
     212(22,35,false)
     ShowMessageFace("",0,0,2,20)
     ShowMessage("ルカは拘束の呪符を使った！")
     ShowMessageFace("nemea_fc2",0,0,2,21)
     ShowMessage("\\n<ネメア>")
     ShowMessage("あら、お札なんて懐かしい術ねぇ。")
     ShowMessage("でも、私には通用しないわ……")
     JumpToLabel("魔眼")
     0()
    EndIf()
    If(1,9,0,7,0)
     212(22,736,false)
     ShowMessageFace("",0,0,2,22)
     ShowMessage("ルカはラケルの爆石を投げつけた！")
     ShowMessageFace("nemea_fc2",0,0,2,23)
     ShowMessage("\\n<ネメア>")
     ShowMessage("あらあら、そんな玩具は危ないじゃない……")
     ShowMessage("お姉さんと、もっと楽しい遊びをしましょう♪")
     JumpToLabel("魔眼")
     0()
    EndIf()
    If(1,9,0,8,0)
     250(bytes(0x04,0x08,0x6f,0x3a,0x0c,0x52,0x50,0x47,0x3a,0x3a,0x53,0x45,0x08,0x3a,0x0a,0x40,0x6e,0x61,0x6d,0x65,0x49,0x22,0x0a,0x42,0x6f,0x6f,0x6b,0x32,0x06,0x3a,0x06,0x45,0x54,0x3a,0x0b,0x40,0x70,0x69,0x74,0x63,0x68,0x69,0x69,0x3a,0x0c,0x40,0x76,0x6f,0x6c,0x75,0x6d,0x65,0x69,0x55))
     ShowMessageFace("",0,0,2,24)
     ShowMessage("ルカは迷宮の書物を開いた！")
     ShowMessageFace("nemea_fc2",2,0,2,25)
     ShowMessage("\\n<ネメア>")
     ShowMessage("これは、移動術式……？")
     Wait(30)
     212(22,542,false)
     Wait(60)
     205(22,bytes(0x04,0x08,0x6f,0x3a,0x13,0x52,0x50,0x47,0x3a,0x3a,0x4d,0x6f,0x76,0x65,0x52,0x6f,0x75,0x74,0x65,0x09,0x3a,0x0c,0x40,0x72,0x65,0x70,0x65,0x61,0x74,0x46,0x3a,0x0f,0x40,0x73,0x6b,0x69,0x70,0x70,0x61,0x62,0x6c,0x65,0x46,0x3a,0x0a,0x40,0x77,0x61,0x69,0x74,0x54,0x3a,0x0a,0x40,0x6c,0x69,0x73,0x74,0x5b,0x07,0x6f,0x3a,0x15,0x52,0x50,0x47,0x3a,0x3a,0x4d,0x6f,0x76,0x65,0x43,0x6f,0x6d,0x6d,0x61,0x6e,0x64,0x07,0x3a,0x0a,0x40,0x63,0x6f,0x64,0x65,0x69,0x2c,0x3a,0x10,0x40,0x70,0x61,0x72,0x61,0x6d,0x65,0x74,0x65,0x72,0x73,0x5b,0x00,0x6f,0x3b,0x0a,0x07,0x3b,0x0b,0x69,0x00,0x3b,0x0c,0x5b,0x00))
     Wait(60)
     ShowMessageFace("ruka_fc1",0,0,2,26)
     ShowMessage("\\n<Luka>")
     ShowMessage("やったか……？")
     Wait(30)
     212(22,542,false)
     Wait(60)
     205(22,bytes(0x04,0x08,0x6f,0x3a,0x13,0x52,0x50,0x47,0x3a,0x3a,0x4d,0x6f,0x76,0x65,0x52,0x6f,0x75,0x74,0x65,0x09,0x3a,0x0c,0x40,0x72,0x65,0x70,0x65,0x61,0x74,0x46,0x3a,0x0f,0x40,0x73,0x6b,0x69,0x70,0x70,0x61,0x62,0x6c,0x65,0x46,0x3a,0x0a,0x40,0x77,0x61,0x69,0x74,0x54,0x3a,0x0a,0x40,0x6c,0x69,0x73,0x74,0x5b,0x07,0x6f,0x3a,0x15,0x52,0x50,0x47,0x3a,0x3a,0x4d,0x6f,0x76,0x65,0x43,0x6f,0x6d,0x6d,0x61,0x6e,0x64,0x07,0x3a,0x0a,0x40,0x63,0x6f,0x64,0x65,0x69,0x2d,0x3a,0x10,0x40,0x70,0x61,0x72,0x61,0x6d,0x65,0x74,0x65,0x72,0x73,0x5b,0x00,0x6f,0x3b,0x0a,0x07,0x3b,0x0b,0x69,0x00,0x3b,0x0c,0x5b,0x00))
     Wait(60)
     ShowMessageFace("nemea_fc2",0,0,2,27)
     ShowMessage("\\n<ネメア>")
     ShowMessage("うふふ……頭を使うゲームの予定はキャンセルよ。")
     ShowMessage("今はあなたの身体を楽しませて欲しいの……♡")
     JumpToLabel("魔眼")
     0()
    EndIf()
    JumpToLabel("選択")
    DefineLabel("魔眼")
    355("display_skill_name(\"誘惑の魔眼\")")
    Wait(15)
    250(bytes(0x04,0x08,0x6f,0x3a,0x0c,0x52,0x50,0x47,0x3a,0x3a,0x53,0x45,0x08,0x3a,0x0a,0x40,0x6e,0x61,0x6d,0x65,0x49,0x22,0x0e,0x6d,0x6f,0x6e,0x5f,0x66,0x6c,0x61,0x73,0x68,0x06,0x3a,0x06,0x45,0x54,0x3a,0x0b,0x40,0x70,0x69,0x74,0x63,0x68,0x69,0x69,0x3a,0x0c,0x40,0x76,0x6f,0x6c,0x75,0x6d,0x65,0x69,0x69))
    224(bytes(0x04,0x08,0x75,0x3a,0x0a,0x43,0x6f,0x6c,0x6f,0x72,0x25,0x00,0x00,0x00,0x00,0x00,0xe0,0x6f,0x40,0x00,0x00,0x00,0x00,0x00,0x80,0x69,0x40,0x00,0x00,0x00,0x00,0x00,0xe0,0x6f,0x40,0x00,0x00,0x00,0x00,0x00,0xe0,0x6f,0x40),60,true)
    Wait(15)
    355("clear_skill_name")
    ShowMessageFace("",0,0,2,28)
    ShowMessage("\\n<Luka>")
    ShowMessage("あ、あぁぁ……")
    ShowMessageFace("",0,0,2,29)
    ShowMessage("誘惑の魔力が、たちまち全身を駆け巡る。")
    ShowMessage("これでは、もはや抵抗もできない――")
    DefineLabel("結果")
    ShowMessageFace("nemea_fc2",1,0,2,30)
    ShowMessage("\\n<ネメア>")
    ShowMessage("ふふっ、素直でかわいい子……♡")
    ShowMessage("私の部屋にいらっしゃい。")
    ShowMessageFace("ruka_fc1",0,0,2,31)
    ShowMessage("\\n<Luka>")
    ShowMessage("は、はい……")
    ShowMessageFace("",0,0,2,32)
    ShowMessage("自分の意志では動かなかった体だが――")
    ShowMessage("ネメアの命令にだけは、ただちに反応した。")
    ShowMessageFace("",0,0,2,33)
    ShowMessage("僕は立ち上がり、ネメアの後に付いていく。")
    ShowMessage("そのまま、彼女の部屋に誘い込まれたのである――")
    221()
    Wait(60)
    TeleportPlayer(0,153,12,47,4,2)
    222()
    ChangeSwitch(2410,2410,0)
    RunCommonEvent(5786)
    EndEventProcessing()
    0()
   EndIf()
   0()
  EndIf()
  0()



EVENT   8
 PAGE   1
  250(bytes(0x04,0x08,0x6f,0x3a,0x0c,0x52,0x50,0x47,0x3a,0x3a,0x53,0x45,0x08,0x3a,0x0a,0x40,0x6e,0x61,0x6d,0x65,0x49,0x22,0x09,0x4d,0x6f,0x76,0x65,0x06,0x3a,0x06,0x45,0x54,0x3a,0x0b,0x40,0x70,0x69,0x74,0x63,0x68,0x69,0x69,0x3a,0x0c,0x40,0x76,0x6f,0x6c,0x75,0x6d,0x65,0x69,0x55))
  TeleportPlayer(0,153,34,25,0,0)
  0()



EVENT   12
 PAGE   1
  250(bytes(0x04,0x08,0x6f,0x3a,0x0c,0x52,0x50,0x47,0x3a,0x3a,0x53,0x45,0x08,0x3a,0x0a,0x40,0x6e,0x61,0x6d,0x65,0x49,0x22,0x09,0x4d,0x6f,0x76,0x65,0x06,0x3a,0x06,0x45,0x54,0x3a,0x0b,0x40,0x70,0x69,0x74,0x63,0x68,0x69,0x69,0x3a,0x0c,0x40,0x76,0x6f,0x6c,0x75,0x6d,0x65,0x69,0x55))
  TeleportPlayer(0,153,29,25,0,0)
  0()



EVENT   13
 PAGE   1
  // condition: variable 1111 >= 1
  TemporaryRemoveEvent()
  ChangeSwitch(2404,2404,0)
  RunCommonEvent(5780)
  EndEventProcessing()
  0()
 PAGE   2
  // condition: variable 1111 >= 2
  0()



EVENT   14
 PAGE   1
  // condition: variable 1111 >= 1
  0()
 PAGE   2
  // condition: switch 33 is ON
  // condition: variable 1111 >= 1
  0()
 PAGE   3
  // condition: switch 34 is ON
  // condition: variable 1111 >= 1
  0()
 PAGE   4
  // condition: switch 35 is ON
  // condition: variable 1111 >= 1
  0()
 PAGE   5
  // condition: switch 36 is ON
  // condition: variable 1111 >= 1
  0()
 PAGE   6
  // condition: variable 1111 >= 2
  0()



EVENT   15
 PAGE   1
  // condition: variable 1111 >= 1
  0()
 PAGE   2
  // condition: switch 31 is ON
  // condition: variable 1111 >= 1
  0()
 PAGE   3
  // condition: switch 32 is ON
  // condition: variable 1111 >= 1
  0()
 PAGE   4
  // condition: switch 33 is ON
  // condition: variable 1111 >= 1
  0()
 PAGE   5
  // condition: switch 34 is ON
  // condition: variable 1111 >= 1
  0()
 PAGE   6
  // condition: variable 1111 >= 2
  0()



EVENT   16
 PAGE   1
  // condition: switch 31 is ON
  0()



EVENT   17
 PAGE   1
  // condition: switch 31 is ON
  0()
 PAGE   2
  // condition: switch 32 is ON
  0()
 PAGE   3
  // condition: switch 33 is ON
  0()
 PAGE   4
  // condition: switch 34 is ON
  0()



EVENT   18
 PAGE   1
  // condition: variable 1111 >= 2
  205(0,bytes(0x04,0x08,0x6f,0x3a,0x13,0x52,0x50,0x47,0x3a,0x3a,0x4d,0x6f,0x76,0x65,0x52,0x6f,0x75,0x74,0x65,0x09,0x3a,0x0c,0x40,0x72,0x65,0x70,0x65,0x61,0x74,0x46,0x3a,0x0f,0x40,0x73,0x6b,0x69,0x70,0x70,0x61,0x62,0x6c,0x65,0x46,0x3a,0x0a,0x40,0x77,0x61,0x69,0x74,0x54,0x3a,0x0a,0x40,0x6c,0x69,0x73,0x74,0x5b,0x07,0x6f,0x3a,0x15,0x52,0x50,0x47,0x3a,0x3a,0x4d,0x6f,0x76,0x65,0x43,0x6f,0x6d,0x6d,0x61,0x6e,0x64,0x07,0x3a,0x0a,0x40,0x63,0x6f,0x64,0x65,0x69,0x2c,0x3a,0x10,0x40,0x70,0x61,0x72,0x61,0x6d,0x65,0x74,0x65,0x72,0x73,0x5b,0x00,0x6f,0x3b,0x0a,0x07,0x3b,0x0b,0x69,0x00,0x3b,0x0c,0x5b,0x00))
  If(0,2369,1)
   ShowMessageFace("ruka_fc1",0,0,2,1)
   ShowMessage("\\n<Luka>")
   ShowMessage("これは、コンピューターか……")
   ShowMessageFace("",0,0,2,2)
   ShowMessage("こんなものが、部屋に普通に置いてあるなんて……")
   ShowMessage("この世界は、僕の世界よりも技術が進んでいるらしい。")
   ShowMessageFace("",0,0,2,3)
   ShowMessage("だが、触ってみる余裕があるはずもない。")
   ShowMessage("今は、やるべき事をやろう――")
   205(0,bytes(0x04,0x08,0x6f,0x3a,0x13,0x52,0x50,0x47,0x3a,0x3a,0x4d,0x6f,0x76,0x65,0x52,0x6f,0x75,0x74,0x65,0x09,0x3a,0x0c,0x40,0x72,0x65,0x70,0x65,0x61,0x74,0x46,0x3a,0x0f,0x40,0x73,0x6b,0x69,0x70,0x70,0x61,0x62,0x6c,0x65,0x46,0x3a,0x0a,0x40,0x77,0x61,0x69,0x74,0x54,0x3a,0x0a,0x40,0x6c,0x69,0x73,0x74,0x5b,0x07,0x6f,0x3a,0x15,0x52,0x50,0x47,0x3a,0x3a,0x4d,0x6f,0x76,0x65,0x43,0x6f,0x6d,0x6d,0x61,0x6e,0x64,0x07,0x3a,0x0a,0x40,0x63,0x6f,0x64,0x65,0x69,0x2d,0x3a,0x10,0x40,0x70,0x61,0x72,0x61,0x6d,0x65,0x74,0x65,0x72,0x73,0x5b,0x00,0x6f,0x3b,0x0a,0x07,0x3b,0x0b,0x69,0x00,0x3b,0x0c,0x5b,0x00))
   EndEventProcessing()
   0()
  Else()
   If(0,2387,1)
    ShowMessageFace("ruka_fc1",0,0,2,4)
    ShowMessage("\\n<Luka>")
    ShowMessage("これは、コンピューターか……")
    ShowMessageFace("",0,0,2,5)
    ShowMessage("そう言えば、プロメスティンから")
    ShowMessage("コンピューターウィルスを受け取っている。")
    ShowMessageFace("",0,0,2,6)
    ShowMessage("それをこのコンピューターに仕込めば、")
    ShowMessage("ネメアを足止め出来るのではないか……？")
    ShowChoices(strings("ウィルスを仕込む","やめておく"),2)
    IfPlayerPicksChoice(0,null)
     ShowMessageFace("ruka_fc1",0,0,2,7)
     ShowMessage("\\n<Luka>")
     ShowMessage("よし、やってみるか。")
     ShowMessage("この機器を、差し込み口に入れればいいんだっけ。")
     ShowMessageFace("",0,0,2,8)
     ShowMessage("確か、USBと言っていたか……")
     ShowMessage("それらしき穴を見付けたので、機器を差し込んでみた。")
     ShowMessageFace("ruka_fc1",0,0,2,9)
     ShowMessage("\\n<Luka>")
     ShowMessage("あれ……入らないな。")
     ShowMessage("上下が逆なのかな？")
     ShowMessageFace("",0,0,2,10)
     ShowMessage("今度は上下を逆にしてみたが――")
     ShowMessage("やっぱり、入らないようだ。")
     ShowMessageFace("ruka_fc1",0,0,2,11)
     ShowMessage("\\n<Luka>")
     ShowMessage("どういうことなんだ……？")
     ShowMessage("この差し込み口で間違いないと思うんだけど……")
     ShowMessageFace("",0,0,2,12)
     ShowMessage("再度、上下を逆にしてみると……")
     ShowMessage("今度は、きっちりと差し込むことができた！")
     ShowMessageFace("ruka_fc1",0,0,2,13)
     ShowMessage("\\n<Luka>")
     ShowMessage("最初の向きで合ってたのか……")
     ShowMessage("じゃあ、なんで最初は刺さらなかったんだよ……")
     ShowMessageFace("",0,0,2,14)
     ShowMessage("ともかく、機器に備わったランプが複数回点滅した。")
     ShowMessage("今、ウィルスを送り込んでいるのだろう。")
     ShowMessageFace("",0,0,2,15)
     ShowMessage("そして――ランプの点滅は、数秒で消えた。")
     ShowMessageFace("ruka_fc1",0,0,2,16)
     ShowMessage("\\n<Luka>")
     ShowMessage("……終わったみたいだね。")
     ShowMessage("うまく足止めできるといいんだけど……")
     ShowMessageFace("",0,0,2,17)
     ShowMessage("僕は、役目を終えた機器を回収した。")
     ShowMessage("もう、この部屋に用はないはずだ――")
     ChangeSwitch(2387,2387,0)
     205(0,bytes(0x04,0x08,0x6f,0x3a,0x13,0x52,0x50,0x47,0x3a,0x3a,0x4d,0x6f,0x76,0x65,0x52,0x6f,0x75,0x74,0x65,0x09,0x3a,0x0c,0x40,0x72,0x65,0x70,0x65,0x61,0x74,0x46,0x3a,0x0f,0x40,0x73,0x6b,0x69,0x70,0x70,0x61,0x62,0x6c,0x65,0x46,0x3a,0x0a,0x40,0x77,0x61,0x69,0x74,0x54,0x3a,0x0a,0x40,0x6c,0x69,0x73,0x74,0x5b,0x07,0x6f,0x3a,0x15,0x52,0x50,0x47,0x3a,0x3a,0x4d,0x6f,0x76,0x65,0x43,0x6f,0x6d,0x6d,0x61,0x6e,0x64,0x07,0x3a,0x0a,0x40,0x63,0x6f,0x64,0x65,0x69,0x2d,0x3a,0x10,0x40,0x70,0x61,0x72,0x61,0x6d,0x65,0x74,0x65,0x72,0x73,0x5b,0x00,0x6f,0x3b,0x0a,0x07,0x3b,0x0b,0x69,0x00,0x3b,0x0c,0x5b,0x00))
     EndEventProcessing()
     0()
    IfPlayerPicksChoice(1,null)
     205(0,bytes(0x04,0x08,0x6f,0x3a,0x13,0x52,0x50,0x47,0x3a,0x3a,0x4d,0x6f,0x76,0x65,0x52,0x6f,0x75,0x74,0x65,0x09,0x3a,0x0c,0x40,0x72,0x65,0x70,0x65,0x61,0x74,0x46,0x3a,0x0f,0x40,0x73,0x6b,0x69,0x70,0x70,0x61,0x62,0x6c,0x65,0x46,0x3a,0x0a,0x40,0x77,0x61,0x69,0x74,0x54,0x3a,0x0a,0x40,0x6c,0x69,0x73,0x74,0x5b,0x07,0x6f,0x3a,0x15,0x52,0x50,0x47,0x3a,0x3a,0x4d,0x6f,0x76,0x65,0x43,0x6f,0x6d,0x6d,0x61,0x6e,0x64,0x07,0x3a,0x0a,0x40,0x63,0x6f,0x64,0x65,0x69,0x2d,0x3a,0x10,0x40,0x70,0x61,0x72,0x61,0x6d,0x65,0x74,0x65,0x72,0x73,0x5b,0x00,0x6f,0x3b,0x0a,0x07,0x3b,0x0b,0x69,0x00,0x3b,0x0c,0x5b,0x00))
     EndEventProcessing()
     0()
    404()
    0()
   Else()
    ShowMessageFace("",0,0,2,18)
    ShowMessage("すでにコンピューターウィルスを仕込んでいる。")
    ShowMessage("もう、この部屋に用はないはずだ――")
    205(0,bytes(0x04,0x08,0x6f,0x3a,0x13,0x52,0x50,0x47,0x3a,0x3a,0x4d,0x6f,0x76,0x65,0x52,0x6f,0x75,0x74,0x65,0x09,0x3a,0x0c,0x40,0x72,0x65,0x70,0x65,0x61,0x74,0x46,0x3a,0x0f,0x40,0x73,0x6b,0x69,0x70,0x70,0x61,0x62,0x6c,0x65,0x46,0x3a,0x0a,0x40,0x77,0x61,0x69,0x74,0x54,0x3a,0x0a,0x40,0x6c,0x69,0x73,0x74,0x5b,0x07,0x6f,0x3a,0x15,0x52,0x50,0x47,0x3a,0x3a,0x4d,0x6f,0x76,0x65,0x43,0x6f,0x6d,0x6d,0x61,0x6e,0x64,0x07,0x3a,0x0a,0x40,0x63,0x6f,0x64,0x65,0x69,0x2d,0x3a,0x10,0x40,0x70,0x61,0x72,0x61,0x6d,0x65,0x74,0x65,0x72,0x73,0x5b,0x00,0x6f,0x3b,0x0a,0x07,0x3b,0x0b,0x69,0x00,0x3b,0x0c,0x5b,0x00))
    EndEventProcessing()
    0()
   EndIf()
   0()
  EndIf()
  0()
 PAGE   2
  // condition: variable 1111 >= 3
  0()



EVENT   19
 PAGE   1
  // condition: variable 1111 >= 2
  0()
 PAGE   2
  // condition: switch 35 is ON
  // condition: variable 1111 >= 2
  0()
 PAGE   3
  // condition: switch 36 is ON
  // condition: variable 1111 >= 2
  0()
 PAGE   4
  // condition: switch 37 is ON
  // condition: variable 1111 >= 2
  0()
 PAGE   5
  // condition: switch 38 is ON
  // condition: variable 1111 >= 2
  0()
 PAGE   6
  // condition: variable 1111 >= 3
  0()



EVENT   20
 PAGE   1
  // condition: variable 1111 >= 3
  ShowMessageFace("ruka_fc1",0,0,2,1)
  ShowMessage("\\n<Luka>")
  ShowMessage("これは……鍵？")
  250(bytes(0x04,0x08,0x6f,0x3a,0x0c,0x52,0x50,0x47,0x3a,0x3a,0x53,0x45,0x08,0x3a,0x0a,0x40,0x6e,0x61,0x6d,0x65,0x49,0x22,0x0a,0x49,0x74,0x65,0x6d,0x31,0x06,0x3a,0x06,0x45,0x54,0x3a,0x0b,0x40,0x70,0x69,0x74,0x63,0x68,0x69,0x69,0x3a,0x0c,0x40,0x76,0x6f,0x6c,0x75,0x6d,0x65,0x69,0x55))
  ChangeSwitch(2388,2388,0)
  ShowMessageFace("",0,0,2,2)
  ShowMessage("ベッドの下から、古い鍵を発見した！")
  If(0,2389,1)
   ShowMessageFace("ruka_fc1",0,0,2,3)
   ShowMessage("\\n<Luka>")
   ShowMessage("でも、どこで使えばいいんだ……？")
   ShowMessage("もっと部屋を探ってみるか。")
   EndEventProcessing()
   0()
  EndIf()
  ShowMessageFace("ruka_fc1",0,0,2,4)
  ShowMessage("\\n<Luka>")
  ShowMessage("あの棚の鍵かな……？")
  ShowMessage("よし、試してみよう。")
  EndEventProcessing()
  0()
 PAGE   2
  // condition: switch 2388 is ON
  0()



EVENT   21
 PAGE   1
  // condition: variable 1111 >= 3
  ChangeSwitch(2389,2389,0)
  ShowMessageFace("",0,0,2,1)
  ShowMessage("棚には鍵が掛かっている……")
  If(0,2388,1)
   ShowMessageFace("ruka_fc1",0,0,2,2)
   ShowMessage("\\n<Luka>")
   ShowMessage("この中が怪しいな……")
   ShowMessage("どこかに鍵がないか、調べてみよう。")
   EndEventProcessing()
   0()
  Else()
   ShowMessageFace("ruka_fc1",0,0,2,3)
   ShowMessage("\\n<Luka>")
   ShowMessage("この鍵で、どうだ……？")
   250(bytes(0x04,0x08,0x6f,0x3a,0x0c,0x52,0x50,0x47,0x3a,0x3a,0x53,0x45,0x08,0x3a,0x0a,0x40,0x6e,0x61,0x6d,0x65,0x49,0x22,0x0a,0x49,0x74,0x65,0x6d,0x31,0x06,0x3a,0x06,0x45,0x54,0x3a,0x0b,0x40,0x70,0x69,0x74,0x63,0x68,0x69,0x69,0x3a,0x0c,0x40,0x76,0x6f,0x6c,0x75,0x6d,0x65,0x69,0x55))
   ChangeSwitch(2390,2390,0)
   ShowMessageFace("",0,0,2,4)
   ShowMessage("古い鍵で棚が開いた！")
   ShowMessage("不思議な宝石を手に入れた！")
   ShowMessageFace("ruka_fc1",0,0,2,5)
   ShowMessage("\\n<Luka>")
   ShowMessage("これが黒い宝石だな……")
   ShowMessage("よし、目的の品を手に入れたぞ！")
   ShowMessageFace("",0,0,2,6)
   ShowMessage("もう、ヴィヌムの部屋に用はない。")
   ShowMessage("すぐにここから脱出しよう――")
   0()
  EndIf()
  0()
 PAGE   2
  // condition: switch 2390 is ON
  0()



EVENT   22
 PAGE   1
  // condition: switch 32 is ON
  0()



EVENT   23
 PAGE   1
  // condition: switch 32 is ON
  0()



EVENT   24
 PAGE   1
  // condition: switch 35 is ON
  0()



EVENT   25
 PAGE   1
  // condition: switch 35 is ON
  0()
 PAGE   2
  // condition: switch 36 is ON
  0()
 PAGE   3
  // condition: switch 37 is ON
  0()
 PAGE   4
  // condition: switch 38 is ON
  0()



EVENT   26
 PAGE   1
  // condition: switch 31 is ON
  // condition: variable 1111 >= 1
  0()
 PAGE   2
  // condition: switch 34 is ON
  // condition: variable 1111 >= 1
  0()
 PAGE   3
  // condition: variable 1111 >= 2
  0()



EVENT   27
 PAGE   1
  // condition: switch 35 is ON
  0()
