﻿


EVENT   1
 PAGE   1
  ChangeSwitch(1001,1001,0)
  ChangeSwitch(90,90,0)
  ChangeSwitch(91,91,0)
  ChangeSwitch(2,2,0)
  ChangeSwitch(3,3,0)
  ChangeSwitch(100,100,0)
  ChangeSwitch(103,103,0)
  ChangeSwitch(201,201,0)
  ChangeSwitch(401,401,0)
  ChangeSwitch(372,397,0)
  ChangeSwitch(408,408,0)
  ChangeVariable(1001,1001,0,0,0)
  ChangeVariable(1002,1002,0,0,1)
  ShowMessageFace("",0,0,2,1)
  ShowMessage("Please choose a difficulty. (This can be changed during the game.)")
  RunCommonEvent(110)
  ChangeVariable(906,906,0,0,4)
  If(1,901,0,0,0)
   ChangeVariable(903,903,0,0,-3)
   ChangeVariable(52,52,0,0,1)
   ChangeVariable(2001,2999,0,0,25)
   125(0,0,10)
   0()
  EndIf()
  ChangeRandomEncounterEnabled(0)
  355("$game_map.boat.set_location(0, 0, 0)")
  655("$game_map.ship.set_location(0, 0, 0)")
  655("$game_map.airship.set_location(0, 0, 0)")
  Wait(30)
  PictureDisplay(1,"bg001",0,0,0,0,100,100,0,0)
  PictureMove(1,null,0,0,0,0,100,100,255,0,120,true)
  ShowMessageFace("ruka_fc1",0,0,2,2)
  ShowMessage("\\n<Luka>Where am I...?")
  ShowMessageFace("",0,0,2,3)
  ShowMessage("I wonder how I got here, wherever here even is.")
  ShowMessageFace("",0,0,2,4)
  ShowMessage("The soft light surrounding me in all directions gives the\narea a solemn atmosphere.")
  ShowMessageFace("",0,0,2,5)
  ShowMessage("Am I dreaming?")
  ShowMessageFace("",0,1,1,6)
  ShowMessage("Luka......\\! Hero Luka...")
  ShowMessageFace("",0,0,2,7)
  ShowMessage("I hear a voice calling my name, but I don't see anyone. She sounds very gentle, her voice full of affection.")
  ShowMessageFace("ruka_fc1",0,0,2,8)
  ShowMessage("\\n<Luka>Wh-who's there?")
  Wait(60)
  241(bytes(0x04,0x08,0x6f,0x3a,0x0d,0x52,0x50,0x47,0x3a,0x3a,0x42,0x47,0x4d,0x08,0x3a,0x0a,0x40,0x6e,0x61,0x6d,0x65,0x49,0x22,0x0a,0x69,0x72,0x69,0x61,0x73,0x06,0x3a,0x06,0x45,0x54,0x3a,0x0c,0x40,0x76,0x6f,0x6c,0x75,0x6d,0x65,0x69,0x5f,0x3a,0x0b,0x40,0x70,0x69,0x74,0x63,0x68,0x69,0x6e))
  PictureDisplay(5,"80_iriasu_st04",0,0,0,0,100,100,0,0)
  PictureMove(5,null,0,0,0,0,100,100,255,0,60,true)
  ShowMessageFace("",0,0,2,9)
  ShowMessage("I can't believe it... She looks just like all the statues and pictures I've seen of her in books! This is the Goddess Ilias, creator of the world!")
  ShowMessageFace("ruka_fc1",0,0,2,10)
  ShowMessage("\\n<Luka>Are you...\n...really Ilias?")
  PictureDisplay(5,"80_iriasu_st04a",0,0,0,0,100,100,255,0)
  ShowMessageFace("iriasu_fc1",3,0,2,11)
  ShowMessage("\\n<Ilias>Luka... A crisis is approaching the world. If you don't stop it, the world ■■ be swallowed ■■■ ...")
  ShowMessageFace("ruka_fc1",0,0,2,12)
  ShowMessage("\\n<Luka>...huh? What happened to you, Ilias?")
  ShowMessageFace("iriasu_fc1",3,0,2,13)
  ShowMessage("\\n<Ilias>With my last bit of power, ■■■ to your dreams... There's no ■■■■■■■ time...")
  ShowMessageFace("ruka_fc1",0,0,2,14)
  ShowMessage("\\n<Luka>Ilias, I don't really understand what you're\nsaying...")
  PictureDisplay(5,"80_iriasu_st04b",0,0,0,0,100,100,255,0)
  ShowMessageFace("iriasu_fc1",3,0,2,15)
  ShowMessage("\\n<Ilias>Go immediately ■■■■■■■ out ■■■ ... The world ■■■■ forget ■■■■■■■ ...")
  ShowMessageFace("ruka_fc1",0,0,2,16)
  ShowMessage("\\n<Luka>Forget? The world what? What are you trying to tell me...")
  PictureDisplay(5,"80_iriasu_st04c",0,0,0,0,100,100,255,0)
  ShowMessageFace("iriasu_fc1",3,0,2,17)
  ShowMessage("\\n<Ilias>This ■rld ■■■■■ ... Lu■ ...")
  PictureDisplay(5,"80_iriasu_st04d",0,0,0,0,100,100,255,0)
  ShowMessageFace("iriasu_fc1",3,0,2,18)
  ShowMessage("\\n<Ilias>■■■■ ......")
  PictureMove(5,null,0,0,0,0,100,100,0,0,60,true)
  PictureClear(5)
  ShowMessageFace("ruka_fc1",0,0,2,19)
  ShowMessage("\\n<Luka>Please wait, Ilias! Don't go!")
  ShowMessageFace("ruka_fc1",0,0,2,20)
  ShowMessage("\\n<Luka>Ilias!")
  242(2)
  221()
  PictureClear(1)
  Wait(60)
  TeleportPlayer(0,6,48,44,2,0)
  211(1)
  222()
  Wait(30)
  
  ShowMessageFace("ruka_fc1",0,0,2,21)
  ShowMessage("\\n<Luka>A dream...?")
  ShowMessageFace("",0,0,2,22)
  ShowMessage("I open my eyes, basking in the rays of the morning sun. Was that really just a dream?")
  205(-1,bytes(0x04,0x08,0x6f,0x3a,0x13,0x52,0x50,0x47,0x3a,0x3a,0x4d,0x6f,0x76,0x65,0x52,0x6f,0x75,0x74,0x65,0x09,0x3a,0x0c,0x40,0x72,0x65,0x70,0x65,0x61,0x74,0x46,0x3a,0x0f,0x40,0x73,0x6b,0x69,0x70,0x70,0x61,0x62,0x6c,0x65,0x46,0x3a,0x0a,0x40,0x77,0x61,0x69,0x74,0x54,0x3a,0x0a,0x40,0x6c,0x69,0x73,0x74,0x5b,0x07,0x6f,0x3a,0x15,0x52,0x50,0x47,0x3a,0x3a,0x4d,0x6f,0x76,0x65,0x43,0x6f,0x6d,0x6d,0x61,0x6e,0x64,0x07,0x3a,0x0a,0x40,0x63,0x6f,0x64,0x65,0x69,0x08,0x3a,0x10,0x40,0x70,0x61,0x72,0x61,0x6d,0x65,0x74,0x65,0x72,0x73,0x5b,0x00,0x6f,0x3b,0x0a,0x07,0x3b,0x0b,0x69,0x00,0x3b,0x0c,0x5b,0x00))
  ShowMessageFace("ruka_fc1",0,0,2,23)
  ShowMessage("\\n<Luka>...oh well, must have been. I haven't heard of anyone seeing Ilias descend.")
  ShowMessageFace("",0,0,2,24)
  ShowMessage("The Goddess has been missing ever since the Great Disaster\n30 years ago. No one has even heard her voice, let alone seen her in person.")
  ShowMessageFace("ruka_fc1",0,0,2,25)
  ShowMessage("\\n<Luka>That dream was definitely a good omen though. Today is the first day of my journey, after all.")
  ShowMessageFace("",0,0,2,26)
  ShowMessage("Which also means it's the day I will be baptized in Ilias' temple. After I become a hero, I can set off and adventure.")
  ShowMessageFace("",0,0,2,27)
  ShowMessage("Although without Ilias present, the ceremony is all for show. There hasn't been a new hero anointed in 30 years.")
  ShowMessageFace("",0,0,2,28)
  ShowMessage("The mock ceremony still means something to me though. After all these years, it's the first step of my journey!")
  ShowMessageFace("ruka_fc1",0,0,2,29)
  ShowMessage("\\n<Luka>Wait for me, father... I'll catch up to you!")
  ShowMessageFace("",0,0,2,30)
  ShowMessage("Anyway, there are still a few hours until the baptism. Shall I write an entry in my diary before I leave?")
  0()