﻿
DisplayName "Finoa"



EVENT   1
 PAGE   1
  250(bytes(0x04,0x08,0x6f,0x3a,0x0c,0x52,0x50,0x47,0x3a,0x3a,0x53,0x45,0x08,0x3a,0x0a,0x40,0x6e,0x61,0x6d,0x65,0x49,0x22,0x0a,0x4f,0x70,0x65,0x6e,0x31,0x06,0x3a,0x06,0x45,0x54,0x3a,0x0b,0x40,0x70,0x69,0x74,0x63,0x68,0x69,0x69,0x3a,0x0c,0x40,0x76,0x6f,0x6c,0x75,0x6d,0x65,0x69,0x55))
  205(0,bytes(0x04,0x08,0x6f,0x3a,0x13,0x52,0x50,0x47,0x3a,0x3a,0x4d,0x6f,0x76,0x65,0x52,0x6f,0x75,0x74,0x65,0x09,0x3a,0x0c,0x40,0x72,0x65,0x70,0x65,0x61,0x74,0x46,0x3a,0x0f,0x40,0x73,0x6b,0x69,0x70,0x70,0x61,0x62,0x6c,0x65,0x46,0x3a,0x0a,0x40,0x77,0x61,0x69,0x74,0x54,0x3a,0x0a,0x40,0x6c,0x69,0x73,0x74,0x5b,0x0c,0x6f,0x3a,0x15,0x52,0x50,0x47,0x3a,0x3a,0x4d,0x6f,0x76,0x65,0x43,0x6f,0x6d,0x6d,0x61,0x6e,0x64,0x07,0x3a,0x0a,0x40,0x63,0x6f,0x64,0x65,0x69,0x16,0x3a,0x10,0x40,0x70,0x61,0x72,0x61,0x6d,0x65,0x74,0x65,0x72,0x73,0x5b,0x00,0x6f,0x3b,0x0a,0x07,0x3b,0x0b,0x69,0x14,0x3b,0x0c,0x5b,0x06,0x69,0x08,0x6f,0x3b,0x0a,0x07,0x3b,0x0b,0x69,0x17,0x3b,0x0c,0x5b,0x00,0x6f,0x3b,0x0a,0x07,0x3b,0x0b,0x69,0x14,0x3b,0x0c,0x5b,0x06,0x69,0x08,0x6f,0x3b,0x0a,0x07,0x3b,0x0b,0x69,0x18,0x3b,0x0c,0x5b,0x00,0x6f,0x3b,0x0a,0x07,0x3b,0x0b,0x69,0x2a,0x3b,0x0c,0x5b,0x00,0x6f,0x3b,0x0a,0x07,0x3b,0x0b,0x69,0x00,0x3b,0x0c,0x5b,0x00))
  205(-1,bytes(0x04,0x08,0x6f,0x3a,0x13,0x52,0x50,0x47,0x3a,0x3a,0x4d,0x6f,0x76,0x65,0x52,0x6f,0x75,0x74,0x65,0x09,0x3a,0x0c,0x40,0x72,0x65,0x70,0x65,0x61,0x74,0x46,0x3a,0x0f,0x40,0x73,0x6b,0x69,0x70,0x70,0x61,0x62,0x6c,0x65,0x54,0x3a,0x0a,0x40,0x77,0x61,0x69,0x74,0x54,0x3a,0x0a,0x40,0x6c,0x69,0x73,0x74,0x5b,0x07,0x6f,0x3a,0x15,0x52,0x50,0x47,0x3a,0x3a,0x4d,0x6f,0x76,0x65,0x43,0x6f,0x6d,0x6d,0x61,0x6e,0x64,0x07,0x3a,0x0a,0x40,0x63,0x6f,0x64,0x65,0x69,0x11,0x3a,0x10,0x40,0x70,0x61,0x72,0x61,0x6d,0x65,0x74,0x65,0x72,0x73,0x5b,0x00,0x6f,0x3b,0x0a,0x07,0x3b,0x0b,0x69,0x00,0x3b,0x0c,0x5b,0x00))
  250(bytes(0x04,0x08,0x6f,0x3a,0x0c,0x52,0x50,0x47,0x3a,0x3a,0x53,0x45,0x08,0x3a,0x0a,0x40,0x6e,0x61,0x6d,0x65,0x49,0x22,0x09,0x4d,0x6f,0x76,0x65,0x06,0x3a,0x06,0x45,0x54,0x3a,0x0b,0x40,0x70,0x69,0x74,0x63,0x68,0x69,0x69,0x3a,0x0c,0x40,0x76,0x6f,0x6c,0x75,0x6d,0x65,0x69,0x55))
  TeleportPlayer(0,26,9,15,0,0)
  0()



EVENT   2
 PAGE   1
  ChangeSwitch(31,39,1)
  222()
  Wait(60)
  ShowMessageFace("",0,0,2,1)
  ShowMessage("Meanwhile, at Finoa...")
  If(0,4,0)
   ShowMessageFace("alice_fc5",3,0,2,2)
   ShowMessage("\\n<Alice>Damn it, did we show up late again?\nI can't believe this incident has already been resolved...")
   0()
  EndIf()
  If(0,5,0)
   ShowMessageFace("iriasu_fc4",2,0,2,3)
   ShowMessage("\\n<Ilias>Unbelievable, we've arrived late again?\nIt would appear this incident has already been resolved...")
   0()
  EndIf()
  ShowMessageFace("ruka_fc1",0,0,2,4)
  ShowMessage("\\n<Luka>In this case, the situation changed very quickly... We just keep arriving on the scene after the fact.")
  ShowMessageFace("",0,0,2,5)
  ShowMessage("Three succubi had appeared in Finoa and sealed off the village, and yet... The incident had already been resolved by the time we arrived.")
  ShowMessageFace("",0,0,2,6)
  ShowMessage("It seems some unknown group had driven away the three succubi, though it would appear they had already claimed many victims by then...")
  ChangeSwitch(31,31,0)
  205(5,bytes(0x04,0x08,0x6f,0x3a,0x13,0x52,0x50,0x47,0x3a,0x3a,0x4d,0x6f,0x76,0x65,0x52,0x6f,0x75,0x74,0x65,0x09,0x3a,0x0c,0x40,0x72,0x65,0x70,0x65,0x61,0x74,0x46,0x3a,0x0f,0x40,0x73,0x6b,0x69,0x70,0x70,0x61,0x62,0x6c,0x65,0x46,0x3a,0x0a,0x40,0x77,0x61,0x69,0x74,0x54,0x3a,0x0a,0x40,0x6c,0x69,0x73,0x74,0x5b,0x0a,0x6f,0x3a,0x15,0x52,0x50,0x47,0x3a,0x3a,0x4d,0x6f,0x76,0x65,0x43,0x6f,0x6d,0x6d,0x61,0x6e,0x64,0x07,0x3a,0x0a,0x40,0x63,0x6f,0x64,0x65,0x69,0x06,0x3a,0x10,0x40,0x70,0x61,0x72,0x61,0x6d,0x65,0x74,0x65,0x72,0x73,0x5b,0x00,0x6f,0x3b,0x0a,0x07,0x3b,0x0b,0x69,0x06,0x3b,0x0c,0x5b,0x00,0x6f,0x3b,0x0a,0x07,0x3b,0x0b,0x69,0x06,0x3b,0x0c,0x5b,0x00,0x6f,0x3b,0x0a,0x07,0x3b,0x0b,0x69,0x06,0x3b,0x0c,0x5b,0x00,0x6f,0x3b,0x0a,0x07,0x3b,0x0b,0x69,0x00,0x3b,0x0c,0x5b,0x00))
  PictureDisplay(5,"80_sonia_m1_st25",0,0,0,0,100,100,0,0)
  PictureMove(5,null,0,0,0,0,100,100,255,0,30,true)
  ShowMessageFace("sonia_fc4",0,0,2,7)
  ShowMessage("\\n<Sonya>...I've inquired several people who witnessed the killings. They said that there were over a hundred casualties in total.")
  If(0,4,0)
   PictureDisplay(5,"80_alice_st81",0,0,-150,0,100,100,0,0)
   PictureDisplay(6,"80_sonia_m1_st25",0,0,150,0,100,100,0,0)
   PictureMove(5,null,0,0,-150,0,100,100,255,0,30,false)
   PictureMove(6,null,0,0,150,0,100,100,255,0,30,true)
   ShowMessageFace("alice_fc6",0,0,2,8)
   ShowMessage("\\n<Alice>That's heinous...\nTo think that over a hundred precious lives have been cut short here...")
   0()
  EndIf()
  If(0,5,0)
   PictureDisplay(5,"80_iriasu_st38",0,0,-150,0,100,100,0,0)
   PictureDisplay(6,"80_sonia_m1_st25",0,0,150,0,100,100,0,0)
   PictureMove(5,null,0,0,-150,0,100,100,255,0,30,false)
   PictureMove(6,null,0,0,150,0,100,100,255,0,30,true)
   ShowMessageFace("iriasu_fc4",7,0,2,9)
   ShowMessage("\\n<Ilias>For more than a hundred people to fall prey to succubi... My anger has reached it peak.")
   0()
  EndIf()
  ShowMessageFace("ruka_fc1",0,0,2,10)
  ShowMessage("\\n<Luka>But that group who drove away those dangerous succubi... Could a few of the Seven Heroes have possibly been among them?")
  ShowMessageFace("",0,0,2,11)
  ShowMessage("According to what the eyewitnesses have told us, they were a young man with a gun and a boy dressed like a Yamatai monk.")
  PictureDisplay(6,"80_sonia_m1_st11",0,0,150,0,100,100,255,0)
  ShowMessageFace("sonia_fc2",2,0,2,12)
  ShowMessage("\\n<Sonya>There was also a flower girl and a kitsune...\nThose four were the ones who were fighting them from the start.")
  ShowMessageFace("ruka_fc1",0,0,2,13)
  ShowMessage("\\n<Luka>A flower girl and...a kitsune?")
  ShowMessageFace("",0,0,2,14)
  ShowMessage("They must've befriended monsters just like we have.")
  ShowMessageFace(binary"",0,0,2,15)
  ShowMessage("Did four nameless saviors just happen to be present at the time? Or maybe...")
  ShowMessageFace("sonia_fc2",2,0,2,16)
  ShowMessage("\\n<Sonya>Later on, three more people showed up to help them out. A voluptuous oni woman, a boy magician, and what looked like his cute older sister.")
  If(0,4,0)
   PictureDisplay(5,"80_alice_st71",0,0,-150,0,100,100,255,0)
   ShowMessageFace("alice_fc5",0,0,2,17)
   ShowMessage("\\n<Alice>Each one makes them sound like an incredibly diverse bunch. There must've been some heroes from other worlds among them...")
   0()
  EndIf()
  If(0,5,0)
   PictureDisplay(5,"80_iriasu_st33",0,0,-150,0,100,100,255,0)
   ShowMessageFace("iriasu_fc4",2,0,2,18)
   ShowMessage("\\n<Ilias>That sounds like a highly varied lineup.\nSurely, there were heroes from other worlds among them...?")
   0()
  EndIf()
  ShowMessageFace("mefist_fc1",2,0,2,19)
  ShowMessage("\\n<Mephisto>Oh, I've just received a message from Grand Noah's seventh office branch. But why are they contacting with me without the main office's permission first...?")
  ShowMessageFace("mefist_fc1",2,0,2,20)
  ShowMessage("\\n<Mephisto>............")
  241(bytes(0x04,0x08,0x6f,0x3a,0x0d,0x52,0x50,0x47,0x3a,0x3a,0x42,0x47,0x4d,0x08,0x3a,0x0a,0x40,0x6e,0x61,0x6d,0x65,0x49,0x22,0x0a,0x62,0x6f,0x73,0x73,0x30,0x06,0x3a,0x06,0x45,0x54,0x3a,0x0c,0x40,0x76,0x6f,0x6c,0x75,0x6d,0x65,0x69,0x69,0x3a,0x0b,0x40,0x70,0x69,0x74,0x63,0x68,0x69,0x69))
  ShowMessageFace("mefist_fc1",2,0,2,21)
  ShowMessage("\\n<Mephisto>Everyone, a terrible misfortune has befallen Grand Noah. The Grand Noah Palace...seems to have disappeared.")
  If(0,4,0)
   PictureDisplay(5,"80_alice_st81",0,0,-150,0,100,100,255,0)
   ShowMessageFace("alice_fc6",0,0,2,22)
   ShowMessage("\\n<Alice>Disappeared...?!\nWhat do you mean it disappeared...?!")
   0()
  EndIf()
  If(0,5,0)
   PictureDisplay(5,"80_iriasu_st36",0,0,-150,0,100,100,255,0)
   ShowMessageFace("iriasu_fc4",5,0,2,23)
   ShowMessage("\\n<Ilias>Disappeared...?!\nAre you telling us that the Grand Noah Palace vanished into a puff of smoke...?!")
   0()
  EndIf()
  ShowMessageFace("mefist_fc1",2,0,2,24)
  ShowMessage("\\n<Mephisto>Instead, it would seem a castle no one has seen before has been erected in its place. Black and ominous, it is both a sturdy and bizarre fortress.")
  PictureDisplay(6,"80_sonia_m1_st24",0,0,150,0,100,100,255,0)
  ShowMessageFace("sonia_fc3",7,0,2,25)
  ShowMessage("\\n<Sonya>What the heck are you saying...?\nWhere did the Grand Noah Palace go, then?")
  If(0,4,0)
   PictureDisplay(5,"80_alice_st73",0,0,-150,0,100,100,255,0)
   ShowMessageFace("alice_fc5",2,0,2,26)
   ShowMessage("\\n<Alice>I can't imagine what happened to it...but we need to go there. We're leaving right now, Luka!")
   0()
  EndIf()
  If(0,5,0)
   PictureDisplay(5,"80_iriasu_st38",0,0,-150,0,100,100,255,0)
   ShowMessageFace("iriasu_fc4",7,0,2,27)
   ShowMessage("\\n<Ilias>We know nothing of the situation, but we need to head there just to be sure that's the case. Let us make haste to Grand Noah, Luka!")
   0()
  EndIf()
  ShowMessageFace("ruka_fc1",0,0,2,28)
  ShowMessage("\\n<Luka>Right, we need to go there at once!!")
  PictureClear(5)
  PictureClear(6)
  ShowMessageFace("",0,0,2,29)
  ShowMessage("The world is going crazy as this incident becomes hectic.\nThe Grand Noah Palace has supposedly been transformed into a mysterious demonic castle.")
  ShowMessageFace("",0,0,2,30)
  ShowMessage("There's no doubt that the Queen of Dreams had a hand in this. And so we are finally approaching the heart of this incident...")
  Wait(60)
  242(2)
  221()
  211(1)
  ChangeSwitch(31,31,1)
  Wait(120)
  PictureDisplay(5,"iv_chapter08",0,0,0,0,100,100,255,0)
  222()
  Wait(180)
  221()
  PictureClear(5)
  Wait(120)
  TeleportPlayer(0,873,12,30,8,2)
  0()



EVENT   3
 PAGE   1
  0()



EVENT   4
 PAGE   1
  // condition: switch 4 is ON
  0()
 PAGE   2
  // condition: switch 5 is ON
  0()



EVENT   5
 PAGE   1
  // condition: switch 31 is ON
  0()



EVENT   6
 PAGE   1
  0()



EVENT   7
 PAGE   1
  0()



EVENT   8
 PAGE   1
  0()



EVENT   9
 PAGE   1
  0()



EVENT   10
 PAGE   1
  0()



EVENT   11
 PAGE   1
  0()



EVENT   12
 PAGE   1
  0()



EVENT   13
 PAGE   1
  0()



EVENT   14
 PAGE   1
  0()



EVENT   15
 PAGE   1
  0()
